! ----------------------------------------------------------------------------
! ----------------------------------------------------------------------------
! 20 HILFS- UND KONTROLLFUNKTIONEN 
! ----------------------------------------------------------------------------
! ----------------------------------------------------------------------------

!-------------------------------------------------------------------------------
! Hilfesfunktionen
!-------------------------------------------------------------------------------
! SFEDELE,all,all,all
! check
! FSCALE, 50
! /psymb,esys,1 
! /eshape,1,1                        ! Zur Kontrolle: Anzeigen der Shellform
! /EOF
! If you routinely build ANSYS MAPDL input files or are just starting 
! to work with them, you should be aware of the /EOF command.  
! You can place that anywhere in your file and the input will stop 
! being read at that location.  If you have 2000 lines of APDL code 
! and just want to debug the first 20 by reading only those lines in, 
! you just place the line /EOF after those first 20 lines of code, 
! save the file, and read it in.  The remaining 1980 lines will be 
! ignored and you can easily verify the action of those first 20 commands.  
! You can then delete the /EOF command and place a new one farther down to 
! work in the next section.  Hopefully you now see the value of /EOF
! Kontrolle der Bewehrungslagen
! --------------------------------------------------------------------------------------------
 /POST1
k_check=1552
esel,s,Elem,,1436
*get,Layer_4Lage,node,k_check,svar,61  
*get,Layer_3Lage,node,k_check,svar,60
*get,Layer_2Lage,node,k_check,svar,59
*get,Layer_1Lage,node,k_check,svar,58
          
Layer,Layer_1Lage
*get,sss_1,node,k_check,svar,65  
Layer,Layer_2Lage
*get,sss_2,node,k_check,svar,65  
Layer,Layer_3Lage
*get,sss_3,node,k_check,svar,65  
Layer,Layer_4Lage
*get,sss_4,node,k_check,svar,65  
allsel

esel,s,Elem,,2413  ! mit knoten 2629 Violetter Area A38 ganze aussen - RHINO in gelber area
esel,a,Elem,,2912 ! mit Knoten 3323 Brauner Area A73  Mitt der Voute - Rhino in schwarzer Area

*status,sss_1
*status,Layer_1Lage
*status,sss_2
*status,Layer_2Lage
*status,sss_3
*status,Layer_3Lage
*status,sss_4
*status,Layer_4Lage
