           401.00000           615.28697           291.32108             2.07470          -291.31369           340.00000             0.78534             0.00032            21.00000           186.00000           194.00000           600.00000             0.00000
           402.00000           313.10203           258.22442            47.70928          -253.77879           340.00000             0.39964             0.00177            21.00000           186.00000           194.00000           200.00000             0.00000
           403.00000           671.62004           428.93009             9.70486          -428.82028           340.00000             0.85725             0.00020            21.00000           186.00000           582.00000           600.00000             0.00000
           404.00000           278.70133           466.64183            15.84588          -466.37271           340.00000             0.35573             0.00213            21.00000           186.00000           582.00000           200.00000             0.00000
           405.00000           714.79305           488.42175             5.80377          -488.38727           340.00000             0.91235             0.00011            21.00000           186.00000           970.00000           600.00000             0.00000
           406.00000           259.88386           569.25530            -1.01442          -569.25439           340.00000             0.33171             0.00237            21.00000           186.00000           970.00000           200.00000             0.00000
           407.00000           743.04512           523.68400             8.62831          -523.61292           340.00000             0.94841             0.00006            21.00000           186.00000          1358.00000           600.00000             0.00000
           408.00000           246.52388           631.38882             3.30151          -631.38019           340.00000             0.31466             0.00256            21.00000           186.00000          1358.00000           200.00000             0.00000
           409.00000           758.73253           517.50201            -9.99290          -517.40552           340.00000             0.96844             0.00004            21.00000           186.00000          1746.00000           600.00000             0.00000
           410.00000           239.19546           647.09439            -6.58856          -647.06085           340.00000             0.30531             0.00268            21.00000           186.00000          1746.00000           200.00000             0.00000
           411.00000           764.93642           507.63368           -31.31212          -506.66705           340.00000             0.97635             0.00003            21.00000           186.00000          2134.00000           600.00000             0.00000
           412.00000           237.22351           652.37909           -28.55951          -651.75366           340.00000             0.30279             0.00271            21.00000           186.00000          2134.00000           200.00000             0.00000
           413.00000           765.40316           510.24946           -54.83799          -507.29410           340.00000             0.97695             0.00003            21.00000           186.00000          2522.00000           600.00000             0.00000
           414.00000           240.87503           664.24115           -73.48551          -660.16376           340.00000             0.30745             0.00265            21.00000           186.00000          2522.00000           200.00000             0.00000
           415.00000           760.51443           518.68908           -55.45086          -515.71655           340.00000             0.97071             0.00004            21.00000           186.00000          2910.00000           600.00000             0.00000
           416.00000           247.40040           671.44210           -82.74965          -666.32349           340.00000             0.31578             0.00255            21.00000           186.00000          2910.00000           200.00000             0.00000
           417.00000           745.76306           508.03127           -40.31003          -506.42953           340.00000             0.95188             0.00006            21.00000           186.00000          3298.00000           600.00000             0.00000
           418.00000           256.73960           644.73523           -32.47793          -643.91669           340.00000             0.32770             0.00241            21.00000           186.00000          3298.00000           200.00000             0.00000
           419.00000           717.99551           467.83931             9.07811          -467.75122           340.00000             0.91644             0.00011            21.00000           186.00000          3686.00000           600.00000             0.00000
           420.00000           273.13067           541.89764            28.47028          -541.14923           340.00000             0.34862             0.00220            21.00000           186.00000          3686.00000           200.00000             0.00000
           421.00000           669.18796           389.63192            54.94748          -385.73801           340.00000             0.85414             0.00020            21.00000           186.00000          4074.00000           600.00000             0.00000
           422.00000           294.94709           406.83927            43.02616          -404.55771           340.00000             0.37647             0.00195            21.00000           186.00000          4074.00000           200.00000             0.00000
           423.00000           630.37764           311.39167            43.95425          -308.27390           340.00000             0.80461             0.00029            21.00000           186.00000          4462.00000           600.00000             0.00000
           424.00000           317.87762           339.91584            16.11685          -339.53354           340.00000             0.40573             0.00172            21.00000           186.00000          4462.00000           200.00000             0.00000
           425.00000           624.60046           288.48758            30.43164          -286.87802           340.00000             0.79723             0.00030            21.00000           186.00000          4850.00000           600.00000             0.00000
           426.00000           336.50493           315.77354             3.03035          -315.75900           340.00000             0.42951             0.00156            21.00000           186.00000          4850.00000           200.00000             0.00000
           427.00000           623.19633           280.56453             5.79529          -280.50467           340.00000             0.79544             0.00030            21.00000           186.00000          5238.00000           600.00000             0.00000
           428.00000           336.02553           299.23497            12.05086          -298.99222           340.00000             0.42890             0.00157            21.00000           186.00000          5238.00000           200.00000             0.00000
           429.00000           611.53237           273.55470            -9.50122          -273.38965           340.00000             0.78055             0.00033            21.00000           186.00000          5626.00000           600.00000             0.00000
           430.00000           311.74494           278.84489            21.38546          -278.02362           340.00000             0.39791             0.00178            21.00000           186.00000          5626.00000           200.00000             0.00000
           431.00000           623.09532           311.94865            16.13794          -311.53094           340.00000             0.79531             0.00030            21.00000           186.00000          6014.00000           600.00000             0.00000
           432.00000           271.72814           277.77418            24.93035          -276.65317           340.00000             0.34683             0.00222            21.00000           186.00000          6014.00000           200.00000             0.00000
           433.00000           623.13149           410.60687            51.18993          -407.40347           340.00000             0.79536             0.00030            21.00000           186.00000          6402.00000           600.00000             0.00000
           434.00000           231.27906           365.06600            36.53818          -363.23291           340.00000             0.29520             0.00281            21.00000           186.00000          6402.00000           200.00000             0.00000
           435.00000           624.75670           511.97086           104.88545          -501.11197           340.00000             0.79743             0.00030            21.00000           186.00000          6790.00000           600.00000             0.00000
           436.00000           198.92620           503.58486            81.70277          -496.91284           340.00000             0.25391             0.00346            21.00000           186.00000          6790.00000           200.00000             0.00000
           437.00000           637.35176           576.87174           169.66855          -551.35614           340.00000             0.81351             0.00027            20.00000           186.00000          7178.00000           600.00000             0.00000
           438.00000           176.21251           614.59618           141.97876          -597.97198           340.00000             0.22492             0.00405            21.00000           186.00000          7178.00000           200.00000             0.00000
           439.00000           655.58860           604.70476           202.83389          -569.67206           340.00000             0.83678             0.00023            20.00000           186.00000          7566.00000           600.00000             0.00000
           440.00000           158.65903           671.74479           172.72699          -649.15826           340.00000             0.20251             0.00463            21.00000           186.00000          7566.00000           200.00000             0.00000
           441.00000           678.34927           619.36063           221.69868          -578.32281           340.00000             0.86584             0.00018            20.00000           186.00000          7954.00000           600.00000             0.00000
           442.00000           144.36269           696.97588           181.12596          -673.02954           340.00000             0.18426             0.00521            21.00000           186.00000          7954.00000           200.00000             0.00000
           443.00000           704.25048           625.17045           229.44022          -581.54559           340.00000             0.89890             0.00013            20.00000           186.00000          8342.00000           600.00000             0.00000
           444.00000           133.14934           714.03637           184.33998          -689.83093           340.00000             0.16995             0.00575            21.00000           186.00000          8342.00000           200.00000             0.00000
           445.00000           725.17326           644.68774           231.59988          -601.65088           340.00000             0.92560             0.00009            21.00000           186.00000          8730.00000           600.00000             0.00000
           446.00000           124.72101           723.76027           188.13757          -698.87994           340.00000             0.15919             0.00621            21.00000           186.00000          8730.00000           200.00000             0.00000
           447.00000           748.76204           649.05885           234.13689          -605.35718           340.00000             0.95571             0.00005            21.00000           186.00000          9118.00000           600.00000             0.00000
           448.00000           117.83738           723.00751           191.30659          -697.23859           340.00000             0.15041             0.00665            21.00000           186.00000          9118.00000           200.00000             0.00000
           449.00000           725.15397           580.30342           157.47501          -558.52814           340.00000             0.92558             0.00009            21.00000           186.00000          9506.00000           600.00000             0.00000
           450.00000           104.80988          1008.20062            75.69982         -1005.35468           340.00000             0.13378             0.00762            21.00000           186.00000          9506.00000           200.00000             0.00000
           451.00000           738.14637           164.61087            -9.27685           164.34926           340.00000             0.94216             0.00007            20.00000           186.00000           194.00000          4410.00000             0.00000
           452.00000           658.97405           125.27573            -8.34804           124.99728           340.00000             0.84111             0.00022            20.00000           186.00000           194.00000          4030.00000             0.00000
           453.00000           589.29607            93.02798            -5.91381            92.83982           340.00000             0.75217             0.00039            20.00000           186.00000           194.00000          3650.00000             0.00000
           454.00000           564.25454            60.24458           -11.07841            59.21721           340.00000             0.72021             0.00046            20.00000           186.00000           194.00000          3270.00000             0.00000
           455.00000           561.50580            17.15914            -5.45131            16.27019           340.00000             0.71670             0.00047            20.00000           186.00000           194.00000          2890.00000             0.00000
           456.00000           518.32987            22.64952            -0.04939           -22.64947           340.00000             0.66159             0.00060            20.00000           186.00000           194.00000          2510.00000             0.00000
           457.00000           558.81050            67.06906           -15.80286           -65.18074           340.00000             0.71326             0.00047            20.00000           186.00000           194.00000          2130.00000             0.00000
           458.00000           581.86656           111.08795           -12.63389          -110.36720           340.00000             0.74269             0.00041            20.00000           186.00000           194.00000          1750.00000             0.00000
           459.00000           641.89046           150.58692            -8.88527          -150.32455           340.00000             0.81930             0.00026            20.00000           186.00000           194.00000          1370.00000             0.00000
           460.00000           724.91789           231.44463           -33.69839          -228.97824           350.00000             0.89884             0.00013            22.00000           180.00000           194.00000           990.00000             0.00000
           461.00000           769.03936           259.11103           -21.45594           258.22116           340.00000             0.98159             0.00002            20.00000           186.00000           582.00000          4410.00000             0.00000
           462.00000           714.55200           220.75420           -40.78260           216.95436           340.00000             0.91204             0.00011            20.00000           186.00000           582.00000          4030.00000             0.00000
           463.00000           624.03324           173.09923           -25.19077           171.25644           340.00000             0.79651             0.00030            20.00000           186.00000           582.00000          3650.00000             0.00000
           464.00000           595.09714           140.27452           -39.89635           134.48131           340.00000             0.75957             0.00037            20.00000           186.00000           582.00000          3270.00000             0.00000
           465.00000           680.68470            90.85975           -65.34927            63.12660           340.00000             0.86882             0.00018            20.00000           186.00000           582.00000          2890.00000             0.00000
           466.00000           660.53816            78.47482           -67.09110           -40.70726           340.00000             0.84310             0.00022            20.00000           186.00000           582.00000          2510.00000             0.00000
           467.00000           592.35213           122.24873           -45.47385          -113.47635           340.00000             0.75607             0.00038            20.00000           186.00000           582.00000          2130.00000             0.00000
           468.00000           613.91876           146.70025           -32.03923          -143.15883           340.00000             0.78360             0.00032            20.00000           186.00000           582.00000          1750.00000             0.00000
           469.00000           721.56999           236.68930           -95.55427          -216.54378           340.00000             0.92100             0.00010            20.00000           186.00000           582.00000          1370.00000             0.00000
           470.00000           795.01742           374.02343          -126.95344          -351.81863           350.00000             0.98576             0.00002            22.00000           180.00000           582.00000           990.00000             0.00000
           471.00000           783.18025           261.29464           -25.56540           260.04095           340.00000             0.99964             0.00000            20.00000           186.00000           970.00000          4410.00000             0.00000
           472.00000           761.52915           244.22367           -67.00810           234.85126           340.00000             0.97201             0.00003            20.00000           186.00000           970.00000          4030.00000             0.00000
           473.00000           671.66205           205.63279           -49.36573           199.61931           340.00000             0.85730             0.00020            20.00000           186.00000           970.00000          3650.00000             0.00000
           474.00000           634.70226           171.52762           -64.69422           158.85963           340.00000             0.81013             0.00028            20.00000           186.00000           970.00000          3270.00000             0.00000
           475.00000           705.14191           118.98439           -93.54874            73.52495           340.00000             0.90003             0.00013            20.00000           186.00000           970.00000          2890.00000             0.00000
           476.00000           644.02375           100.50069           -88.10534           -48.35118           340.00000             0.82202             0.00025            20.00000           186.00000           970.00000          2510.00000             0.00000
           477.00000           624.61178           136.31005           -62.22612          -121.27795           340.00000             0.79725             0.00030            20.00000           186.00000           970.00000          2130.00000             0.00000
           478.00000           646.67984           154.11182           -45.35763          -147.28590           340.00000             0.82541             0.00025            20.00000           186.00000           970.00000          1750.00000             0.00000
           479.00000           766.53682           255.13206          -131.06493          -218.89348           340.00000             0.97840             0.00003            20.00000           186.00000           970.00000          1370.00000             0.00000
           480.00000            -1.00000           387.61301          -161.71654          -352.26639           350.00000             1.01895            -0.00002            22.00000           180.00000           970.00000           990.00000             0.00000
           481.00000            -1.00000           273.39077           -23.89140           272.34485           350.00000             1.00977            -0.00001            22.00000           180.00000          1358.00000          4410.00000             0.00000
           482.00000            -1.00000           270.28707           -74.82937           259.72229           340.00000             1.00273            -0.00000            20.00000           186.00000          1358.00000          4030.00000             0.00000
           483.00000           700.14984           251.01091           -54.53304           245.01556           340.00000             0.89366             0.00014            20.00000           186.00000          1358.00000          3650.00000             0.00000
           484.00000           613.19003           200.22835           -46.96173           194.64323           340.00000             0.78267             0.00033            20.00000           186.00000          1358.00000          3270.00000             0.00000
           485.00000           591.23540           107.97535           -63.41838            87.38869           340.00000             0.75464             0.00038            20.00000           186.00000          1358.00000          2890.00000             0.00000
           486.00000           554.19660            87.34960           -73.69739           -46.88974           340.00000             0.70737             0.00049            20.00000           186.00000          1358.00000          2510.00000             0.00000
           487.00000           617.22123           154.96271           -69.00867          -138.74886           340.00000             0.78781             0.00032            20.00000           186.00000          1358.00000          2130.00000             0.00000
           488.00000           648.31170           166.68142           -40.56110          -161.67094           340.00000             0.82750             0.00025            20.00000           186.00000          1358.00000          1750.00000             0.00000
           489.00000           762.96782           251.35699          -101.72132          -229.85454           340.00000             0.97384             0.00003            20.00000           186.00000          1358.00000          1370.00000             0.00000
           490.00000            -1.00000           385.33927          -137.88394          -359.82547           340.00000             1.01881            -0.00002            20.00000           186.00000          1358.00000           990.00000             0.00000
           491.00000            -1.00000           269.05725           -15.08233           268.63419           350.00000             1.01469            -0.00002            22.00000           180.00000          1746.00000          4410.00000             0.00000
           492.00000            -1.00000           280.91453           -63.82275           273.56833           340.00000             1.01644            -0.00002            20.00000           186.00000          1746.00000          4030.00000             0.00000
           493.00000           710.58622           286.94937           -33.72173           284.96103           340.00000             0.90698             0.00012            20.00000           186.00000          1746.00000          3650.00000             0.00000
           494.00000           591.91041           221.49299           -10.66896           221.23589           340.00000             0.75551             0.00038            20.00000           186.00000          1746.00000          3270.00000             0.00000
           495.00000           518.48057            95.24641           -30.98270            90.06637           340.00000             0.66178             0.00060            20.00000           186.00000          1746.00000          2890.00000             0.00000
           496.00000           497.81553            60.55057           -50.08026           -34.03439           340.00000             0.63540             0.00068            20.00000           186.00000          1746.00000          2510.00000             0.00000
           497.00000           583.51281           149.81734           -48.97993          -141.58461           340.00000             0.74479             0.00040            20.00000           186.00000          1746.00000          2130.00000             0.00000
           498.00000           628.26923           186.88445           -23.07585          -185.45432           340.00000             0.80191             0.00029            20.00000           186.00000          1746.00000          1750.00000             0.00000
           499.00000           742.75787           260.08598           -65.03002          -251.82497           340.00000             0.94805             0.00006            20.00000           186.00000          1746.00000          1370.00000             0.00000
           500.00000            -1.00000           380.88656          -105.10074          -366.09891           340.00000             1.01740            -0.00002            20.00000           186.00000          1746.00000           990.00000             0.00000
           501.00000            -1.00000           258.52541            -4.78883           258.48105           350.00000             1.01753            -0.00002            22.00000           180.00000          2134.00000          4410.00000             0.00000
           502.00000            -1.00000           282.46469           -20.10054           281.74860           340.00000             1.01885            -0.00002            20.00000           186.00000          2134.00000          4030.00000             0.00000
           503.00000           716.16301           308.66336            -7.10795           308.58151           340.00000             0.91410             0.00011            20.00000           186.00000          2134.00000          3650.00000             0.00000
           504.00000           593.43755           233.50270             2.78645           233.48607           340.00000             0.75746             0.00038            20.00000           186.00000          2134.00000          3270.00000             0.00000
           505.00000           493.72736            96.96193            -2.98923            96.91584           340.00000             0.63019             0.00069            20.00000           186.00000          2134.00000          2890.00000             0.00000
           506.00000           356.46002            25.09149            -8.73855           -23.52064           340.00000             0.45498             0.00141            20.00000           186.00000          2134.00000          2510.00000             0.00000
           507.00000           553.01790           140.49332            -7.48300          -140.29390           340.00000             0.70586             0.00049            20.00000           186.00000          2134.00000          2130.00000             0.00000
           508.00000           614.86067           200.53171            -2.13809          -200.52031           340.00000             0.78480             0.00032            20.00000           186.00000          2134.00000          1750.00000             0.00000
           509.00000           725.26418           270.47489           -25.13365          -269.30460           340.00000             0.92572             0.00009            20.00000           186.00000          2134.00000          1370.00000             0.00000
           510.00000            -1.00000           371.36107           -47.95189          -368.25217           340.00000             1.01635            -0.00002            20.00000           186.00000          2134.00000           990.00000             0.00000
           511.00000            -1.00000           265.72879             6.36451           265.65256           350.00000             1.01856            -0.00002            22.00000           180.00000          2522.00000          4410.00000             0.00000
           512.00000            -1.00000           286.15418            32.19297           284.33752           340.00000             1.01971            -0.00002            20.00000           186.00000          2522.00000          4030.00000             0.00000
           513.00000           717.37238           303.94910            16.23001           303.51547           340.00000             0.91564             0.00011            20.00000           186.00000          2522.00000          3650.00000             0.00000
           514.00000           597.11829           232.70662            13.48453           232.31560           340.00000             0.76215             0.00037            20.00000           186.00000          2522.00000          3270.00000             0.00000
           515.00000           514.34492            99.94536            27.17208            96.18083           340.00000             0.65650             0.00062            20.00000           186.00000          2522.00000          2890.00000             0.00000
           516.00000           499.90311            38.63877            32.78453           -20.44820           340.00000             0.63807             0.00067            20.00000           186.00000          2522.00000          2510.00000             0.00000
           517.00000           557.44880           138.88773            26.73493          -136.29030           340.00000             0.71152             0.00048            20.00000           186.00000          2522.00000          2130.00000             0.00000
           518.00000           615.18817           200.31187            10.20867          -200.05156           340.00000             0.78522             0.00032            20.00000           186.00000          2522.00000          1750.00000             0.00000
           519.00000           724.97376           274.71832            19.87527          -273.99841           340.00000             0.92535             0.00009            20.00000           186.00000          2522.00000          1370.00000             0.00000
           520.00000            -1.00000           374.71553            20.82968          -374.13614           340.00000             1.01552            -0.00002            20.00000           186.00000          2522.00000           990.00000             0.00000
           521.00000            -1.00000           281.35757            15.95131           280.90503           350.00000             1.01764            -0.00002            22.00000           180.00000          2910.00000          4410.00000             0.00000
           522.00000            -1.00000           286.37028            63.96267           279.13565           340.00000             1.01783            -0.00002            20.00000           186.00000          2910.00000          4030.00000             0.00000
           523.00000           712.23768           284.51585            38.25357           281.93250           340.00000             0.90909             0.00012            20.00000           186.00000          2910.00000          3650.00000             0.00000
           524.00000           601.49536           210.74666            27.50283           208.94437           340.00000             0.76774             0.00036            20.00000           186.00000          2910.00000          3270.00000             0.00000
           525.00000           597.71612           101.52812            63.10740            79.53248           340.00000             0.76292             0.00037            20.00000           186.00000          2910.00000          2890.00000             0.00000
           526.00000           646.90986            84.90099            82.76326           -18.93202           340.00000             0.82571             0.00025            20.00000           186.00000          2910.00000          2510.00000             0.00000
           527.00000           589.07949           145.16210            61.15511          -131.65138           340.00000             0.75189             0.00039            20.00000           186.00000          2910.00000          2130.00000             0.00000
           528.00000           622.31787           191.87749            22.17494          -190.59183           340.00000             0.79432             0.00030            20.00000           186.00000          2910.00000          1750.00000             0.00000
           529.00000           738.54813           268.12236            55.16763          -262.38547           340.00000             0.94267             0.00007            20.00000           186.00000          2910.00000          1370.00000             0.00000
           530.00000            -1.00000           385.50021            79.88707          -377.13190           340.00000             1.01559            -0.00002            20.00000           186.00000          2910.00000           990.00000             0.00000
           531.00000            -1.00000           285.06313            23.07814           284.12741           350.00000             1.01354            -0.00002            22.00000           180.00000          3298.00000          4410.00000             0.00000
           532.00000            -1.00000           276.55999            68.76427           267.87479           340.00000             1.00858            -0.00001            20.00000           186.00000          3298.00000          4030.00000             0.00000
           533.00000           696.61398           243.70066            45.87195           239.34447           340.00000             0.88915             0.00015            20.00000           186.00000          3298.00000          3650.00000             0.00000
           534.00000           617.10995           189.58024            54.17833           181.67381           340.00000             0.78767             0.00032            20.00000           186.00000          3298.00000          3270.00000             0.00000
           535.00000           710.13123           144.52500           117.64588            83.94595           340.00000             0.90640             0.00012            20.00000           186.00000          3298.00000          2890.00000             0.00000
           536.00000           737.37611           140.74549           138.52463           -24.90425           340.00000             0.94118             0.00007            20.00000           186.00000          3298.00000          2510.00000             0.00000
           537.00000           632.61577           166.17593           101.00599          -131.95541           340.00000             0.80746             0.00028            20.00000           186.00000          3298.00000          2130.00000             0.00000
           538.00000           639.03409           183.22495            47.57187          -176.94151           340.00000             0.81565             0.00027            20.00000           186.00000          3298.00000          1750.00000             0.00000
           539.00000           755.01710           251.88179            89.93261          -235.27975           340.00000             0.96369             0.00004            20.00000           186.00000          3298.00000          1370.00000             0.00000
           540.00000            -1.00000           383.76469           117.26987          -365.40814           340.00000             1.01812            -0.00002            20.00000           186.00000          3298.00000           990.00000             0.00000
           541.00000            -1.00000           270.70588            29.72811           269.06860           340.00000             1.00791            -0.00001            20.00000           186.00000          3686.00000          4410.00000             0.00000
           542.00000           771.96022           239.92323            44.76194           235.71068           340.00000             0.98532             0.00002            20.00000           186.00000          3686.00000          4030.00000             0.00000
           543.00000           672.75780           195.95132            36.73256           192.47763           340.00000             0.85870             0.00019            20.00000           186.00000          3686.00000          3650.00000             0.00000
           544.00000           633.20655           198.62567            87.20643           178.45782           340.00000             0.80822             0.00028            20.00000           186.00000          3686.00000          3270.00000             0.00000
           545.00000           720.49955           177.17499           150.02251            94.25616           340.00000             0.91964             0.00010            20.00000           186.00000          3686.00000          2890.00000             0.00000
           546.00000           745.40894           184.69825           181.18187           -35.86884           340.00000             0.95143             0.00006            20.00000           186.00000          3686.00000          2510.00000             0.00000
           547.00000           672.94856           206.87586           154.68900          -137.36424           340.00000             0.85894             0.00019            20.00000           186.00000          3686.00000          2130.00000             0.00000
           548.00000           659.91324           197.77327            90.22534          -175.99333           340.00000             0.84230             0.00022            20.00000           186.00000          3686.00000          1750.00000             0.00000
           549.00000           760.24764           252.96938           121.46516          -221.90025           340.00000             0.97037             0.00004            20.00000           186.00000          3686.00000          1370.00000             0.00000
           550.00000            -1.00000           386.56127           147.30878          -357.39297           350.00000             1.01208            -0.00001            22.00000           180.00000          3686.00000           990.00000             0.00000
           551.00000            -1.00000           233.48933            24.92214           232.15546           340.00000             1.00175            -0.00000            20.00000           186.00000          4074.00000          4410.00000             0.00000
           552.00000           741.68076           194.23200            15.88029           193.58173           340.00000             0.94667             0.00007            20.00000           186.00000          4074.00000          4030.00000             0.00000
           553.00000           652.57181           182.25843            37.58679           178.34059           340.00000             0.83293             0.00024            20.00000           186.00000          4074.00000          3650.00000             0.00000
           554.00000           631.86313           191.80995            93.97334           167.21265           340.00000             0.80650             0.00028            20.00000           186.00000          4074.00000          3270.00000             0.00000
           555.00000           726.59915           165.93714           144.97185            80.73598           340.00000             0.92742             0.00009            20.00000           186.00000          4074.00000          2890.00000             0.00000
           556.00000           739.13518           176.21428           171.65590           -39.82117           340.00000             0.94342             0.00007            20.00000           186.00000          4074.00000          2510.00000             0.00000
           557.00000           668.72270           195.73252           149.87589          -125.89058           340.00000             0.85355             0.00020            20.00000           186.00000          4074.00000          2130.00000             0.00000
           558.00000           657.80378           206.85221           108.90468          -175.86247           340.00000             0.83961             0.00022            20.00000           186.00000          4074.00000          1750.00000             0.00000
           559.00000           738.92152           237.86244           108.29662          -211.77908           340.00000             0.94315             0.00007            20.00000           186.00000          4074.00000          1370.00000             0.00000
           560.00000           789.76750           333.68893           113.58125          -313.76361           350.00000             0.97925             0.00002            22.00000           180.00000          4074.00000           990.00000             0.00000
           561.00000           779.52881           196.90398            14.23259           196.38893           340.00000             0.99498             0.00001            20.00000           186.00000          4462.00000          4410.00000             0.00000
           562.00000           714.81373           178.44029            13.78956           177.90668           340.00000             0.91238             0.00011            20.00000           186.00000          4462.00000          4030.00000             0.00000
           563.00000           630.37893           175.87380            43.79977           170.33253           340.00000             0.80461             0.00029            20.00000           186.00000          4462.00000          3650.00000             0.00000
           564.00000           599.92690           156.01613            74.40346           137.13190           340.00000             0.76574             0.00036            20.00000           186.00000          4462.00000          3270.00000             0.00000
           565.00000           652.74650           115.27312            97.49684            61.50007           340.00000             0.83316             0.00024            20.00000           186.00000          4462.00000          2890.00000             0.00000
           566.00000           653.38865           109.99071           103.68089           -36.71826           350.00000             0.81015             0.00027            22.00000           180.00000          4462.00000          2510.00000             0.00000
           567.00000           589.31694           145.04239            94.80936          -109.76557           340.00000             0.75220             0.00039            20.00000           186.00000          4462.00000          2130.00000             0.00000
           568.00000           609.45666           186.91604            84.17509          -166.88966           340.00000             0.77790             0.00034            20.00000           186.00000          4462.00000          1750.00000             0.00000
           569.00000           697.04439           227.44027            62.69416          -218.62872           340.00000             0.88970             0.00015            20.00000           186.00000          4462.00000          1370.00000             0.00000
           570.00000           761.30203           281.70499            50.99576          -277.05078           350.00000             0.94395             0.00007            22.00000           180.00000          4462.00000           990.00000             0.00000
           571.00000           766.95939           179.20185            11.75986           178.81557           340.00000             0.97894             0.00003            20.00000           186.00000          4850.00000          4410.00000             0.00000
           572.00000           689.15650           171.56475            18.68582           170.54414           340.00000             0.87963             0.00016            20.00000           186.00000          4850.00000          4030.00000             0.00000
           573.00000           607.04446           152.11596            33.01938           148.48901           340.00000             0.77482             0.00034            20.00000           186.00000          4850.00000          3650.00000             0.00000
           574.00000           559.70159           108.42824            33.09788           103.25315           340.00000             0.71440             0.00047            20.00000           186.00000          4850.00000          3270.00000             0.00000
           575.00000           540.38965            45.60268            27.37200            36.47435           340.00000             0.68975             0.00053            20.00000           186.00000          4850.00000          2890.00000             0.00000
           576.00000           490.78637            53.29429            34.39530           -40.70927           340.00000             0.62643             0.00070            20.00000           186.00000          4850.00000          2510.00000             0.00000
           577.00000           539.02130           121.73035            45.63791          -112.85149           340.00000             0.68800             0.00053            20.00000           186.00000          4850.00000          2130.00000             0.00000
           578.00000           590.95974           177.51968            41.23536          -172.66408           340.00000             0.75429             0.00038            20.00000           186.00000          4850.00000          1750.00000             0.00000
           579.00000           702.75928           222.89740            22.26768          -221.78233           340.00000             0.89699             0.00014            20.00000           186.00000          4850.00000          1370.00000             0.00000
           580.00000           740.13240           255.21340            35.48088          -252.73502           350.00000             0.91770             0.00010            22.00000           180.00000          4850.00000           990.00000             0.00000
           581.00000           750.05561           170.44028            18.37926           169.44643           340.00000             0.95736             0.00005            20.00000           186.00000          5238.00000          4410.00000             0.00000
           582.00000           668.54260           152.63705            17.91927           151.58156           340.00000             0.85332             0.00020            20.00000           186.00000          5238.00000          4030.00000             0.00000
           583.00000           591.14689           128.70512            12.99539           128.04736           340.00000             0.75453             0.00038            20.00000           186.00000          5238.00000          3650.00000             0.00000
           584.00000           538.47806            83.93127           -10.06922            83.32508           340.00000             0.68731             0.00054            20.00000           186.00000          5238.00000          3270.00000             0.00000
           585.00000           484.01826            35.77719           -28.53835            21.57707           350.00000             0.60014             0.00076            22.00000           180.00000          5238.00000          2890.00000             0.00000
           586.00000           459.18487            54.63818           -25.18154           -48.48939           340.00000             0.58610             0.00083            20.00000           186.00000          5238.00000          2510.00000             0.00000
           587.00000           540.23434           117.08392            -7.21163          -116.86161           340.00000             0.68955             0.00053            20.00000           186.00000          5238.00000          2130.00000             0.00000
           588.00000           595.81442           172.40607             5.43721          -172.32031           340.00000             0.76049             0.00037            20.00000           186.00000          5238.00000          1750.00000             0.00000
           589.00000           696.78151           208.23129            13.35640          -207.80249           340.00000             0.88936             0.00015            20.00000           186.00000          5238.00000          1370.00000             0.00000
           590.00000           732.35733           229.57184            12.04029          -229.25589           350.00000             0.90806             0.00012            22.00000           180.00000          5238.00000           990.00000             0.00000
           591.00000           728.12484           180.97634            13.35142           180.48317           340.00000             0.92937             0.00009            20.00000           186.00000          5626.00000          4410.00000             0.00000
           592.00000           658.58675           151.73956             6.92110           151.58163           340.00000             0.84061             0.00022            20.00000           186.00000          5626.00000          4030.00000             0.00000
           593.00000           582.78486           120.07735            -0.64335           120.07562           340.00000             0.74386             0.00041            20.00000           186.00000          5626.00000          3650.00000             0.00000
           594.00000           527.14729           103.11711           -45.82291            92.37640           340.00000             0.67284             0.00057            20.00000           186.00000          5626.00000          3270.00000             0.00000
           595.00000           480.47599            88.28761           -83.63689            28.27672           350.00000             0.59575             0.00078            22.00000           180.00000          5626.00000          2890.00000             0.00000
           596.00000           486.10897            92.55792           -82.52274           -41.91619           350.00000             0.60274             0.00075            22.00000           180.00000          5626.00000          2510.00000             0.00000
           597.00000           536.92285           120.93024           -51.53930          -109.39754           340.00000             0.68532             0.00054            20.00000           186.00000          5626.00000          2130.00000             0.00000
           598.00000           589.40867           156.15773           -25.52727          -154.05711           340.00000             0.75231             0.00039            20.00000           186.00000          5626.00000          1750.00000             0.00000
           599.00000           671.14125           200.34179            -6.31111          -200.24236           340.00000             0.85664             0.00020            20.00000           186.00000          5626.00000          1370.00000             0.00000
           600.00000           707.41427           246.71210            -9.55480          -246.52701           350.00000             0.87714             0.00016            22.00000           180.00000          5626.00000           990.00000             0.00000
           601.00000           710.87959           216.76007             2.37633           216.74704           350.00000             0.88143             0.00015            22.00000           180.00000          6014.00000          4410.00000             0.00000
           602.00000           652.19489           188.78258           -17.25169           187.99266           340.00000             0.83245             0.00024            20.00000           186.00000          6014.00000          4030.00000             0.00000
           603.00000           583.19000           143.89757           -11.56756           143.43187           340.00000             0.74438             0.00040            20.00000           186.00000          6014.00000          3650.00000             0.00000
           604.00000           538.69825           141.40176           -75.28932           119.69117           340.00000             0.68759             0.00053            20.00000           186.00000          6014.00000          3270.00000             0.00000
           605.00000           520.20253           153.49639          -147.61346            42.08808           350.00000             0.64501             0.00063            22.00000           180.00000          6014.00000          2890.00000             0.00000
           606.00000           540.42880           147.78643          -143.28862           -36.18288           350.00000             0.67009             0.00056            22.00000           180.00000          6014.00000          2510.00000             0.00000
           607.00000           581.23339           146.10355           -93.96420          -111.87930           350.00000             0.72068             0.00044            22.00000           180.00000          6014.00000          2130.00000             0.00000
           608.00000           598.05171           163.30577           -52.30791          -154.70183           340.00000             0.76334             0.00036            20.00000           186.00000          6014.00000          1750.00000             0.00000
           609.00000           640.42612           221.73824           -55.23384          -214.74886           340.00000             0.81743             0.00026            20.00000           186.00000          6014.00000          1370.00000             0.00000
           610.00000           656.29822           291.26612           -44.93632          -287.77887           350.00000             0.81376             0.00026            22.00000           180.00000          6014.00000           990.00000             0.00000
           611.00000           677.23180           263.05597            -3.53645           263.03220           350.00000             0.83971             0.00022            22.00000           180.00000          6402.00000          4410.00000             0.00000
           612.00000           668.51853           247.52474           -40.52744           244.18440           350.00000             0.82891             0.00024            22.00000           180.00000          6402.00000          4030.00000             0.00000
           613.00000           598.09117           206.61648           -32.74879           204.00462           340.00000             0.76340             0.00036            20.00000           186.00000          6402.00000          3650.00000             0.00000
           614.00000           594.09979           194.04989          -122.06704           150.84760           350.00000             0.73663             0.00041            22.00000           180.00000          6402.00000          3270.00000             0.00000
           615.00000           607.28343           234.03493          -228.57278            50.26757           350.00000             0.75298             0.00037            22.00000           180.00000          6402.00000          2890.00000             0.00000
           616.00000           635.15177           221.72674          -217.20287           -44.56079           350.00000             0.78754             0.00031            22.00000           180.00000          6402.00000          2510.00000             0.00000
           617.00000           650.89581           188.52366          -137.60126          -128.86839           350.00000             0.80706             0.00027            22.00000           180.00000          6402.00000          2130.00000             0.00000
           618.00000           638.34963           185.95012           -85.60857          -165.07156           340.00000             0.81478             0.00027            20.00000           186.00000          6402.00000          1750.00000             0.00000
           619.00000           659.77313           269.08438          -123.00629          -239.32375           350.00000             0.81806             0.00025            22.00000           180.00000          6402.00000          1370.00000             0.00000
           620.00000           623.89904           351.23681          -110.05280          -333.55011           350.00000             0.77358             0.00033            22.00000           180.00000          6402.00000           990.00000             0.00000
           621.00000           647.72180           308.26292           -19.15029           307.66751           350.00000             0.80312             0.00028            22.00000           180.00000          6790.00000          4410.00000             0.00000
           622.00000           679.53072           302.23524           -42.50078           299.23206           350.00000             0.84256             0.00021            22.00000           180.00000          6790.00000          4030.00000             0.00000
           623.00000           621.89165           280.22260           -52.29651           275.29944           340.00000             0.79377             0.00031            20.00000           186.00000          6790.00000          3650.00000             0.00000
           624.00000           641.58861           231.21771          -143.07674           181.63336           340.00000             0.81891             0.00026            20.00000           186.00000          6790.00000          3270.00000             0.00000
           625.00000           679.32216           235.23945          -231.43233            42.15063           350.00000             0.84230             0.00021            22.00000           180.00000          6790.00000          2890.00000             0.00000
           626.00000           706.09594           232.84149          -228.01587           -47.15846           350.00000             0.87550             0.00016            22.00000           180.00000          6790.00000          2510.00000             0.00000
           627.00000           724.55455           212.32452          -165.36334          -133.17908           350.00000             0.89839             0.00013            22.00000           180.00000          6790.00000          2130.00000             0.00000
           628.00000           685.48173           194.99767          -101.79167          -166.32062           340.00000             0.87494             0.00017            20.00000           186.00000          6790.00000          1750.00000             0.00000
           629.00000           707.69999           273.86455          -135.96844          -237.72752           350.00000             0.87749             0.00016            22.00000           180.00000          6790.00000          1370.00000             0.00000
           630.00000           648.93233           391.81618          -135.14456          -367.77148           350.00000             0.80462             0.00028            22.00000           180.00000          6790.00000           990.00000             0.00000
           631.00000           634.55620           338.48513           -18.99468           337.95175           350.00000             0.78680             0.00031            22.00000           180.00000          7178.00000          4410.00000             0.00000
           632.00000           675.35142           340.92607           -32.98768           339.32639           340.00000             0.86201             0.00019            20.00000           186.00000          7178.00000          4030.00000             0.00000
           633.00000           642.51901           330.24103           -61.71235           324.42368           340.00000             0.82010             0.00026            20.00000           186.00000          7178.00000          3650.00000             0.00000
           634.00000           680.31543           253.05435          -141.81267           209.58452           340.00000             0.86835             0.00018            20.00000           186.00000          7178.00000          3270.00000             0.00000
           635.00000           654.35579           162.71841          -155.21689            48.83645           340.00000             0.83521             0.00023            20.00000           186.00000          7178.00000          2890.00000             0.00000
           636.00000           644.73100           168.74275          -157.27374           -61.14806           340.00000             0.82293             0.00025            20.00000           186.00000          7178.00000          2510.00000             0.00000
           637.00000           777.97407           226.58396          -181.72063          -135.34366           350.00000             0.96462             0.00004            22.00000           180.00000          7178.00000          2130.00000             0.00000
           638.00000           713.80828           186.20096           -98.00080          -158.32448           340.00000             0.91109             0.00011            20.00000           186.00000          7178.00000          1750.00000             0.00000
           639.00000           698.82765           251.03563           -94.88575          -232.41252           340.00000             0.89197             0.00014            20.00000           186.00000          7178.00000          1370.00000             0.00000
           640.00000           674.74024           404.99315          -106.35215          -390.77957           350.00000             0.83662             0.00022            22.00000           180.00000          7178.00000           990.00000             0.00000
           641.00000           631.69289           352.11186            -7.55395           352.03082           350.00000             0.78325             0.00032            22.00000           180.00000          7566.00000          4410.00000             0.00000
           642.00000           682.19923           357.26469           -13.77206           356.99915           340.00000             0.87075             0.00017            20.00000           186.00000          7566.00000          4030.00000             0.00000
           643.00000           662.04176           355.70273           -76.75739           347.32224           340.00000             0.84502             0.00022            20.00000           186.00000          7566.00000          3650.00000             0.00000
           644.00000           698.97765           269.82334          -141.17404           229.94461           340.00000             0.89217             0.00014            20.00000           186.00000          7566.00000          3270.00000             0.00000
           645.00000           473.35756           132.58699          -109.77949            74.34900           340.00000             0.60419             0.00077            20.00000           186.00000          7566.00000          2890.00000             0.00000
           646.00000           442.02896           135.62471          -108.82895           -80.93407           340.00000             0.56420             0.00091            20.00000           186.00000          7566.00000          2510.00000             0.00000
           647.00000           770.12912           217.13350          -166.31964          -139.58772           340.00000             0.98298             0.00002            20.00000           186.00000          7566.00000          2130.00000             0.00000
           648.00000           726.25262           172.71548           -90.68057          -146.99548           340.00000             0.92698             0.00009            20.00000           186.00000          7566.00000          1750.00000             0.00000
           649.00000           680.80678           243.39956           -73.48917          -232.04027           340.00000             0.86897             0.00018            20.00000           186.00000          7566.00000          1370.00000             0.00000
           650.00000           683.95866           412.28468           -91.30392          -402.04758           350.00000             0.84805             0.00020            22.00000           180.00000          7566.00000           990.00000             0.00000
           651.00000           638.54404           357.73583             9.99980           357.59604           350.00000             0.79174             0.00030            22.00000           180.00000          7954.00000          4410.00000             0.00000
           652.00000           687.15752           359.16647             5.25922           359.12796           340.00000             0.87708             0.00016            20.00000           186.00000          7954.00000          4030.00000             0.00000
           653.00000           677.57110           362.23214           -87.90013           351.40530           340.00000             0.86484             0.00018            20.00000           186.00000          7954.00000          3650.00000             0.00000
           654.00000           697.02858           277.03498          -132.46991           243.31071           340.00000             0.88968             0.00015            20.00000           186.00000          7954.00000          3270.00000             0.00000
           655.00000           337.39406           122.04460           -82.59990            89.84509           340.00000             0.43065             0.00156            20.00000           186.00000          7954.00000          2890.00000             0.00000
           656.00000           299.93911           115.11932           -75.71957           -86.71220           340.00000             0.38284             0.00190            20.00000           186.00000          7954.00000          2510.00000             0.00000
           657.00000           747.81689           196.30774          -133.72081          -143.72012           340.00000             0.95450             0.00006            20.00000           186.00000          7954.00000          2130.00000             0.00000
           658.00000           725.00626           164.20977           -83.77094          -141.23483           340.00000             0.92539             0.00009            20.00000           186.00000          7954.00000          1750.00000             0.00000
           659.00000           667.25151           239.55978           -62.36964          -231.29832           340.00000             0.85167             0.00020            20.00000           186.00000          7954.00000          1370.00000             0.00000
           660.00000           673.25067           412.54845           -78.61126          -404.98950           340.00000             0.85933             0.00019            20.00000           186.00000          7954.00000           990.00000             0.00000
           661.00000           655.06689           365.35693            27.50385           364.32022           350.00000             0.81223             0.00026            22.00000           180.00000          8342.00000          4410.00000             0.00000
           662.00000           694.96930           356.01108            16.99260           355.60532           340.00000             0.88705             0.00015            20.00000           186.00000          8342.00000          4030.00000             0.00000
           663.00000           687.56096           353.91825           -93.17590           341.43283           340.00000             0.87759             0.00016            20.00000           186.00000          8342.00000          3650.00000             0.00000
           664.00000           677.04879           266.73801          -112.84013           241.69458           340.00000             0.86418             0.00018            20.00000           186.00000          8342.00000          3270.00000             0.00000
           665.00000           269.43024           110.26672           -62.20858            91.04308           340.00000             0.34390             0.00224            20.00000           186.00000          8342.00000          2890.00000             0.00000
           666.00000           231.47402            94.52144           -54.16646           -77.46159           340.00000             0.29545             0.00281            20.00000           186.00000          8342.00000          2510.00000             0.00000
           667.00000           695.33628           167.10317           -92.69663          -139.03526           340.00000             0.88752             0.00015            20.00000           186.00000          8342.00000          2130.00000             0.00000
           668.00000           712.10450           150.39634           -72.77771          -131.61484           340.00000             0.90892             0.00012            20.00000           186.00000          8342.00000          1750.00000             0.00000
           669.00000           664.05481           235.64419           -58.38543          -228.29657           340.00000             0.84759             0.00021            20.00000           186.00000          8342.00000          1370.00000             0.00000
           670.00000           679.77902           413.09948           -68.47122          -407.38541           340.00000             0.86766             0.00018            20.00000           186.00000          8342.00000           990.00000             0.00000
           671.00000           681.32534           385.66326            43.01781           383.25659           350.00000             0.84479             0.00021            22.00000           180.00000          8730.00000          4410.00000             0.00000
           672.00000           708.10567           358.07723            11.42095           357.89505           340.00000             0.90382             0.00013            20.00000           186.00000          8730.00000          4030.00000             0.00000
           673.00000           695.01360           350.55866           -97.80268           336.63928           340.00000             0.88711             0.00015            20.00000           186.00000          8730.00000          3650.00000             0.00000
           674.00000           649.18373           255.81255           -91.56461           238.86394           340.00000             0.82861             0.00024            20.00000           186.00000          8730.00000          3270.00000             0.00000
           675.00000           201.26010            95.39131           -30.24625            90.46915           340.00000             0.25689             0.00340            20.00000           186.00000          8730.00000          2890.00000             0.00000
           676.00000           159.39680            78.09853           -22.34970           -74.83228           340.00000             0.20345             0.00461            20.00000           186.00000          8730.00000          2510.00000             0.00000
           677.00000           627.47369           145.40369           -58.76286          -133.00060           340.00000             0.80090             0.00029            20.00000           186.00000          8730.00000          2130.00000             0.00000
           678.00000           688.03291           151.42422           -64.70801          -136.90204           340.00000             0.87820             0.00016            20.00000           186.00000          8730.00000          1750.00000             0.00000
           679.00000           669.96906           236.30659           -61.23643          -228.23431           340.00000             0.85514             0.00020            20.00000           186.00000          8730.00000          1370.00000             0.00000
           680.00000           689.75953           419.97412           -61.80424          -415.40161           340.00000             0.88040             0.00016            20.00000           186.00000          8730.00000           990.00000             0.00000
           681.00000           694.26450           342.35495            30.38843           341.00360           350.00000             0.86083             0.00018            22.00000           180.00000          9118.00000          4410.00000             0.00000
           682.00000           712.10415           316.66603             0.08596           316.66602           340.00000             0.90892             0.00012            20.00000           186.00000          9118.00000          4030.00000             0.00000
           683.00000           701.76423           308.23619           -96.22522           292.83145           340.00000             0.89572             0.00014            20.00000           186.00000          9118.00000          3650.00000             0.00000
           684.00000           620.49534           234.13341           -68.41100           223.91603           340.00000             0.79199             0.00031            20.00000           186.00000          9118.00000          3270.00000             0.00000
           685.00000           168.67408            57.30969             8.11833            56.73177           340.00000             0.21529             0.00429            20.00000           186.00000          9118.00000          2890.00000             0.00000
           686.00000           158.21789            35.48194            17.11791           -31.07966           340.00000             0.20195             0.00465            20.00000           186.00000          9118.00000          2510.00000             0.00000
           687.00000           571.41388           129.39683           -34.03837          -124.83961           340.00000             0.72934             0.00044            20.00000           186.00000          9118.00000          2130.00000             0.00000
           688.00000           684.18189           113.74610           -48.38492          -102.94209           340.00000             0.87328             0.00017            20.00000           186.00000          9118.00000          1750.00000             0.00000
           689.00000           674.75772           197.00227           -56.40520          -188.75473           340.00000             0.86125             0.00019            20.00000           186.00000          9118.00000          1370.00000             0.00000
           690.00000           706.55702           390.04771           -83.37842          -381.03183           340.00000             0.90184             0.00013            20.00000           186.00000          9118.00000           990.00000             0.00000
           691.00000           655.12310           343.18833            -7.41359           343.10825           350.00000             0.81230             0.00026            22.00000           180.00000          9506.00000          4410.00000             0.00000
           692.00000           682.75281           292.34327            -1.04562           292.34140           340.00000             0.87146             0.00017            20.00000           186.00000          9506.00000          4030.00000             0.00000
           693.00000           643.12650           343.20462           -50.38871           339.48547           340.00000             0.82088             0.00026            20.00000           186.00000          9506.00000          3650.00000             0.00000
           694.00000           566.71216           310.49049           -40.83978           307.79288           340.00000             0.72334             0.00045            20.00000           186.00000          9506.00000          3270.00000             0.00000
           695.00000           170.51939           156.26331            54.02467           146.62727           340.00000             0.21765             0.00423            20.00000           186.00000          9506.00000          2890.00000             0.00000
           696.00000           134.39622           135.01674            50.36648          -125.27066           340.00000             0.17154             0.00568            20.00000           186.00000          9506.00000          2510.00000             0.00000
           697.00000           523.84018           214.33041           -23.72448          -213.01332           340.00000             0.66862             0.00058            20.00000           186.00000          9506.00000          2130.00000             0.00000
           698.00000           554.94865           207.82400            -6.16852          -207.73244           340.00000             0.70833             0.00048            20.00000           186.00000          9506.00000          1750.00000             0.00000
           699.00000           624.66825           268.16755           -38.61112          -265.37335           340.00000             0.79732             0.00030            20.00000           186.00000          9506.00000          1370.00000             0.00000
           700.00000           690.96744           380.44412           -78.57845          -372.24072           340.00000             0.88194             0.00016            20.00000           186.00000          9506.00000           990.00000             0.00000
           701.00000           624.82052           173.51877            13.75740           172.97253           340.00000             0.79751             0.00030            21.00000           186.00000           194.00000          5200.00000             0.00000
           702.00000           722.69035           180.56677             4.14918           180.51909           340.00000             0.92243             0.00010            21.00000           186.00000           194.00000          4800.00000             0.00000
           703.00000           604.42831           275.40971             7.85729           275.29761           340.00000             0.77148             0.00035            21.00000           186.00000           582.00000          5200.00000             0.00000
           704.00000           743.49647           266.92355            31.44069           265.06540           340.00000             0.94899             0.00006            21.00000           186.00000           582.00000          4800.00000             0.00000
           705.00000           591.64331           324.79359            -6.23527           324.73373           340.00000             0.75517             0.00038            21.00000           186.00000           970.00000          5200.00000             0.00000
           706.00000           749.62214           279.03199            27.12143           277.71078           340.00000             0.95681             0.00005            21.00000           186.00000           970.00000          4800.00000             0.00000
           707.00000           581.41668           359.49763           -13.70978           359.23611           340.00000             0.74211             0.00041            21.00000           186.00000          1358.00000          5200.00000             0.00000
           708.00000           750.07140           285.41667            23.82882           284.42023           340.00000             0.95738             0.00005            21.00000           186.00000          1358.00000          4800.00000             0.00000
           709.00000           571.97128           380.38624            -1.66335           380.38260           340.00000             0.73006             0.00044            21.00000           186.00000          1746.00000          5200.00000             0.00000
           710.00000           748.64363           286.91769            22.73488           286.01553           340.00000             0.95556             0.00005            21.00000           186.00000          1746.00000          4800.00000             0.00000
           711.00000           567.86612           385.78620            -2.16009           385.78015           340.00000             0.72482             0.00045            21.00000           186.00000          2134.00000          5200.00000             0.00000
           712.00000           747.22556           289.46328             8.22153           289.34650           340.00000             0.95375             0.00006            21.00000           186.00000          2134.00000          4800.00000             0.00000
           713.00000           567.67131           385.70667            -0.79771           385.70584           340.00000             0.72457             0.00045            21.00000           186.00000          2522.00000          5200.00000             0.00000
           714.00000           748.15804           293.20338           -10.36183           293.02023           340.00000             0.95494             0.00006            21.00000           186.00000          2522.00000          4800.00000             0.00000
           715.00000           571.65917           381.69928             1.57781           381.69601           340.00000             0.72966             0.00044            21.00000           186.00000          2910.00000          5200.00000             0.00000
           716.00000           751.45748           295.49309           -17.45433           294.97714           340.00000             0.95915             0.00005            21.00000           186.00000          2910.00000          4800.00000             0.00000
           717.00000           580.26629           372.32284             6.51683           372.26581           340.00000             0.74064             0.00041            21.00000           186.00000          3298.00000          5200.00000             0.00000
           718.00000           756.40619           290.83849           -12.19430           290.58273           340.00000             0.96547             0.00004            21.00000           186.00000          3298.00000          4800.00000             0.00000
           719.00000           593.58484           352.45925            16.98905           352.04956           340.00000             0.75764             0.00038            21.00000           186.00000          3686.00000          5200.00000             0.00000
           720.00000           759.39691           271.47984            -2.21295           271.47083           340.00000             0.96928             0.00004            21.00000           186.00000          3686.00000          4800.00000             0.00000
           721.00000           612.07284           316.20607            37.17626           314.01306           340.00000             0.78124             0.00033            21.00000           186.00000          4074.00000          5200.00000             0.00000
           722.00000           757.09496           241.97870            10.54053           241.74902           340.00000             0.96635             0.00004            21.00000           186.00000          4074.00000          4800.00000             0.00000
           723.00000           627.15609           255.32350            35.93386           252.78221           340.00000             0.80049             0.00029            21.00000           186.00000          4462.00000          5200.00000             0.00000
           724.00000           749.20731           218.76272             9.22506           218.56813           340.00000             0.95628             0.00005            21.00000           186.00000          4462.00000          4800.00000             0.00000
           725.00000           626.85490           213.09867            10.99549           212.81480           340.00000             0.80011             0.00029            21.00000           186.00000          4850.00000          5200.00000             0.00000
           726.00000           739.66842           194.64791             9.24937           194.42802           340.00000             0.94410             0.00007            21.00000           186.00000          4850.00000          4800.00000             0.00000
           727.00000           619.75004           202.01576             8.53491           201.83539           340.00000             0.79104             0.00031            21.00000           186.00000          5238.00000          5200.00000             0.00000
           728.00000           729.66337           180.16761             5.63559           180.07945           340.00000             0.93133             0.00009            21.00000           186.00000          5238.00000          4800.00000             0.00000
           729.00000           600.58811           194.26316             5.79933           194.17657           340.00000             0.76658             0.00036            21.00000           186.00000          5626.00000          5200.00000             0.00000
           730.00000           719.12872           197.04821            12.34515           196.66112           340.00000             0.91789             0.00011            21.00000           186.00000          5626.00000          4800.00000             0.00000
           731.00000           573.09161           223.75556            11.12972           223.47859           340.00000             0.73149             0.00043            21.00000           186.00000          6014.00000          5200.00000             0.00000
           732.00000           706.69949           233.60694            31.04158           231.53535           340.00000             0.90202             0.00013            21.00000           186.00000          6014.00000          4800.00000             0.00000
           733.00000           539.44468           287.81846            24.33265           286.78806           340.00000             0.68854             0.00053            21.00000           186.00000          6402.00000          5200.00000             0.00000
           734.00000           677.90774           292.65127            41.04509           289.75864           340.00000             0.86527             0.00018            21.00000           186.00000          6402.00000          4800.00000             0.00000
           735.00000           470.42973           343.25035            38.04355           341.13559           340.00000             0.60045             0.00078            21.00000           186.00000          6790.00000          5200.00000             0.00000
           736.00000           663.03866           339.15035            65.75169           332.71561           340.00000             0.84629             0.00021            21.00000           186.00000          6790.00000          4800.00000             0.00000
           737.00000           399.27310           383.31867            91.31757           372.28256           340.00000             0.50963             0.00113            21.00000           186.00000          7178.00000          5200.00000             0.00000
           738.00000           666.81224           359.52952            99.37010           345.52432           340.00000             0.85111             0.00021            21.00000           186.00000          7178.00000          4800.00000             0.00000
           739.00000           341.53524           414.86745           127.90650           394.65799           340.00000             0.43593             0.00152            21.00000           186.00000          7566.00000          5200.00000             0.00000
           740.00000           679.03129           375.73398           131.48035           351.97861           340.00000             0.86671             0.00018            21.00000           186.00000          7566.00000          4800.00000             0.00000
           741.00000           295.16610           438.99175           145.80717           414.07007           340.00000             0.37675             0.00195            21.00000           186.00000          7954.00000          5200.00000             0.00000
           742.00000           697.42945           388.38912           158.44881           354.59848           340.00000             0.89019             0.00015            21.00000           186.00000          7954.00000          4800.00000             0.00000
           743.00000           259.86747           457.90826           156.13757           430.46606           340.00000             0.33169             0.00237            21.00000           186.00000          8342.00000          5200.00000             0.00000
           744.00000           717.52315           398.01179           178.09198           355.94470           340.00000             0.91584             0.00011            21.00000           186.00000          8342.00000          4800.00000             0.00000
           745.00000           233.25239           475.38134           164.90218           445.86398           340.00000             0.29772             0.00278            21.00000           186.00000          8730.00000          5200.00000             0.00000
           746.00000           729.61435           426.50843           196.14517           378.73013           340.00000             0.93127             0.00009            21.00000           186.00000          8730.00000          4800.00000             0.00000
           747.00000           214.41087           469.13246           179.64191           433.37518           340.00000             0.27367             0.00312            21.00000           186.00000          9118.00000          5200.00000             0.00000
           748.00000           749.52558           447.78933           215.48639           392.53140           340.00000             0.95668             0.00005            21.00000           186.00000          9118.00000          4800.00000             0.00000
           749.00000           165.70800           808.42875            57.23591           806.40009           340.00000             0.21151             0.00439            21.00000           186.00000          9506.00000          5200.00000             0.00000
           750.00000           711.98589           440.77081           160.31023           410.58438           340.00000             0.90877             0.00012            21.00000           186.00000          9506.00000          4800.00000             0.00000
