! ----------------------------------------------------------------------------
! ----------------------------------------------------------------------------
! 09.1 Failure Check 
! ----------------------------------------------------------------------------
! ----------------------------------------------------------------------------
!
! Purpose:  Check if the model has failed, gives out a boolean 'true' or 'false'
!           - The whole structure is checked -> time consuming
! ((Alternatively: Look for the substep for which the failure occued))
 
/POST1
 
!-------------------------------------------------------------------------------
! 1.    CHECK CONCRETE FAILURE 
!-------------------------------------------------------------------------------

NSEL,ALL
ALLSEL
ESEL,S,ENAME,,181
NSLE,ALL       
*GET,NrE,ELEM,0,COUNT               ! NrE: Number of elements in the list
*DIM,N_E,ARRAY,NrE,1
*VGET,N_E,ELEM, ,ELIST              ! N_E: Element list array
ALLSEL

!*DIM,failure,ARRAY,4*NrE,3     ! Activate this in later phase if it is wanted 
                                ! to know in which nodes it failed (to adapt)

*DO,ii,1,NrE
    ESEL,S,ELEM, ,N_E(ii)
    NSLE,ALL
    *GET,NrN,NODE,0,COUNT               ! NrN: Number of nodes in the list
    *DIM,N_N,ARRAY,NrN,1
    *VGET,N_N,NODE, ,NLIST              ! N_N: Node list array
    
    *DO,kk,1,NrN
        *GET,check_conc,NODE,N_N(kk),SVAR,2
        *IF,check_conc,GT,0.5,THEN      ! Failure yes
            failure_conc=1
        *ELSEIF,check_conc,LT,0.5,THEN  ! Failure no
            failure_conc=0
        *ENDIF
        *IF,failure_conc,GT,0.5,EXIT
    *ENDDO
    
    *DEL,NrN,,NOPR
    *DEL,N_N,,NOPR  
*ENDDO

*DEL,NrE,,NOPR
*DEL,N_E,,NOPR 



!-------------------------------------------------------------------------------
! 2.    CHECK STEEL FAILURE 
!-------------------------------------------------------------------------------

NSEL,ALL
ALLSEL
ESEL,S,ENAME,,181
NSLE,ALL       
*GET,NrE,ELEM,0,COUNT               ! NrE: Number of elements in the list
*DIM,N_E,ARRAY,NrE,1
*VGET,N_E,ELEM, ,ELIST              ! N_E: Element list array
ALLSEL

!*DIM,failure,ARRAY,4*NrE,3     ! Activate this in later phase if it is wanted 
                                ! to know in which nodes it failed (to adapt)

*DO,ii,1,NrE
    ESEL,S,ELEM, ,N_E(ii)
    NSLE,ALL
    *GET,NrN,NODE,0,COUNT               ! NrN: Number of nodes in the list
    *DIM,N_N,ARRAY,NrN,1
    *VGET,N_N,NODE, ,NLIST              ! N_N: Node list array
    
    *DO,kk,1,NrN
    
        *GET,layer_bot_x,NODE,N_N(kk),SVAR,58      
        LAYER,layer_bot_x
        *GET,sig_sr_botx_A,NODE,N_N(kk),SVAR,20
        *GET,sig_sr_botx_B,NODE,N_N(kk),SVAR,40 
        sig_sr_botx=sig_sr_botx_A+sig_sr_botx_B
        *IF,sig_sr_botx,LE,f_su,THEN
            check_botx=0
        *ELSEIF,sig_sr_botx,GT,f_su,THEN
            check_botx=1
        *ENDIF
        
        *GET,layer_bot_y,NODE,N_N(kk),SVAR,59      
        LAYER,layer_bot_y
        *GET,sig_sr_boty_A,NODE,N_N(kk),SVAR,20
        *GET,sig_sr_boty_B,NODE,N_N(kk),SVAR,40 
        sig_sr_boty=sig_sr_boty_A+sig_sr_boty_B
        *IF,sig_sr_boty,LE,f_su,THEN
            check_boty=0
        *ELSEIF,sig_sr_boty,GT,f_su,THEN
            check_boty=1
        *ENDIF
        
        *GET,layer_top_y,NODE,N_N(kk),SVAR,60      
        LAYER,layer_top_y
        *GET,sig_sr_topy_A,NODE,N_N(kk),SVAR,20
        *GET,sig_sr_topy_B,NODE,N_N(kk),SVAR,40 
        sig_sr_topy=sig_sr_topy_A+sig_sr_topy_B
        *IF,sig_sr_topy,LE,f_su,THEN
            check_topy=0
        *ELSEIF,sig_sr_topy,GT,f_su,THEN
            check_topy=1
        *ENDIF        
        
        *GET,layer_top_x,NODE,N_N(kk),SVAR,61      
        LAYER,layer_top_x
        *GET,sig_sr_topx_A,NODE,N_N(kk),SVAR,20
        *GET,sig_sr_topx_B,NODE,N_N(kk),SVAR,40 
        sig_sr_topx=sig_sr_topx_A+sig_sr_topx_B
        *IF,sig_sr_topx,LE,f_su,THEN
            check_topx=0
        *ELSEIF,sig_sr_topx,GT,f_su,THEN
            check_topx=1
        *ENDIF        
        
        failure_steel=check_botx+check_boty+check_topy+check_topx         
        *IF,failure_steel,GT,0.5,EXIT
                
    *ENDDO
    
    *DEL,NrN,,NOPR
    *DEL,N_N,,NOPR
    
*ENDDO

*DEL,NrE,,NOPR
*DEL,N_E,,NOPR
allsel  

*DIM,failure_Check,ARRAY,2,1
failure_Check(1)=failure_conc
failure_Check(2)=failure_steel


! 2.1MACRO Failure_Check - .txt
    ! -------------------------------------------------------------

    ! Arg1 is the array name (string)
    ! Arg2 is the format descriptor (string)
    ! Arg3 is the number of columns to write (integer) 
    ! Arg4 is the file name and extention (string)

    Arg1 = 'failure_Check'
    Arg2 = 'f20.5'
    Arg3 = 2
    Arg4 = 'failure_Check.txt'

    ~eui,'set arrname [ans_getvalue PARM,Arg1,value]'
    ~eui,'set formatdescriptor [ans_getvalue PARM,Arg2,value]'
    ~eui,'set numcol [ans_getvalue PARM,Arg3,value]'
    ~eui,'set filename [ans_getvalue PARM,Arg4,value]'
    ! Trim up the strings a bit
    ~eui,'set arrname [string trim $arrname]'
    ~eui,'set formatdescriptor [string trim $formatdescriptor]'
    ~eui,'set filename [string trim $filename]' 
    ~eui,'set cmd "*mwrite,$arrname"'
    ~eui,'append cmd "(1,1),"'
    ~eui,'append cmd [file rootname $filename]'
    ! Put a comma between the filename and extension
    ~eui,'append cmd ","'
    ! Pull off the leading period from the extension. Leaving off the
    ! comma above and forgeting to strip off the leading period in the
    ! extension is a case of two errors canceling each other out. If 
    ! only life were always so kind...
    ~eui,'append cmd [string trimleft [file extension $filename] "."]'
    ~eui,'append cmd "\n"'
    ~eui,'append cmd "($numcol$formatdescriptor)"
    ~eui,'set fid [open mk_mwritehelper.mac w]'
    ~eui,'puts $fid $cmd'
    ~eui,'close $fid'
    ~eui,'ans_sendcommand mk_mwritehelper'
    ~eui,'file delete mk_mwritehelper.mac'
