           401.00000           639.25021           256.82594
           402.00000           532.27451           243.87913
           403.00000           673.54169           387.05623
           404.00000           503.86084           431.14466
           405.00000           706.79020           464.77550
           406.00000           490.34771           536.72997
           407.00000           726.01714           516.52486
           408.00000           480.30318           610.54880
           409.00000           732.88219           523.01475
           410.00000           474.17271           638.32190
           411.00000           735.04311           522.59974
           412.00000           473.01836           651.62301
           413.00000           737.88205           525.21547
           414.00000           476.48625           663.36550
           415.00000           738.27368           520.05253
           416.00000           481.24758           662.81810
           417.00000           731.46379           495.91585
           418.00000           487.05244           628.80002
           419.00000           716.21370           444.42446
           420.00000           495.96892           531.30297
           421.00000           692.54070           363.91330
           422.00000           510.08167           400.34911
           423.00000           675.19150           286.73684
           424.00000           528.47057           308.24120
           425.00000           669.64053           245.11389
           426.00000           542.14658           268.15987
           427.00000           670.84654           231.28845
           428.00000           548.26014           249.04765
           429.00000           665.45605           236.78261
           430.00000           546.22413           248.93807
           431.00000           667.53328           265.32446
           432.00000           535.50766           278.06462
           433.00000           676.55833           341.71850
           434.00000           514.27174           351.42260
           435.00000           693.18510           447.47361
           436.00000           497.69733           473.92322
           437.00000           707.82463           532.69046
           438.00000           484.54656           586.57611
           439.00000           712.19078           576.53539
           440.00000           471.46108           654.15179
           441.00000           710.74724           599.82697
           442.00000           458.46280           693.20258
           443.00000           707.80389           622.31729
           444.00000           446.20675           717.87558
           445.00000           703.88696           647.69341
           446.00000           436.86214           746.17045
           447.00000           700.49236           659.54630
           448.00000           424.60779           768.58024
           449.00000           681.47707           685.06356
           450.00000           410.74290           870.26644
           451.00000           754.61614           165.61883
           452.00000           703.05694           126.39493
           453.00000           633.29982            90.87303
           454.00000           602.45610            55.32579
           455.00000           610.53285            14.90723
           456.00000           578.93239            20.67228
           457.00000           597.05792            58.97479
           458.00000           622.71224           100.86944
           459.00000           690.93763           140.50789
           460.00000           742.80822           214.05791
           461.00000           799.29085           241.42840
           462.00000           748.29974           203.19903
           463.00000           668.00604           154.35955
           464.00000           635.62852           119.83697
           465.00000           697.60462            72.45358
           466.00000           684.88834            55.64003
           467.00000           624.04865           100.11512
           468.00000           656.23808           131.47750
           469.00000           748.44607           215.76941
           470.00000           796.98284           331.75659
           471.00000            -1.00000           247.59841
           472.00000           778.50126           230.48881
           473.00000           706.95913           192.82218
           474.00000           649.25099           158.97713
           475.00000           678.79197           100.02315
           476.00000           659.04513            80.76728
           477.00000           620.35326           130.01596
           478.00000           673.79826           144.85304
           479.00000           777.36894           238.85087
           480.00000            -1.00000           357.20862
           481.00000            -1.00000           260.92660
           482.00000            -1.00000           258.53051
           483.00000           724.46634           245.43963
           484.00000           621.79020           196.41180
           485.00000           602.76145            92.77687
           486.00000           600.18372            71.60643
           487.00000           605.95868           149.74935
           488.00000           666.02846           166.33658
           489.00000           773.51903           244.95691
           490.00000            -1.00000           372.41296
           491.00000            -1.00000           256.36460
           492.00000            -1.00000           269.66660
           493.00000           726.21989           285.08024
           494.00000           604.26417           221.76458
           495.00000           559.35474            93.03807
           496.00000           573.39694            49.84635
           497.00000           579.48253           153.96945
           498.00000           646.44292           193.50862
           499.00000           760.78623           262.60442
           500.00000            -1.00000           376.07446
           501.00000            -1.00000           250.21703
           502.00000            -1.00000           272.23230
           503.00000           730.52252           302.33307
           504.00000           605.56151           232.25491
           505.00000           544.42956            99.66224
           506.00000           533.71161            26.68207
           507.00000           562.78197           150.80115
           508.00000           635.43135           211.90800
           509.00000           750.30338           278.58001
           510.00000            -1.00000           370.74797
           511.00000            -1.00000           258.24178
           512.00000            -1.00000           274.29296
           513.00000           737.83212           297.45284
           514.00000           612.73735           230.47581
           515.00000           554.62583           103.39396
           516.00000           579.31058            30.72861
           517.00000           568.28363           148.56339
           518.00000           637.84777           210.16836
           519.00000           755.36001           281.03891
           520.00000            -1.00000           373.27306
           521.00000            -1.00000           268.12618
           522.00000            -1.00000           268.87447
           523.00000           744.43800           273.87688
           524.00000           627.78227           210.89813
           525.00000           602.29835           102.34400
           526.00000           664.79118            55.61441
           527.00000           592.37098           147.08505
           528.00000           653.17055           199.08351
           529.00000           770.95940           261.58253
           530.00000            -1.00000           376.10013
           531.00000            -1.00000           267.49159
           532.00000            -1.00000           259.69571
           533.00000           747.52645           245.94106
           534.00000           657.16627           196.09553
           535.00000           692.25533           124.71553
           536.00000           731.00874            97.89881
           537.00000           631.01055           153.77781
           538.00000           688.50258           189.36547
           539.00000            -1.00000           245.67338
           540.00000            -1.00000           361.77805
           541.00000           806.34306           252.76445
           542.00000            -1.00000           243.92138
           543.00000           739.42290           209.53986
           544.00000           678.01695           185.01511
           545.00000           746.56050           144.22311
           546.00000           765.20853           146.96799
           547.00000           691.25252           180.37222
           548.00000           722.73713           194.17332
           549.00000            -1.00000           256.16884
           550.00000            -1.00000           352.09308
           551.00000           802.58647           224.78127
           552.00000           775.28793           203.06590
           553.00000           718.31733           167.01016
           554.00000           685.16022           162.72616
           555.00000           757.39342           139.90687
           556.00000           765.89292           148.81575
           557.00000           716.51949           173.94535
           558.00000           725.50737           192.19732
           559.00000           775.83199           241.71323
           560.00000           787.67123           315.47104
           561.00000           800.99156           193.88272
           562.00000           757.46766           165.05203
           563.00000           693.79486           143.70317
           564.00000           672.89345           129.56343
           565.00000           745.06516           105.94798
           566.00000           738.78536           102.17674
           567.00000           669.64525           125.85008
           568.00000           686.45727           165.34415
           569.00000           748.16439           207.63580
           570.00000           777.39516           260.72324
           571.00000           780.81588           173.55393
           572.00000           744.06995           154.71815
           573.00000           672.92212           127.40588
           574.00000           639.52120            90.06090
           575.00000           690.11700            55.08360
           576.00000           662.51209            58.71896
           577.00000           619.74638           101.05664
           578.00000           664.29791           149.62772
           579.00000           749.89798           195.38814
           580.00000           777.65713           226.41400
           581.00000           781.08036           164.99433
           582.00000           735.72579           151.03711
           583.00000           661.56498           116.20852
           584.00000           612.48705            70.81629
           585.00000           599.87483            20.02693
           586.00000           585.28313            36.52748
           587.00000           609.16538            93.69265
           588.00000           667.10248           151.29214
           589.00000           755.44867           193.95099
           590.00000           776.21883           209.84032
           591.00000           773.95143           169.82048
           592.00000           728.10265           147.02867
           593.00000           655.31240           118.60022
           594.00000           612.39853            77.31742
           595.00000           644.15334            38.26071
           596.00000           623.98843            49.13271
           597.00000           615.27739            98.08366
           598.00000           661.17191           148.44711
           599.00000           745.15686           189.43241
           600.00000           773.98644           218.64575
           601.00000           783.20855           186.66828
           602.00000           725.06474           161.31110
           603.00000           658.07583           136.94865
           604.00000           633.19745           108.28649
           605.00000           673.82656            80.01730
           606.00000           676.65895            85.37943
           607.00000           641.01870           117.37256
           608.00000           664.36330           153.54905
           609.00000           725.37054           197.96512
           610.00000           759.32863           247.45857
           611.00000           771.85191           215.66076
           612.00000           733.19147           197.49821
           613.00000           674.12755           176.31401
           614.00000           665.96426           160.04143
           615.00000           738.68031           141.25711
           616.00000           738.20594           139.77670
           617.00000           680.56608           151.28751
           618.00000           697.64682           172.30546
           619.00000           751.04241           222.46617
           620.00000           742.71883           289.34180
           621.00000           767.93659           254.97860
           622.00000           748.47052           248.27554
           623.00000           691.01304           225.14252
           624.00000           660.55797           185.37798
           625.00000           766.77148           147.10873
           626.00000           729.68410           153.84764
           627.00000           684.31413           173.61693
           628.00000           726.29902           171.75575
           629.00000           759.46661           231.02956
           630.00000           762.23034           337.25959
           631.00000           772.09425           293.75109
           632.00000           759.96652           293.85546
           633.00000           693.24902           268.09479
           634.00000           605.04191           184.42124
           635.00000           740.75118            93.44536
           636.00000           666.71820           125.44838
           637.00000           645.54682           170.57569
           638.00000           712.81111           154.22876
           639.00000           755.52340           224.74459
           640.00000           752.72354           375.88832
           641.00000           777.81237           323.68101
           642.00000           763.49507           315.18762
           643.00000           690.30606           295.02256
           644.00000           571.93483           196.28007
           645.00000           601.52781            59.92301
           646.00000           574.06472           110.01464
           647.00000           593.73628           161.93835
           648.00000           672.58699           135.45731
           649.00000           743.38148           234.06450
           650.00000           753.10707           402.97343
           651.00000           782.88867           344.19150
           652.00000           766.25828           327.59006
           653.00000           681.68502           306.03007
           654.00000           549.97485           224.21043
           655.00000           517.82997            56.61586
           656.00000           515.85294           100.13702
           657.00000           548.23497           152.99155
           658.00000           629.58476           149.87025
           659.00000           740.61849           264.85154
           660.00000           757.12918           423.06733
           661.00000           789.31301           362.67341
           662.00000           771.70079           346.62070
           663.00000           667.85936           322.76635
           664.00000           533.18690           236.02750
           665.00000           491.96598            67.86312
           666.00000           498.21396            86.41657
           667.00000           527.86353           163.40963
           668.00000           608.84358           186.71963
           669.00000           730.33402           286.44503
           670.00000           763.33525           441.21124
           671.00000           795.59663           383.59685
           672.00000           773.70725           364.77772
           673.00000           656.48502           347.51512
           674.00000           521.30333           241.21936
           675.00000           482.60250            83.10013
           676.00000           497.70884            89.44765
           677.00000           515.99672           189.91635
           678.00000           590.19892           192.76046
           679.00000           719.20748           296.10600
           680.00000           769.05928           460.69010
           681.00000           800.50355           371.77743
           682.00000           775.97840           350.89692
           683.00000           647.67382           342.27995
           684.00000           509.23772           248.43558
           685.00000           482.25139            92.60418
           686.00000           473.99722            98.02928
           687.00000           502.84482           189.73984
           688.00000           568.60669           187.06986
           689.00000           719.94612           291.24159
           690.00000           775.25243           450.04893
           691.00000           787.46456           346.15825
           692.00000           763.72521           345.73969
           693.00000           631.72264           418.83440
           694.00000           500.53066           317.90188
           695.00000           458.62577           104.29230
           696.00000           456.68112           105.05913
           697.00000           490.07441           222.12088
           698.00000           559.31439           266.59968
           699.00000           688.65786           335.13484
           700.00000           768.80867           406.97341
           701.00000           610.70926           183.56999
           702.00000           712.64497           183.57787
           703.00000           593.78812           268.60881
           704.00000           731.08109           253.65176
           705.00000           585.44488           314.69269
           706.00000           738.98004           269.22403
           707.00000           578.81821           348.81764
           708.00000           742.28564           278.16137
           709.00000           571.28845           370.15458
           710.00000           742.58343           280.67672
           711.00000           569.26841           376.54176
           712.00000           742.74452           282.89884
           713.00000           570.80354           374.69823
           714.00000           744.78563           283.39100
           715.00000           575.74452           367.68244
           716.00000           748.85738           282.69762
           717.00000           584.39545           354.36287
           718.00000           753.20968           275.99423
           719.00000           596.88400           328.15691
           720.00000           756.49151           255.63329
           721.00000           613.30688           287.74417
           722.00000           756.14141           227.86772
           723.00000           630.03440           241.36293
           724.00000           752.50056           206.29271
           725.00000           637.84046           208.70837
           726.00000           748.84944           189.99427
           727.00000           639.99032           198.85877
           728.00000           745.10331           177.56945
           729.00000           635.43953           193.27808
           730.00000           742.71025           179.43385
           731.00000           621.70820           199.37040
           732.00000           745.39232           199.41361
           733.00000           607.22994           235.97383
           734.00000           742.78735           229.43986
           735.00000           590.41246           295.11326
           736.00000           739.76269           259.20954
           737.00000           573.56938           349.59143
           738.00000           735.74258           291.64383
           739.00000           555.25286           386.52507
           740.00000           730.11672           324.83069
           741.00000           538.38634           417.08094
           742.00000           723.73202           351.15747
           743.00000           522.59246           441.82522
           744.00000           717.43830           373.91584
           745.00000           509.37808           471.00609
           746.00000           710.68718           399.68916
           747.00000           491.51894           496.67685
           748.00000           703.40448           411.97237
           749.00000           466.28525           606.50263
           750.00000           675.09719           471.72291
