! ---------------------------------------------------
! Parameterfile.inp
! 
! Used to pass the input variable space from Python
! to the Mechanical APDL.
! 
! Author: florez@ethz.ch
! Dated: 14.03.2022
! ---------------------------------------------------


! Sim-name: sim_311
kRiss_P = 0.1000
fsy_P = 600.0000
fsu_P = 630.0000
fcd_P = 59.0000
fck_P = 50.0000
tau_cd = 2.3043
D_max = 32.0000
ecu_P = -0.0020
eu_act_P = 0.1000
stepsize_P = 0.1000
start_eta = 2.8000
