           401.00000           623.45883           271.77330             4.04290          -271.74323           340.00000             0.79577             0.00030            21.00000           186.00000           194.00000           600.00000             0.00000
           402.00000           519.06911           254.86892            35.87981          -252.33075           340.00000             0.66253             0.00060            21.00000           186.00000           194.00000           200.00000             0.00000
           403.00000           658.78510           414.11571             0.84952          -414.11484           340.00000             0.84086             0.00022            21.00000           186.00000           582.00000           600.00000             0.00000
           404.00000           487.54463           462.48861            10.68597          -462.36514           340.00000             0.62230             0.00071            21.00000           186.00000           582.00000           200.00000             0.00000
           405.00000           694.98038           501.00956            -2.28161          -501.00436           340.00000             0.88706             0.00015            21.00000           186.00000           970.00000           600.00000             0.00000
           406.00000           473.19139           578.19263           -10.37448          -578.09955           340.00000             0.60397             0.00077            21.00000           186.00000           970.00000           200.00000             0.00000
           407.00000           716.53620           557.99219             6.12058          -557.95862           340.00000             0.91458             0.00011            21.00000           186.00000          1358.00000           600.00000             0.00000
           408.00000           462.75145           659.12549            -3.18489          -659.11780           340.00000             0.59065             0.00082            21.00000           186.00000          1358.00000           200.00000             0.00000
           409.00000           724.38186           564.87150            -9.86930          -564.78528           340.00000             0.92459             0.00010            21.00000           186.00000          1746.00000           600.00000             0.00000
           410.00000           456.48621           689.43438            -9.77257          -689.36511           340.00000             0.58265             0.00084            21.00000           186.00000          1746.00000           200.00000             0.00000
           411.00000           726.89309           564.26452           -37.98011          -562.98486           340.00000             0.92780             0.00009            21.00000           186.00000          2134.00000           600.00000             0.00000
           412.00000           455.41837           704.16521           -25.51777          -703.70270           340.00000             0.58129             0.00085            21.00000           186.00000          2134.00000           200.00000             0.00000
           413.00000           730.19738           567.43612           -74.00609          -562.58942           340.00000             0.93201             0.00009            21.00000           186.00000          2522.00000           600.00000             0.00000
           414.00000           459.14196           716.79587           -55.67540          -714.63037           340.00000             0.58604             0.00083            21.00000           186.00000          2522.00000           200.00000             0.00000
           415.00000           730.52937           561.77070           -82.42895          -555.69037           340.00000             0.93244             0.00009            21.00000           186.00000          2910.00000           600.00000             0.00000
           416.00000           464.11815           715.82990           -61.85398          -713.15253           340.00000             0.59239             0.00081            21.00000           186.00000          2910.00000           200.00000             0.00000
           417.00000           723.05329           535.62800           -61.68286          -532.06445           340.00000             0.92290             0.00010            21.00000           186.00000          3298.00000           600.00000             0.00000
           418.00000           470.04067           678.31971           -33.85315          -677.47443           340.00000             0.59995             0.00078            21.00000           186.00000          3298.00000           200.00000             0.00000
           419.00000           705.97113           478.92609           -10.83553          -478.80350           340.00000             0.90109             0.00013            21.00000           186.00000          3686.00000           600.00000             0.00000
           420.00000           479.09458           571.08593            10.49728          -570.98944           340.00000             0.61151             0.00075            21.00000           186.00000          3686.00000           200.00000             0.00000
           421.00000           679.36313           388.63119            22.31200          -387.99017           340.00000             0.86713             0.00018            21.00000           186.00000          4074.00000           600.00000             0.00000
           422.00000           493.80467           428.05829            24.17446          -427.37512           340.00000             0.63029             0.00069            21.00000           186.00000          4074.00000           200.00000             0.00000
           423.00000           661.08171           303.24885             9.62674          -303.09601           340.00000             0.84380             0.00022            21.00000           186.00000          4462.00000           600.00000             0.00000
           424.00000           513.35701           326.33725             6.00048          -326.28207           340.00000             0.65524             0.00062            21.00000           186.00000          4462.00000           200.00000             0.00000
           425.00000           655.70864           258.54015             4.97038          -258.49237           340.00000             0.83694             0.00023            21.00000           186.00000          4850.00000           600.00000             0.00000
           426.00000           527.74845           281.05189             7.13749          -280.96124           340.00000             0.67361             0.00057            21.00000           186.00000          4850.00000           200.00000             0.00000
           427.00000           657.38991           243.49593            -1.48138          -243.49142           340.00000             0.83908             0.00023            21.00000           186.00000          5238.00000           600.00000             0.00000
           428.00000           534.34804           260.60550             3.84620          -260.57712           340.00000             0.68203             0.00055            21.00000           186.00000          5238.00000           200.00000             0.00000
           429.00000           651.71227           249.23287            -4.49052          -249.19241           340.00000             0.83184             0.00024            21.00000           186.00000          5626.00000           600.00000             0.00000
           430.00000           532.27469           261.14783             9.02706          -260.99176           340.00000             0.67939             0.00056            21.00000           186.00000          5626.00000           200.00000             0.00000
           431.00000           653.13421           280.22975            -1.77155          -280.22415           340.00000             0.83365             0.00023            21.00000           186.00000          6014.00000           600.00000             0.00000
           432.00000           520.58890           293.80560            17.70283          -293.27179           340.00000             0.66447             0.00059            21.00000           186.00000          6014.00000           200.00000             0.00000
           433.00000           661.25500           364.40200             0.55053          -364.40158           340.00000             0.84402             0.00022            21.00000           186.00000          6402.00000           600.00000             0.00000
           434.00000           497.53608           374.29952             8.97798          -374.19183           340.00000             0.63505             0.00068            21.00000           186.00000          6402.00000           200.00000             0.00000
           435.00000           678.23818           481.83472            41.89653          -480.00977           340.00000             0.86569             0.00018            21.00000           186.00000          6790.00000           600.00000             0.00000
           436.00000           479.70561           508.26032            24.10635          -507.68832           340.00000             0.61229             0.00074            21.00000           186.00000          6790.00000           200.00000             0.00000
           437.00000           693.77023           577.86369           106.50028          -567.96490           340.00000             0.88552             0.00015            21.00000           186.00000          7178.00000           600.00000             0.00000
           438.00000           465.18318           634.16520            58.45934          -631.46497           340.00000             0.59375             0.00080            21.00000           186.00000          7178.00000           200.00000             0.00000
           439.00000           697.93109           634.08102           139.58601          -618.52606           340.00000             0.89083             0.00014            21.00000           186.00000          7566.00000           600.00000             0.00000
           440.00000           450.75836           713.40118            81.15656          -708.76996           340.00000             0.57534             0.00087            21.00000           186.00000          7566.00000           200.00000             0.00000
           441.00000           695.79945           668.69008           154.36337          -650.62921           340.00000             0.88811             0.00015            21.00000           186.00000          7954.00000           600.00000             0.00000
           442.00000           432.80324           759.39795            90.15244          -754.02771           340.00000             0.55242             0.00095            21.00000           186.00000          7954.00000           200.00000             0.00000
           443.00000           697.80305           686.83448           162.33165          -667.37549           340.00000             0.89067             0.00014            21.00000           186.00000          8342.00000           600.00000             0.00000
           444.00000           405.09515           780.48019            84.85996          -775.85315           340.00000             0.51706             0.00110            21.00000           186.00000          8342.00000           200.00000             0.00000
           445.00000           702.16181           702.19284           164.57971          -682.63336           340.00000             0.89623             0.00014            21.00000           186.00000          8730.00000           600.00000             0.00000
           446.00000           376.96238           798.14995            92.01734          -792.82794           340.00000             0.48115             0.00127            21.00000           186.00000          8730.00000           200.00000             0.00000
           447.00000           709.51565           707.12723           162.90778          -688.10608           340.00000             0.90562             0.00012            21.00000           186.00000          9118.00000           600.00000             0.00000
           448.00000           348.92732           805.80033            80.79261          -801.73981           340.00000             0.44537             0.00147            21.00000           186.00000          9118.00000           200.00000             0.00000
           449.00000           697.24187           693.07628           103.30161          -685.33459           340.00000             0.88995             0.00015            21.00000           186.00000          9506.00000           600.00000             0.00000
           450.00000           323.47747           942.26473            24.46704          -941.94702           340.00000             0.41288             0.00167            21.00000           186.00000          9506.00000           200.00000             0.00000
           451.00000           748.45280           170.88815            -9.67137           170.61426           340.00000             0.95531             0.00006            20.00000           186.00000           194.00000          4410.00000             0.00000
           452.00000           689.72903           130.37749            -9.09872           130.05962           340.00000             0.88036             0.00016            20.00000           186.00000           194.00000          4030.00000             0.00000
           453.00000           618.91067            94.39996            -7.70774            94.08476           340.00000             0.78997             0.00031            20.00000           186.00000           194.00000          3650.00000             0.00000
           454.00000           593.53270            56.54773           -11.83247            55.29592           340.00000             0.75758             0.00038            20.00000           186.00000           194.00000          3270.00000             0.00000
           455.00000           609.26063            13.53764            -5.96583            12.15223           340.00000             0.77765             0.00034            20.00000           186.00000           194.00000          2890.00000             0.00000
           456.00000           559.86728            21.87865            -3.93230           -21.52237           340.00000             0.71461             0.00047            20.00000           186.00000           194.00000          2510.00000             0.00000
           457.00000           585.63060            61.72980           -14.52294           -59.99710           340.00000             0.74749             0.00040            20.00000           186.00000           194.00000          2130.00000             0.00000
           458.00000           609.57957           106.38078            -8.97647          -106.00138           340.00000             0.77806             0.00034            20.00000           186.00000           194.00000          1750.00000             0.00000
           459.00000           678.50548           147.34213           -12.99788          -146.76770           340.00000             0.86603             0.00018            20.00000           186.00000           194.00000          1370.00000             0.00000
           460.00000           729.60958           226.29602           -27.55422          -224.61223           350.00000             0.90466             0.00012            22.00000           180.00000           194.00000           990.00000             0.00000
           461.00000           797.05872           256.10134           -24.31232           254.94472           350.00000             0.98829             0.00001            22.00000           180.00000           582.00000          4410.00000             0.00000
           462.00000           740.19011           215.20539           -44.86559           210.47670           340.00000             0.94477             0.00007            20.00000           186.00000           582.00000          4030.00000             0.00000
           463.00000           656.72940           163.79983           -34.44864           160.13643           340.00000             0.83824             0.00023            20.00000           186.00000           582.00000          3650.00000             0.00000
           464.00000           626.18515           127.47917           -44.80534           119.34580           340.00000             0.79925             0.00030            20.00000           186.00000           582.00000          3270.00000             0.00000
           465.00000           687.75529            78.10582           -55.58185            54.87420           340.00000             0.87784             0.00016            20.00000           186.00000           582.00000          2890.00000             0.00000
           466.00000           676.43492            60.22160           -48.38042           -35.86051           340.00000             0.86339             0.00019            20.00000           186.00000           582.00000          2510.00000             0.00000
           467.00000           612.29979           108.22733           -44.34347           -98.72594           340.00000             0.78153             0.00033            20.00000           186.00000           582.00000          2130.00000             0.00000
           468.00000           645.63546           139.68616           -39.27910          -134.04990           340.00000             0.82408             0.00025            20.00000           186.00000           582.00000          1750.00000             0.00000
           469.00000           743.38434           230.65678           -95.95276          -209.75133           340.00000             0.94885             0.00006            20.00000           186.00000           582.00000          1370.00000             0.00000
           470.00000           793.59899           356.20578          -108.09795          -339.40741           350.00000             0.98400             0.00002            22.00000           180.00000           582.00000           990.00000             0.00000
           471.00000            -1.00000           263.65350           -33.11469           261.56564           350.00000             1.00268            -0.00000            22.00000           180.00000           970.00000          4410.00000             0.00000
           472.00000           776.06867           245.81415           -74.28139           234.32216           340.00000             0.99056             0.00001            20.00000           186.00000           970.00000          4030.00000             0.00000
           473.00000           698.56036           204.61528           -61.04504           195.29700           340.00000             0.89163             0.00014            20.00000           186.00000           970.00000          3650.00000             0.00000
           474.00000           638.11957           171.16089           -63.14442           159.08749           340.00000             0.81449             0.00027            20.00000           186.00000           970.00000          3270.00000             0.00000
           475.00000           668.44049           107.13107           -76.00953            75.49582           340.00000             0.85319             0.00020            20.00000           186.00000           970.00000          2890.00000             0.00000
           476.00000           645.31317            88.25025           -70.55902           -53.00502           340.00000             0.82367             0.00025            20.00000           186.00000           970.00000          2510.00000             0.00000
           477.00000           607.32743           140.61473           -56.68038          -128.68503           340.00000             0.77518             0.00034            20.00000           186.00000           970.00000          2130.00000             0.00000
           478.00000           663.23303           154.63034           -49.27314          -146.56978           340.00000             0.84654             0.00021            20.00000           186.00000           970.00000          1750.00000             0.00000
           479.00000           776.49331           256.64716          -132.01094          -220.09288           340.00000             0.99111             0.00001            20.00000           186.00000           970.00000          1370.00000             0.00000
           480.00000            -1.00000           384.90402          -139.58472          -358.70212           350.00000             1.01587            -0.00002            22.00000           180.00000           970.00000           990.00000             0.00000
           481.00000            -1.00000           278.45116           -35.37846           276.19452           350.00000             1.01186            -0.00001            22.00000           180.00000          1358.00000          4410.00000             0.00000
           482.00000            -1.00000           277.74690           -82.92764           265.07800           340.00000             1.01275            -0.00001            20.00000           186.00000          1358.00000          4030.00000             0.00000
           483.00000           716.23349           264.00219           -63.42817           256.26944           340.00000             0.91419             0.00011            20.00000           186.00000          1358.00000          3650.00000             0.00000
           484.00000           607.08853           211.65887           -42.91669           207.26224           340.00000             0.77488             0.00034            20.00000           186.00000          1358.00000          3270.00000             0.00000
           485.00000           589.12770            99.81710           -50.24110            86.25129           340.00000             0.75195             0.00039            20.00000           186.00000          1358.00000          2890.00000             0.00000
           486.00000           585.59393            78.60969           -53.60795           -57.49497           340.00000             0.74744             0.00040            20.00000           186.00000          1358.00000          2510.00000             0.00000
           487.00000           591.67806           161.78766           -59.78807          -150.33507           340.00000             0.75521             0.00038            20.00000           186.00000          1358.00000          2130.00000             0.00000
           488.00000           654.11936           178.78341           -42.50162          -173.65805           340.00000             0.83491             0.00023            20.00000           186.00000          1358.00000          1750.00000             0.00000
           489.00000           771.72922           263.72247          -101.35390          -243.46854           340.00000             0.98502             0.00002            20.00000           186.00000          1358.00000          1370.00000             0.00000
           490.00000            -1.00000           402.22772          -120.67690          -383.69809           340.00000             1.01930            -0.00002            20.00000           186.00000          1358.00000           990.00000             0.00000
           491.00000            -1.00000           273.86957           -31.27249           272.07825           350.00000             1.01644            -0.00002            22.00000           180.00000          1746.00000          4410.00000             0.00000
           492.00000            -1.00000           290.07260           -61.01595           283.58273           340.00000             1.02041            -0.00002            20.00000           186.00000          1746.00000          4030.00000             0.00000
           493.00000           717.38095           308.80621           -33.88357           306.94165           340.00000             0.91566             0.00011            20.00000           186.00000          1746.00000          3650.00000             0.00000
           494.00000           588.82565           240.03038           -12.00717           239.72987           340.00000             0.75157             0.00039            20.00000           186.00000          1746.00000          3270.00000             0.00000
           495.00000           543.60524           100.11720           -26.08227            96.66007           340.00000             0.69385             0.00052            20.00000           186.00000          1746.00000          2890.00000             0.00000
           496.00000           557.35308            54.08432           -34.63974           -41.53555           340.00000             0.71140             0.00048            20.00000           186.00000          1746.00000          2510.00000             0.00000
           497.00000           564.05191           166.67098           -40.48613          -161.67897           340.00000             0.71995             0.00046            20.00000           186.00000          1746.00000          2130.00000             0.00000
           498.00000           633.00708           209.04441           -23.57271          -207.71107           340.00000             0.80796             0.00028            20.00000           186.00000          1746.00000          1750.00000             0.00000
           499.00000           756.82602           283.78222           -64.49023          -276.35730           340.00000             0.96600             0.00004            20.00000           186.00000          1746.00000          1370.00000             0.00000
           500.00000            -1.00000           406.07083           -95.13951          -394.76828           340.00000             1.02027            -0.00002            20.00000           186.00000          1746.00000           990.00000             0.00000
           501.00000            -1.00000           266.93375           -23.10713           265.93173           350.00000             1.01790            -0.00002            22.00000           180.00000          2134.00000          4410.00000             0.00000
           502.00000            -1.00000           292.40544            -6.06949           292.34244           340.00000             1.02025            -0.00002            20.00000           186.00000          2134.00000          4030.00000             0.00000
           503.00000           722.11547           327.52960            -2.69362           327.51852           340.00000             0.92170             0.00010            20.00000           186.00000          2134.00000          3650.00000             0.00000
           504.00000           590.25583           251.76877             0.25166           251.76865           340.00000             0.75339             0.00039            20.00000           186.00000          2134.00000          3270.00000             0.00000
           505.00000           527.72711           108.00212            -3.71448           107.93822           340.00000             0.67358             0.00057            20.00000           186.00000          2134.00000          2890.00000             0.00000
           506.00000           516.79280            29.02732            -4.68995           -28.64593           340.00000             0.65963             0.00061            20.00000           186.00000          2134.00000          2510.00000             0.00000
           507.00000           546.46599           163.64458            -4.07909          -163.59373           340.00000             0.69750             0.00051            20.00000           186.00000          2134.00000          2130.00000             0.00000
           508.00000           621.30183           229.57709            -3.63248          -229.54836           340.00000             0.79302             0.00031            20.00000           186.00000          2134.00000          1750.00000             0.00000
           509.00000           744.73683           301.50216           -15.57660          -301.09952           340.00000             0.95057             0.00006            20.00000           186.00000          2134.00000          1370.00000             0.00000
           510.00000            -1.00000           399.64841           -46.35526          -396.95093           340.00000             1.01835            -0.00002            20.00000           186.00000          2134.00000           990.00000             0.00000
           511.00000            -1.00000           275.37796           -13.03574           275.06924           350.00000             1.01667            -0.00002            22.00000           180.00000          2522.00000          4410.00000             0.00000
           512.00000            -1.00000           295.18121            50.93992           290.75259           340.00000             1.02176            -0.00003            20.00000           186.00000          2522.00000          4030.00000             0.00000
           513.00000           730.47244           322.16874            29.41431           320.82315           340.00000             0.93236             0.00009            20.00000           186.00000          2522.00000          3650.00000             0.00000
           514.00000           597.73587           249.79292            12.73376           249.46814           340.00000             0.76294             0.00037            20.00000           186.00000          2522.00000          3270.00000             0.00000
           515.00000           538.15547           111.97873            21.36352           109.92196           340.00000             0.68689             0.00054            20.00000           186.00000          2522.00000          2890.00000             0.00000
           516.00000           561.63088            33.12903            21.58559           -25.13155           340.00000             0.71686             0.00046            20.00000           186.00000          2522.00000          2510.00000             0.00000
           517.00000           552.09907           161.22712            22.77813          -159.60997           340.00000             0.70469             0.00049            20.00000           186.00000          2522.00000          2130.00000             0.00000
           518.00000           623.91753           227.48081             7.01366          -227.37267           340.00000             0.79636             0.00030            20.00000           186.00000          2522.00000          1750.00000             0.00000
           519.00000           750.61917           304.29612            38.56038          -301.84305           340.00000             0.95808             0.00005            20.00000           186.00000          2522.00000          1370.00000             0.00000
           520.00000            -1.00000           402.87062            14.09816          -402.62387           340.00000             1.01515            -0.00002            20.00000           186.00000          2522.00000           990.00000             0.00000
           521.00000            -1.00000           286.78897            -5.49006           286.73642           350.00000             1.01154            -0.00001            22.00000           180.00000          2910.00000          4410.00000             0.00000
           522.00000            -1.00000           289.80021            85.64978           276.85425           340.00000             1.02073            -0.00002            20.00000           186.00000          2910.00000          4030.00000             0.00000
           523.00000           738.08107           296.13509            61.15347           289.75204           340.00000             0.94208             0.00007            20.00000           186.00000          2910.00000          3650.00000             0.00000
           524.00000           613.78158           228.10358            33.35155           225.65221           340.00000             0.78342             0.00033            20.00000           186.00000          2910.00000          3270.00000             0.00000
           525.00000           588.12856           110.26514            53.58587            96.36886           340.00000             0.75068             0.00039            20.00000           186.00000          2910.00000          2890.00000             0.00000
           526.00000           651.41608            59.82980            55.47559           -22.40678           340.00000             0.83146             0.00024            20.00000           186.00000          2910.00000          2510.00000             0.00000
           527.00000           577.54120           159.14473            51.23090          -150.67329           340.00000             0.73717             0.00042            20.00000           186.00000          2910.00000          2130.00000             0.00000
           528.00000           640.25833           214.89291            25.40426          -213.38600           340.00000             0.81722             0.00026            20.00000           186.00000          2910.00000          1750.00000             0.00000
           529.00000           768.57042           282.45345            82.15289          -270.24222           340.00000             0.98099             0.00002            20.00000           186.00000          2910.00000          1370.00000             0.00000
           530.00000            -1.00000           406.07683            60.55946          -401.53574           340.00000             1.01339            -0.00002            20.00000           186.00000          2910.00000           990.00000             0.00000
           531.00000            -1.00000           286.59891            -3.75999           286.57425           350.00000             1.00427            -0.00000            22.00000           180.00000          3298.00000          4410.00000             0.00000
           532.00000            -1.00000           279.21275            88.66724           264.76004           340.00000             1.01501            -0.00002            20.00000           186.00000          3298.00000          4030.00000             0.00000
           533.00000           742.13269           264.88338            86.72025           250.28545           340.00000             0.94725             0.00007            20.00000           186.00000          3298.00000          3650.00000             0.00000
           534.00000           645.50303           210.94671            69.91778           199.02266           340.00000             0.82391             0.00025            20.00000           186.00000          3298.00000          3270.00000             0.00000
           535.00000           685.25800           134.49146           101.39492            88.35735           340.00000             0.87465             0.00017            20.00000           186.00000          3298.00000          2890.00000             0.00000
           536.00000           725.63286           105.95364           102.04940           -28.49724           340.00000             0.92619             0.00009            20.00000           186.00000          3298.00000          2510.00000             0.00000
           537.00000           618.80896           166.14449            83.31127          -143.74709           340.00000             0.78984             0.00031            20.00000           186.00000          3298.00000          2130.00000             0.00000
           538.00000           678.56571           203.60412            67.42532          -192.11575           340.00000             0.86611             0.00018            20.00000           186.00000          3298.00000          1750.00000             0.00000
           539.00000            -1.00000           264.68192           122.70908          -234.51866           340.00000             1.00206            -0.00000            20.00000           186.00000          3298.00000          1370.00000             0.00000
           540.00000            -1.00000           390.69953            81.35825          -382.13474           340.00000             1.01153            -0.00001            20.00000           186.00000          3298.00000           990.00000             0.00000
           541.00000           805.37954           269.56513             3.89477           269.53699           350.00000             0.99860             0.00000            22.00000           180.00000          3686.00000          4410.00000             0.00000
           542.00000            -1.00000           261.59367            74.74088           250.68915           340.00000             1.00436            -0.00001            20.00000           186.00000          3686.00000          4030.00000             0.00000
           543.00000           733.44039           224.20904            83.16775           208.21339           340.00000             0.93615             0.00008            20.00000           186.00000          3686.00000          3650.00000             0.00000
           544.00000           668.66083           198.61117            90.67214           176.70586           340.00000             0.85347             0.00020            20.00000           186.00000          3686.00000          3270.00000             0.00000
           545.00000           744.23920           156.22814           130.94785            85.20501           340.00000             0.94994             0.00006            20.00000           186.00000          3686.00000          2890.00000             0.00000
           546.00000           763.27744           159.32763           153.31105           -43.37067           340.00000             0.97424             0.00003            20.00000           186.00000          3686.00000          2510.00000             0.00000
           547.00000           683.61752           195.19041           139.21169          -136.81886           340.00000             0.87256             0.00017            20.00000           186.00000          3686.00000          2130.00000             0.00000
           548.00000           716.43806           208.61031           116.67358          -172.93217           340.00000             0.91445             0.00011            20.00000           186.00000          3686.00000          1750.00000             0.00000
           549.00000            -1.00000           275.53248           158.27539          -225.53725           340.00000             1.00517            -0.00001            20.00000           186.00000          3686.00000          1370.00000             0.00000
           550.00000            -1.00000           379.74021           106.75742          -364.42487           350.00000             1.00068            -0.00000            22.00000           180.00000          3686.00000           990.00000             0.00000
           551.00000           801.41235           238.42108            12.36126           238.10042           350.00000             0.99369             0.00001            22.00000           180.00000          4074.00000          4410.00000             0.00000
           552.00000           772.76682           216.36857            50.40333           210.41592           340.00000             0.98635             0.00002            20.00000           186.00000          4074.00000          4030.00000             0.00000
           553.00000           710.08896           177.52918            59.37025           167.30745           340.00000             0.90635             0.00012            20.00000           186.00000          4074.00000          3650.00000             0.00000
           554.00000           677.24483           174.84669            92.32571           148.48343           340.00000             0.86443             0.00018            20.00000           186.00000          4074.00000          3270.00000             0.00000
           555.00000           756.31183           151.48342           135.58110            67.56471           340.00000             0.96535             0.00004            20.00000           186.00000          4074.00000          2890.00000             0.00000
           556.00000           763.80704           161.35873           156.47321           -39.40527           340.00000             0.97491             0.00003            20.00000           186.00000          4074.00000          2510.00000             0.00000
           557.00000           711.35279           188.06999           148.98997          -114.77068           340.00000             0.90796             0.00012            20.00000           186.00000          4074.00000          2130.00000             0.00000
           558.00000           719.79296           206.38785           127.36633          -162.40001           340.00000             0.91873             0.00010            20.00000           186.00000          4074.00000          1750.00000             0.00000
           559.00000           773.95135           258.52767           133.39581          -221.45454           340.00000             0.98786             0.00001            20.00000           186.00000          4074.00000          1370.00000             0.00000
           560.00000           783.42132           337.21811            85.10231          -326.30301           350.00000             0.97138             0.00003            22.00000           180.00000          4074.00000           990.00000             0.00000
           561.00000           799.62100           204.28057             9.94037           204.03857           350.00000             0.99146             0.00001            22.00000           180.00000          4462.00000          4410.00000             0.00000
           562.00000           752.26345           173.90922            26.54959           171.87070           340.00000             0.96018             0.00005            20.00000           186.00000          4462.00000          4030.00000             0.00000
           563.00000           683.41659           151.99325            48.99572           143.87970           340.00000             0.87230             0.00017            20.00000           186.00000          4462.00000          3650.00000             0.00000
           564.00000           664.07072           138.70854            79.74268           113.49522           340.00000             0.84761             0.00021            20.00000           186.00000          4462.00000          3270.00000             0.00000
           565.00000           738.79427           114.45427           104.40102            46.90635           350.00000             0.91604             0.00010            22.00000           180.00000          4462.00000          2890.00000             0.00000
           566.00000           730.94632           110.91886           106.93225           -29.47012           350.00000             0.90631             0.00012            22.00000           180.00000          4462.00000          2510.00000             0.00000
           567.00000           660.24981           135.26073            98.10587           -93.11662           340.00000             0.84273             0.00022            20.00000           186.00000          4462.00000          2130.00000             0.00000
           568.00000           676.08378           176.56919            91.37994          -151.08403           340.00000             0.86294             0.00019            20.00000           186.00000          4462.00000          1750.00000             0.00000
           569.00000           741.92838           221.23532            70.20188          -209.80173           340.00000             0.94699             0.00007            20.00000           186.00000          4462.00000          1370.00000             0.00000
           570.00000           770.72257           276.93557            31.05386          -275.18896           350.00000             0.95563             0.00005            22.00000           180.00000          4462.00000           990.00000             0.00000
           571.00000           779.67354           181.44719             3.70862           181.40929           340.00000             0.99516             0.00001            20.00000           186.00000          4850.00000          4410.00000             0.00000
           572.00000           736.76058           161.99294            13.35576           161.44144           340.00000             0.94039             0.00007            20.00000           186.00000          4850.00000          4030.00000             0.00000
           573.00000           660.76088           134.37851            32.06820           130.49603           340.00000             0.84339             0.00022            20.00000           186.00000          4850.00000          3650.00000             0.00000
           574.00000           628.11386            95.44195            44.25440            84.56190           340.00000             0.80172             0.00029            20.00000           186.00000          4850.00000          3270.00000             0.00000
           575.00000           678.14173            59.06073            51.36609            29.14952           350.00000             0.84084             0.00022            22.00000           180.00000          4850.00000          2890.00000             0.00000
           576.00000           647.34084            63.92554            54.44077           -33.50637           350.00000             0.80265             0.00028            22.00000           180.00000          4850.00000          2510.00000             0.00000
           577.00000           605.92601           108.53937            54.36890           -93.94051           340.00000             0.77340             0.00034            20.00000           186.00000          4850.00000          2130.00000             0.00000
           578.00000           651.36242           159.03482            48.60417          -151.42558           340.00000             0.83139             0.00024            20.00000           186.00000          4850.00000          1750.00000             0.00000
           579.00000           744.40638           207.37085            26.02101          -205.73181           340.00000             0.95015             0.00006            20.00000           186.00000          4850.00000          1370.00000             0.00000
           580.00000           769.48976           239.99190            11.59123          -239.71182           350.00000             0.95410             0.00005            22.00000           180.00000          4850.00000           990.00000             0.00000
           581.00000           779.45645           171.84985             6.92877           171.71011           340.00000             0.99489             0.00001            20.00000           186.00000          5238.00000          4410.00000             0.00000
           582.00000           727.02746           157.93679             4.25246           157.87953           340.00000             0.92797             0.00009            20.00000           186.00000          5238.00000          4030.00000             0.00000
           583.00000           648.19533           122.07698             3.69164           122.02115           340.00000             0.82735             0.00025            20.00000           186.00000          5238.00000          3650.00000             0.00000
           584.00000           598.59675            74.14567             6.47064            73.86279           340.00000             0.76404             0.00036            20.00000           186.00000          5238.00000          3270.00000             0.00000
           585.00000           587.26462            20.35378             7.27427            19.00951           340.00000             0.74958             0.00039            20.00000           186.00000          5238.00000          2890.00000             0.00000
           586.00000           570.75871            40.03446             7.55697           -39.31476           340.00000             0.72851             0.00044            20.00000           186.00000          5238.00000          2510.00000             0.00000
           587.00000           595.31542           100.87309             7.51371          -100.59286           340.00000             0.75985             0.00037            20.00000           186.00000          5238.00000          2130.00000             0.00000
           588.00000           654.89710           161.48555             5.28500          -161.39905           340.00000             0.83590             0.00023            20.00000           186.00000          5238.00000          1750.00000             0.00000
           589.00000           751.11476           204.55302             5.99043          -204.46529           340.00000             0.95871             0.00005            20.00000           186.00000          5238.00000          1370.00000             0.00000
           590.00000           767.04572           220.97576             8.63542          -220.80696           350.00000             0.95107             0.00006            22.00000           180.00000          5238.00000           990.00000             0.00000
           591.00000           771.24610           176.42671            11.38661           176.05888           340.00000             0.98441             0.00002            20.00000           186.00000          5626.00000          4410.00000             0.00000
           592.00000           717.78058           153.34297            -6.40733           153.20905           340.00000             0.91617             0.00011            20.00000           186.00000          5626.00000          4030.00000             0.00000
           593.00000           640.68598           124.62765           -23.72758           122.34808           340.00000             0.81776             0.00026            20.00000           186.00000          5626.00000          3650.00000             0.00000
           594.00000           597.37151            81.53410           -31.48366            75.21030           340.00000             0.76248             0.00037            20.00000           186.00000          5626.00000          3270.00000             0.00000
           595.00000           626.51400            40.96435           -35.44370            20.53830           350.00000             0.77683             0.00033            22.00000           180.00000          5626.00000          2890.00000             0.00000
           596.00000           608.01802            53.54257           -38.04337           -37.67637           340.00000             0.77607             0.00034            20.00000           186.00000          5626.00000          2510.00000             0.00000
           597.00000           600.66818           105.21254           -40.54976           -97.08448           340.00000             0.76668             0.00036            20.00000           186.00000          5626.00000          2130.00000             0.00000
           598.00000           648.34987           157.95137           -34.55945          -154.12424           340.00000             0.82754             0.00025            20.00000           186.00000          5626.00000          1750.00000             0.00000
           599.00000           739.22901           201.13559            -8.25926          -200.96594           340.00000             0.94354             0.00007            20.00000           186.00000          5626.00000          1370.00000             0.00000
           600.00000           764.72559           230.83310             3.39493          -230.80814           350.00000             0.94820             0.00006            22.00000           180.00000          5626.00000           990.00000             0.00000
           601.00000           778.33810           195.06861             5.63237           194.98727           350.00000             0.96508             0.00004            22.00000           180.00000          6014.00000          4410.00000             0.00000
           602.00000           713.74385           168.73474           -19.62418           167.58969           340.00000             0.91101             0.00011            20.00000           186.00000          6014.00000          4030.00000             0.00000
           603.00000           642.55168           144.83660           -45.80760           137.40198           340.00000             0.82014             0.00026            20.00000           186.00000          6014.00000          3650.00000             0.00000
           604.00000           618.51484           115.86589           -71.16701            91.43392           340.00000             0.78946             0.00031            20.00000           186.00000          6014.00000          3270.00000             0.00000
           605.00000           656.23027            86.67127           -81.63249            29.12121           350.00000             0.81367             0.00026            22.00000           180.00000          6014.00000          2890.00000             0.00000
           606.00000           658.86705            92.49251           -84.63820           -37.29932           350.00000             0.81694             0.00026            22.00000           180.00000          6014.00000          2510.00000             0.00000
           607.00000           625.92703           125.22664           -81.51633           -95.06208           340.00000             0.79892             0.00030            20.00000           186.00000          6014.00000          2130.00000             0.00000
           608.00000           650.17488           163.01320           -74.18243          -145.15602           340.00000             0.82987             0.00024            20.00000           186.00000          6014.00000          1750.00000             0.00000
           609.00000           715.25718           210.58648           -47.30692          -205.20410           340.00000             0.91294             0.00011            20.00000           186.00000          6014.00000          1370.00000             0.00000
           610.00000           749.72664           262.95506           -10.04591          -262.76309           350.00000             0.92960             0.00009            22.00000           180.00000          6014.00000           990.00000             0.00000
           611.00000           764.43898           227.82908            -1.01002           227.82684           350.00000             0.94784             0.00006            22.00000           180.00000          6402.00000          4410.00000             0.00000
           612.00000           722.06815           208.93924           -32.95475           206.32399           340.00000             0.92164             0.00010            20.00000           186.00000          6402.00000          4030.00000             0.00000
           613.00000           658.96397           186.51369           -67.77943           173.76221           340.00000             0.84109             0.00022            20.00000           186.00000          6402.00000          3650.00000             0.00000
           614.00000           652.53593           173.24367          -117.32229           127.47098           340.00000             0.83289             0.00024            20.00000           186.00000          6402.00000          3270.00000             0.00000
           615.00000           725.41732           153.95900          -148.83426            39.39208           350.00000             0.89946             0.00013            22.00000           180.00000          6402.00000          2890.00000             0.00000
           616.00000           724.82262           151.34608          -141.65260           -53.29331           350.00000             0.89872             0.00013            22.00000           180.00000          6402.00000          2510.00000             0.00000
           617.00000           667.90257           161.59771          -114.28778          -114.24590           340.00000             0.85250             0.00020            20.00000           186.00000          6402.00000          2130.00000             0.00000
           618.00000           685.63408           183.36498          -108.97150          -147.47179           340.00000             0.87513             0.00017            20.00000           186.00000          6402.00000          1750.00000             0.00000
           619.00000           738.01648           238.04987          -109.40668          -211.41882           350.00000             0.91508             0.00011            22.00000           180.00000          6402.00000          1370.00000             0.00000
           620.00000           730.36236           309.64934           -54.32507          -304.84668           350.00000             0.90559             0.00012            22.00000           180.00000          6402.00000           990.00000             0.00000
           621.00000           758.92405           270.67897             1.52861           270.67465           350.00000             0.94100             0.00007            22.00000           180.00000          6790.00000          4410.00000             0.00000
           622.00000           737.91657           263.35366           -46.02709           259.30032           340.00000             0.94187             0.00007            20.00000           186.00000          6790.00000          4030.00000             0.00000
           623.00000           675.70298           239.82414           -73.12421           228.40417           340.00000             0.86246             0.00019            20.00000           186.00000          6790.00000          3650.00000             0.00000
           624.00000           647.89622           199.10993          -109.48863           166.30396           340.00000             0.82697             0.00025            20.00000           186.00000          6790.00000          3270.00000             0.00000
           625.00000           763.58776           161.74578          -154.76941            46.99070           340.00000             0.97463             0.00003            20.00000           186.00000          6790.00000          2890.00000             0.00000
           626.00000           721.66113           165.94662          -146.67120           -77.62628           340.00000             0.92112             0.00010            20.00000           186.00000          6790.00000          2510.00000             0.00000
           627.00000           673.41817           184.94257          -117.49593          -142.82318           340.00000             0.85954             0.00019            20.00000           186.00000          6790.00000          2130.00000             0.00000
           628.00000           718.15768           185.59327          -113.16523          -147.10028           340.00000             0.91665             0.00011            20.00000           186.00000          6790.00000          1750.00000             0.00000
           629.00000           751.68141           249.81998          -122.66704          -217.63000           340.00000             0.95944             0.00005            20.00000           186.00000          6790.00000          1370.00000             0.00000
           630.00000           751.37598           363.12002           -63.45594          -357.53250           350.00000             0.93164             0.00008            22.00000           180.00000          6790.00000           990.00000             0.00000
           631.00000           761.81791           313.76051            21.76198           313.00491           350.00000             0.94459             0.00007            22.00000           180.00000          7178.00000          4410.00000             0.00000
           632.00000           750.36802           314.63343           -55.82087           309.64209           340.00000             0.95776             0.00005            20.00000           186.00000          7178.00000          4030.00000             0.00000
           633.00000           677.77027           284.14776           -74.53741           274.19724           340.00000             0.86510             0.00018            20.00000           186.00000          7178.00000          3650.00000             0.00000
           634.00000           588.80838           194.78150           -56.43233           186.42754           340.00000             0.75155             0.00039            20.00000           186.00000          7178.00000          3270.00000             0.00000
           635.00000           731.69330            99.38612           -86.61172            48.74434           340.00000             0.93392             0.00008            20.00000           186.00000          7178.00000          2890.00000             0.00000
           636.00000           661.11066           130.37711           -97.97781           -86.01476           340.00000             0.84383             0.00022            20.00000           186.00000          7178.00000          2510.00000             0.00000
           637.00000           632.51733           186.19826           -91.38451          -162.23029           340.00000             0.80734             0.00028            20.00000           186.00000          7178.00000          2130.00000             0.00000
           638.00000           704.89183           169.57878           -87.51870          -145.24957           340.00000             0.89971             0.00013            20.00000           186.00000          7178.00000          1750.00000             0.00000
           639.00000           747.13789           244.64092           -96.57815          -224.77065           340.00000             0.95364             0.00006            20.00000           186.00000          7178.00000          1370.00000             0.00000
           640.00000           743.91369           408.19860           -28.31121          -407.21564           340.00000             0.94952             0.00006            20.00000           186.00000          7178.00000           990.00000             0.00000
           641.00000           768.63374           349.52662            48.34686           346.16678           350.00000             0.95304             0.00006            22.00000           180.00000          7566.00000          4410.00000             0.00000
           642.00000           757.69181           345.07148           -65.44940           338.80777           340.00000             0.96711             0.00004            20.00000           186.00000          7566.00000          4030.00000             0.00000
           643.00000           677.94510           320.01513           -88.07391           307.65674           340.00000             0.86532             0.00018            20.00000           186.00000          7566.00000          3650.00000             0.00000
           644.00000           552.20815           210.74182           -25.48967           209.19463           340.00000             0.70483             0.00049            20.00000           186.00000          7566.00000          3270.00000             0.00000
           645.00000           562.65586            57.98124           -29.26708            50.05260           340.00000             0.71817             0.00046            20.00000           186.00000          7566.00000          2890.00000             0.00000
           646.00000           555.61855           119.65449           -58.73970          -104.24416           340.00000             0.70918             0.00048            20.00000           186.00000          7566.00000          2510.00000             0.00000
           647.00000           585.01891           178.26192           -57.85992          -168.61063           340.00000             0.74671             0.00040            20.00000           186.00000          7566.00000          2130.00000             0.00000
           648.00000           661.82349           148.26423           -52.38105          -138.70294           340.00000             0.84474             0.00022            20.00000           186.00000          7566.00000          1750.00000             0.00000
           649.00000           734.65162           255.54857           -99.45232          -235.40244           340.00000             0.93770             0.00008            20.00000           186.00000          7566.00000          1370.00000             0.00000
           650.00000           743.47087           442.18060           -23.45019          -441.55835           340.00000             0.94896             0.00006            20.00000           186.00000          7566.00000           990.00000             0.00000
           651.00000           776.23132           375.29558            68.68656           368.95654           350.00000             0.96246             0.00004            22.00000           180.00000          7954.00000          4410.00000             0.00000
           652.00000           761.79100           361.09025           -73.69180           353.49072           340.00000             0.97234             0.00003            20.00000           186.00000          7954.00000          4030.00000             0.00000
           653.00000           669.91264           344.03613           -89.17853           332.27707           340.00000             0.85507             0.00020            20.00000           186.00000          7954.00000          3650.00000             0.00000
           654.00000           529.39552           248.21712            -7.46951           248.10471           340.00000             0.67571             0.00056            20.00000           186.00000          7954.00000          3270.00000             0.00000
           655.00000           492.74944            61.87445           -11.77489            60.74372           340.00000             0.62894             0.00069            20.00000           186.00000          7954.00000          2890.00000             0.00000
           656.00000           493.70765           118.69631           -21.39867          -116.75150           340.00000             0.63016             0.00069            20.00000           186.00000          7954.00000          2510.00000             0.00000
           657.00000           531.09005           169.81841            -0.82900          -169.81639           340.00000             0.67788             0.00056            20.00000           186.00000          7954.00000          2130.00000             0.00000
           658.00000           618.40179           156.87970           -30.20635          -153.94420           340.00000             0.78932             0.00031            20.00000           186.00000          7954.00000          1750.00000             0.00000
           659.00000           732.35769           286.77688          -119.72226          -260.59079           340.00000             0.93477             0.00008            20.00000           186.00000          7954.00000          1370.00000             0.00000
           660.00000           748.05875           464.99989           -26.61254          -464.23773           340.00000             0.95481             0.00006            20.00000           186.00000          7954.00000           990.00000             0.00000
           661.00000           783.90726           395.62732            83.08042           386.80566           350.00000             0.97198             0.00003            22.00000           180.00000          8342.00000          4410.00000             0.00000
           662.00000           766.46188           378.22700           -85.98386           368.32382           340.00000             0.97830             0.00003            20.00000           186.00000          8342.00000          4030.00000             0.00000
           663.00000           654.63220           354.86506           -75.55997           346.72742           340.00000             0.83556             0.00023            20.00000           186.00000          8342.00000          3650.00000             0.00000
           664.00000           513.87433           260.49886             7.33616           260.39554           340.00000             0.65590             0.00062            20.00000           186.00000          8342.00000          3270.00000             0.00000
           665.00000           474.32149            74.04435            -8.41959            73.56409           340.00000             0.60542             0.00077            20.00000           186.00000          8342.00000          2890.00000             0.00000
           666.00000           474.33864            89.88033            14.09776           -88.76783           340.00000             0.60544             0.00077            20.00000           186.00000          8342.00000          2510.00000             0.00000
           667.00000           506.18830           177.56895            26.18839          -175.62717           340.00000             0.64609             0.00064            20.00000           186.00000          8342.00000          2130.00000             0.00000
           668.00000           588.42475           198.19760           -23.49712          -196.79984           340.00000             0.75106             0.00039            20.00000           186.00000          8342.00000          1750.00000             0.00000
           669.00000           723.93272           311.90255          -124.60674          -285.93069           340.00000             0.92402             0.00010            20.00000           186.00000          8342.00000          1370.00000             0.00000
           670.00000           755.97299           480.72364           -29.55732          -479.81412           340.00000             0.96491             0.00004            20.00000           186.00000          8342.00000           990.00000             0.00000
           671.00000           791.39617           416.79455            91.55015           406.61563           350.00000             0.98127             0.00002            22.00000           180.00000          8730.00000          4410.00000             0.00000
           672.00000           770.00257           395.71557           -94.07781           384.36984           340.00000             0.98282             0.00002            20.00000           186.00000          8730.00000          4030.00000             0.00000
           673.00000           643.41376           377.34090           -73.81293           370.05109           340.00000             0.82124             0.00026            20.00000           186.00000          8730.00000          3650.00000             0.00000
           674.00000           501.68574           264.67524            15.66735           264.21112           340.00000             0.64034             0.00066            20.00000           186.00000          8730.00000          3270.00000             0.00000
           675.00000           459.75090            93.28169            18.51934            91.42487           340.00000             0.58682             0.00083            20.00000           186.00000          8730.00000          2890.00000             0.00000
           676.00000           481.74199            92.11934            34.43409           -85.44160           340.00000             0.61489             0.00074            20.00000           186.00000          8730.00000          2510.00000             0.00000
           677.00000           491.47104           198.74920            12.08003          -198.38174           340.00000             0.62731             0.00070            20.00000           186.00000          8730.00000          2130.00000             0.00000
           678.00000           565.98262           216.24338           -14.61876          -215.74867           340.00000             0.72241             0.00045            20.00000           186.00000          8730.00000          1750.00000             0.00000
           679.00000           707.15794           320.04034          -114.69071          -298.78397           340.00000             0.90261             0.00013            20.00000           186.00000          8730.00000          1370.00000             0.00000
           680.00000           762.76388           494.01825           -30.53851          -493.07346           340.00000             0.97358             0.00003            20.00000           186.00000          8730.00000           990.00000             0.00000
           681.00000           797.51714           402.19960            85.20470           393.07083           350.00000             0.98886             0.00001            22.00000           180.00000          9118.00000          4410.00000             0.00000
           682.00000           773.72939           379.71801           -93.70598           367.97412           340.00000             0.98758             0.00001            20.00000           186.00000          9118.00000          4030.00000             0.00000
           683.00000           636.64506           372.82192           -69.18258           366.34677           340.00000             0.81260             0.00027            20.00000           186.00000          9118.00000          3650.00000             0.00000
           684.00000           489.08382           276.06876            28.55110           274.58841           340.00000             0.62426             0.00071            20.00000           186.00000          9118.00000          3270.00000             0.00000
           685.00000           449.58024           107.91340            30.65378           103.46809           340.00000             0.57384             0.00087            20.00000           186.00000          9118.00000          2890.00000             0.00000
           686.00000           447.23300           105.40560            22.19310          -103.04274           340.00000             0.57084             0.00088            20.00000           186.00000          9118.00000          2510.00000             0.00000
           687.00000           480.11207           207.11115            15.76664          -206.51015           340.00000             0.61281             0.00074            20.00000           186.00000          9118.00000          2130.00000             0.00000
           688.00000           544.12897           197.84167             6.19916          -197.74452           340.00000             0.69452             0.00052            20.00000           186.00000          9118.00000          1750.00000             0.00000
           689.00000           700.35812           303.26598          -108.11246          -283.34070           340.00000             0.89393             0.00014            20.00000           186.00000          9118.00000          1370.00000             0.00000
           690.00000           769.50507           473.69350           -39.28162          -472.06195           340.00000             0.98219             0.00002            20.00000           186.00000          9118.00000           990.00000             0.00000
           691.00000           782.34252           371.77237            42.91694           369.28693           350.00000             0.97004             0.00004            22.00000           180.00000          9506.00000          4410.00000             0.00000
           692.00000           760.88993           370.67171           -58.40857           366.04092           340.00000             0.97119             0.00003            20.00000           186.00000          9506.00000          4030.00000             0.00000
           693.00000           620.55373           452.44799           -35.70767           451.03674           340.00000             0.79207             0.00031            20.00000           186.00000          9506.00000          3650.00000             0.00000
           694.00000           485.00525           342.21935            32.85293           340.63876           340.00000             0.61905             0.00072            20.00000           186.00000          9506.00000          3270.00000             0.00000
           695.00000           425.29670           112.27631            21.18258           110.26000           340.00000             0.54284             0.00099            20.00000           186.00000          9506.00000          2890.00000             0.00000
           696.00000           421.92130           104.40890             8.98995          -104.02115           340.00000             0.53853             0.00101            20.00000           186.00000          9506.00000          2510.00000             0.00000
           697.00000           472.16771           226.47861            22.15625          -225.39224           340.00000             0.60267             0.00078            20.00000           186.00000          9506.00000          2130.00000             0.00000
           698.00000           534.26722           270.02354            17.04905          -269.48477           340.00000             0.68193             0.00055            20.00000           186.00000          9506.00000          1750.00000             0.00000
           699.00000           661.93016           350.07096           -63.18430          -344.32169           340.00000             0.84488             0.00022            20.00000           186.00000          9506.00000          1370.00000             0.00000
           700.00000           759.05577           421.72293           -37.80761          -420.02478           340.00000             0.96885             0.00004            20.00000           186.00000          9506.00000           990.00000             0.00000
           701.00000           602.64938           186.83605            13.12470           186.37450           340.00000             0.76921             0.00035            21.00000           186.00000           194.00000          5200.00000             0.00000
           702.00000           705.87905           189.27348             2.50307           189.25693           340.00000             0.90097             0.00013            21.00000           186.00000           194.00000          4800.00000             0.00000
           703.00000           583.92540           282.57626             1.91158           282.56979           340.00000             0.74531             0.00040            21.00000           186.00000           582.00000          5200.00000             0.00000
           704.00000           726.24571           268.01362            24.25953           266.91342           340.00000             0.92697             0.00009            21.00000           186.00000           582.00000          4800.00000             0.00000
           705.00000           574.40069           333.84977           -15.11457           333.50745           340.00000             0.73316             0.00043            21.00000           186.00000           970.00000          5200.00000             0.00000
           706.00000           734.84452           285.67952            15.44302           285.26181           340.00000             0.93795             0.00008            21.00000           186.00000           970.00000          4800.00000             0.00000
           707.00000           566.93823           371.65041           -22.90157           370.94412           340.00000             0.72363             0.00045            21.00000           186.00000          1358.00000          5200.00000             0.00000
           708.00000           738.13003           295.36750             9.03701           295.22922           340.00000             0.94214             0.00007            21.00000           186.00000          1358.00000          4800.00000             0.00000
           709.00000           558.74758           394.89544            -7.42865           394.82556           340.00000             0.71318             0.00047            21.00000           186.00000          1746.00000          5200.00000             0.00000
           710.00000           738.23470           298.55330             3.55712           298.53210           340.00000             0.94227             0.00007            21.00000           186.00000          1746.00000          4800.00000             0.00000
           711.00000           556.50027           402.02543            -6.76844           401.96844           340.00000             0.71031             0.00048            21.00000           186.00000          2134.00000          5200.00000             0.00000
           712.00000           738.26603           300.90495           -16.38643           300.45844           340.00000             0.94231             0.00007            21.00000           186.00000          2134.00000          4800.00000             0.00000
           713.00000           558.05917           400.26488            -6.15850           400.21750           340.00000             0.71230             0.00048            21.00000           186.00000          2522.00000          5200.00000             0.00000
           714.00000           740.57847           301.74617           -36.73228           299.50208           340.00000             0.94526             0.00007            21.00000           186.00000          2522.00000          4800.00000             0.00000
           715.00000           563.22505           392.45192            -6.28189           392.40164           340.00000             0.71889             0.00046            21.00000           186.00000          2910.00000          5200.00000             0.00000
           716.00000           745.27619           301.54638           -44.06524           298.30936           340.00000             0.95126             0.00006            21.00000           186.00000          2910.00000          4800.00000             0.00000
           717.00000           572.35602           377.92902            -3.95201           377.90836           340.00000             0.73055             0.00043            21.00000           186.00000          3298.00000          5200.00000             0.00000
           718.00000           750.08230           293.77340           -37.54239           291.36469           340.00000             0.95739             0.00005            21.00000           186.00000          3298.00000          4800.00000             0.00000
           719.00000           585.63256           349.21838             4.22300           349.19284           340.00000             0.74749             0.00040            21.00000           186.00000          3686.00000          5200.00000             0.00000
           720.00000           753.96781           271.67045           -25.37119           270.48315           340.00000             0.96235             0.00005            21.00000           186.00000          3686.00000          4800.00000             0.00000
           721.00000           603.50445           304.82528            26.40684           303.67932           340.00000             0.77030             0.00035            21.00000           186.00000          4074.00000          5200.00000             0.00000
           722.00000           754.16018           240.73442            -7.18270           240.62724           340.00000             0.96260             0.00005            21.00000           186.00000          4074.00000          4800.00000             0.00000
           723.00000           621.89292           253.36096            27.18889           251.89787           340.00000             0.79378             0.00031            21.00000           186.00000          4462.00000          5200.00000             0.00000
           724.00000           750.43460           216.26057             2.06568           216.25070           340.00000             0.95784             0.00005            21.00000           186.00000          4462.00000          4800.00000             0.00000
           725.00000           630.68729           216.42628             7.53943           216.29492           340.00000             0.80500             0.00028            21.00000           186.00000          4850.00000          5200.00000             0.00000
           726.00000           746.32840           198.22700             1.97430           198.21716           340.00000             0.95260             0.00006            21.00000           186.00000          4850.00000          4800.00000             0.00000
           727.00000           633.30740           205.43053             7.12677           205.30687           340.00000             0.80834             0.00028            21.00000           186.00000          5238.00000          5200.00000             0.00000
           728.00000           742.06961           183.89727            -0.68033           183.89601           340.00000             0.94717             0.00007            21.00000           186.00000          5238.00000          4800.00000             0.00000
           729.00000           628.54103           198.81979             7.02645           198.69559           340.00000             0.80226             0.00029            21.00000           186.00000          5626.00000          5200.00000             0.00000
           730.00000           739.45575           185.69237            -1.10433           185.68909           340.00000             0.94383             0.00007            21.00000           186.00000          5626.00000          4800.00000             0.00000
           731.00000           613.75038           205.25729             8.06234           205.09889           340.00000             0.78338             0.00033            21.00000           186.00000          6014.00000          5200.00000             0.00000
           732.00000           742.39823           208.13603            12.01757           207.78880           340.00000             0.94759             0.00007            21.00000           186.00000          6014.00000          4800.00000             0.00000
           733.00000           597.98270           246.64120             8.67182           246.48871           340.00000             0.76326             0.00036            21.00000           186.00000          6402.00000          5200.00000             0.00000
           734.00000           738.95668           241.55953            26.69733           240.07970           340.00000             0.94319             0.00007            21.00000           186.00000          6402.00000          4800.00000             0.00000
           735.00000           579.80727           312.57823            18.66681           312.02036           340.00000             0.74006             0.00041            21.00000           186.00000          6790.00000          5200.00000             0.00000
           736.00000           734.49231           275.56794            50.32062           270.93454           340.00000             0.93750             0.00008            21.00000           186.00000          6790.00000          4800.00000             0.00000
           737.00000           561.95905           373.38185            47.68908           370.32385           340.00000             0.71728             0.00046            21.00000           186.00000          7178.00000          5200.00000             0.00000
           738.00000           728.94678           312.07464            74.73796           302.99310           340.00000             0.93042             0.00009            21.00000           186.00000          7178.00000          4800.00000             0.00000
           739.00000           542.33742           414.74728            58.02390           410.66840           340.00000             0.69223             0.00052            21.00000           186.00000          7566.00000          5200.00000             0.00000
           740.00000           722.19153           348.30861            95.55508           334.94495           340.00000             0.92180             0.00010            21.00000           186.00000          7566.00000          4800.00000             0.00000
           741.00000           523.91674           448.32592            62.06838           444.00861           340.00000             0.66872             0.00058            21.00000           186.00000          7954.00000          5200.00000             0.00000
           742.00000           715.60304           378.85871           112.90672           361.64346           340.00000             0.91339             0.00011            21.00000           186.00000          7954.00000          4800.00000             0.00000
           743.00000           507.11792           477.18951            62.05532           473.13736           340.00000             0.64728             0.00064            21.00000           186.00000          8342.00000          5200.00000             0.00000
           744.00000           709.24423           405.08338           124.50160           385.47620           340.00000             0.90527             0.00012            21.00000           186.00000          8342.00000          4800.00000             0.00000
           745.00000           492.52114           509.60085            62.84705           505.71066           340.00000             0.62865             0.00069            21.00000           186.00000          8730.00000          5200.00000             0.00000
           746.00000           701.63269           433.18043           128.82182           413.58218           340.00000             0.89555             0.00014            21.00000           186.00000          8730.00000          4800.00000             0.00000
           747.00000           474.40708           538.33264            54.71858           535.54449           340.00000             0.60553             0.00077            21.00000           186.00000          9118.00000          5200.00000             0.00000
           748.00000           692.40545           445.84906           121.55989           428.95755           340.00000             0.88378             0.00015            21.00000           186.00000          9118.00000          4800.00000             0.00000
           749.00000           447.19059           655.81588             1.75306           655.81354           340.00000             0.57079             0.00088            21.00000           186.00000          9506.00000          5200.00000             0.00000
           750.00000           660.12123           509.16553            70.54594           504.25470           340.00000             0.84257             0.00022            21.00000           186.00000          9506.00000          4800.00000             0.00000
