                                                                        S      1
1H,,1H;,,                                                               G      1
108HC:\Users\karrers\Documents\06_NLFE Analyse Hero (sk)\02_NLFE AnalyseG      2
\01_APDL Matlab files\RhinoModell_W2.igs,                               G      3
26HRhinoceros ( Jan 21 2021 ),31HTrout Lake IGES 012 Jan 21 2021,       G      4
32,38,6,308,15,                                                         G      5
,                                                                       G      6
1.0D0,2,2HMM,1,0.254D0,13H210428.154157,                                G      7
0.001D0,                                                                G      8
9700D0,                                                                 G      9
,                                                                       G     10
,                                                                       G     11
10,0,13H210428.154157;                                                  G     12
     314       1       0       0       0       0       0       000000200D      1
     314       0       1       1       0       0       0   COLOR       0D      2
     406       2       0       0       1       0       0       000000300D      3
     406       0      -1       1       3       0       0LEVELDEF       0D      4
     128       3       0       0       1       0       0       000000000D      5
     128       0      -1       4       8       0       0 TrimSrf       0D      6
     128       7       0       0       1       0       0       000000000D      7
     128       0      -1       4       8       0       0 TrimSrf       0D      8
314,0.0,0.0,0.0,20HRGB(   0,   0,   0 );                         0000001P      1
406,2,1,7HDefault;                                               0000003P      2
128,1,1,1,1,0,0,1,0,0,0.0D0,0.0D0,9700.0D0,9700.0D0,0.0D0,0.0D0, 0000005P      3
2180.0D0,2180.0D0,1.0D0,1.0D0,1.0D0,1.0D0,0.0D0,5400.0D0,        0000005P      4
-800.0D0,9700.0D0,5400.0D0,-800.0D0,0.0D0,5400.0D0,-2980.0D0,    0000005P      5
9700.0D0,5400.0D0,-2980.0D0,0.0D0,9700.0D0,0.0D0,2180.0D0;       0000005P      6
128,1,1,1,1,0,0,1,0,0,0.0D0,0.0D0,9700.0D0,9700.0D0,0.0D0,0.0D0, 0000007P      7
600.0D0,600.0D0,1.0D0,1.0D0,1.0D0,1.0D0,0.0D0,5400.0D0,-200.0D0, 0000007P      8
9700.0D0,5400.0D0,-200.0D0,0.0D0,5400.0D0,-800.0D0,9700.0D0,     0000007P      9
5400.0D0,-800.0D0,0.0D0,9700.0D0,0.0D0,600.0D0;                  0000007P     10
S0000001G0000012D0000008P0000010                                        T      1
