! ----------------------------------------------------------------------------
! ----------------------------------------------------------------------------
! XX MULTIFRAME RESTART 
! ----------------------------------------------------------------------------
! ----------------------------------------------------------------------------
!
*DIM,delta_pres,ARRAY,1,1
*DIM,loop_max,ARRAY,1,1
*DIM,sloop_,ARRAY,1,1
*DIM,iter_smaller,ARRAY,1,1
*Dim,made_smaller,ARRAY,1,1
*DIM,counter,ARRAY,1,1
!
! ----------------------------------------------------------------------------
! 01. Inputs (to define by the user)
! ----------------------------------------------------------------------------
*set,delta_pres(1,1), stepsize_P ! use it as presure or force increment 
*set,loop_max(1,1),10**10
*set,iter_smaller(1,1),1
*set,made_smaller(1,1),0
*set,counter(1,1),0

stop_value=0

!
! ----------------------------------------------------------------------------
! 02. Start multiframe restart
! ----------------------------------------------------------------------------
*do,sloop,1,loop_max(1,1) 
    sloop=1
    sloop_(1,1)=sloop

    ! ADDED DIV 4 IF FAIL, ONCE

    ! global Failure and divergence -> if >0.5 terminate analysis
    ! *IF,stop_value,GT,0.5,EXIT 
    
    *GET,CurrentTS,active,0,set,time 
    *IF,stop_value,GT,0.5,then
        *if,made_smaller(1,1),EQ,1,EXIT
        *if,CurrentTS,EQ,2,EXIT
        made_smaller(1,1)=1
        iter_smaller(1,1)=0.25 
    *ENDIF
    

    *cfopen,natural,txt ! remark: never place vwrite in a mainfile)
    *vwrite,delta_pres(1,1),loop_max(1,1),sloop_(1,1),iter_smaller(1,1),made_smaller(1,1),counter(1,1) ! save parameter/data not defined before the first solve command
    (F20.8)
    *cfclos 
    *DEL,delta_pres,,NOPR
    *DEL,loop_max,,NOPR
    *DEL,sloop_,,NOPR
    *DEL,iter_smaller,,NOPR
    *DEL,made_smaller,,NOPR

    *GET,CurrentLSTP,ACTIVE,0,SET,LSTP,,
    PrevLSTP=CurrentLSTP-1

    ! Multiframe restart 
    /solu
    RESCONTROL,DEFINE,LAST,LAST,-1
    *IF,stop_value,GT,0.5,then
        ANTYPE,0,RESTART,PrevLSTP,LAST,CONTINUE  !RESUME,(DATABASE FILE) rest resumes the database
    *ELSE
        ANTYPE,0,RESTART,LAST,LAST,CONTINUE
    *ENDIF

    ! load paramters
    /UIS,MSGPOP,3
    *DIM,delta_pres,ARRAY,1,1
    *DIM,loop_max,ARRAY,1,1
    *DIM,sloop_,ARRAY,1,1
    *DIM,iter_smaller,ARRAY,1,1
    *DIM,made_smaller,ARRAY,1,1
    *DIM,counter,ARRAY,1,1
    
    /UIS,MSGPOP,2
    *VREAD,delta_pres(1,1),natural,txt,,,,,,0
    (F20.8)
    *VREAD,loop_max(1,1),natural,txt,,,,,,1
    (F20.8)
    *VREAD,sloop_(1,1),natural,txt,,,,,,2
    (F20.8)
    *VREAD,iter_smaller(1,1),natural,txt,,,,,,3
    (F20.8)
    *VREAD,made_smaller(1,1),natural,txt,,,,,,4
    (F20.8)
    *VREAD,counter(1,1),natural,txt,,,,,,5
    (F20.8)

    counter(1,1)=counter(1,1)+made_smaller(1,1)

    delta_pres(1,1)=delta_pres(1,1)*iter_smaller(1,1)
       
    ! Pressure (increment) or ...
    !sfcum,pres,add,,,
    !sfe,all,2,pres,1,delta_pres(1,1)
    
    ! ... Force (increment) 
    /solu  
    sfcum,pres,add,,, 
    /Input,Pfad_LM269,inp,,0,0
    sfcum,pres,add,,,
    /Input,Pfad_Erddruck_VL,inp,,0,0

    ! Konvergenzkriterien
    CNVTOL,F,,0.9     
    CNVTOL,U,,0.9
    CNVTOL,M,-1,3
    !NCNV,0

    ! Solver-Einstellungen
    autots,1
    nsubst,1,1,1 
    time,2+sloop_(1,1)      
    nropt,full,,on

    ! Speichern von Daten
    outres,erase              
    outres,nsol,all 
    outres,rsol,all 
    outres,esol,all 
    outres,svar,all 
    !
    solve
    

    delta_pres(1,1)=stepsize_P

    ! Define area for shear check
    ! ----------------------------------------------------------------------------
    ! Eingabe immer Gegenuhrzeigersinn (betrachtung von dieser Seite, dass Koor 1 nach rechts und Koor 2 nach oben)
    n_SC=1 
    *DIM,x1,ARRAY,n_SC
    *DIM,x2,ARRAY,n_SC
    *DIM,x3,ARRAY,n_SC
    *DIM,x4,ARRAY,n_SC
    *DIM,y1,ARRAY,n_SC
    *DIM,y2,ARRAY,n_SC
    *DIM,y3,ARRAY,n_SC
    *DIM,y4,ARRAY,n_SC
    *DIM,z1,ARRAY,n_SC
    *DIM,z2,ARRAY,n_SC
    *DIM,z3,ARRAY,n_SC
    *DIM,z4,ARRAY,n_SC
    x1(1) = 0
    x2(1) = 9720
    x3(1) = 9720
    x4(1) = 0
    y1(1) = 375
    y2(1) = 375
    y3(1) = 5400-375
    y4(1) = 5400-375
    z1(1) = 0
    z2(1) = 0
    z3(1) = 0
    z4(1) = 0

    ! Failure check
    /Input,Pfad_Shear_Failure_Check,inp,,0,0
    !
    !
    ! Delete again...
    *DEL,x1,,NOPR
    *DEL,x2,,NOPR
    *DEL,x3,,NOPR
    *DEL,x4,,NOPR
    *DEL,y1,,NOPR
    *DEL,y2,,NOPR
    *DEL,y3,,NOPR
    *DEL,y4,,NOPR
    *DEL,z1,,NOPR
    *DEL,z2,,NOPR
    *DEL,z3,,NOPR
    *DEL,z4,,NOPR
    !
*enddo 