           401.00000           590.41897           313.74613             1.51699          -313.74246           340.00000             0.75360             0.00038            21.00000           186.00000           194.00000           600.00000             0.00000
           402.00000           416.28717           278.27555            50.72102          -273.61407           340.00000             0.53134             0.00104            21.00000           186.00000           194.00000           200.00000             0.00000
           403.00000           644.57098           452.08004             7.16898          -452.02319           340.00000             0.82272             0.00025            21.00000           186.00000           582.00000           600.00000             0.00000
           404.00000           357.60950           497.32035            12.87299          -497.15372           340.00000             0.45645             0.00140            21.00000           186.00000           582.00000           200.00000             0.00000
           405.00000           694.96683           526.31471             0.91981          -526.31390           340.00000             0.88705             0.00015            21.00000           186.00000           970.00000           600.00000             0.00000
           406.00000           324.87532           611.95319            -6.83314          -611.91504           340.00000             0.41467             0.00166            21.00000           186.00000           970.00000           200.00000             0.00000
           407.00000           729.05333           569.28190             4.52455          -569.26392           340.00000             0.93055             0.00009            21.00000           186.00000          1358.00000           600.00000             0.00000
           408.00000           302.98057           684.41164            -0.66452          -684.41132           340.00000             0.38672             0.00187            21.00000           186.00000          1358.00000           200.00000             0.00000
           409.00000           746.64957           563.56584           -17.33412          -563.29919           340.00000             0.95301             0.00006            21.00000           186.00000          1746.00000           600.00000             0.00000
           410.00000           291.71412           707.42495           -11.77035          -707.32703           340.00000             0.37234             0.00198            21.00000           186.00000          1746.00000           200.00000             0.00000
           411.00000           753.02973           556.33799           -45.91486          -554.44006           340.00000             0.96116             0.00005            21.00000           186.00000          2134.00000           600.00000             0.00000
           412.00000           289.32112           717.39365           -35.43072          -716.51819           340.00000             0.36929             0.00201            21.00000           186.00000          2134.00000           200.00000             0.00000
           413.00000           753.93168           561.82121           -78.34248          -556.33221           340.00000             0.96231             0.00005            21.00000           186.00000          2522.00000           600.00000             0.00000
           414.00000           295.04822           729.54534           -79.95489          -725.15076           340.00000             0.37660             0.00195            21.00000           186.00000          2522.00000           200.00000             0.00000
           415.00000           747.25063           571.83169           -80.64476          -566.11652           340.00000             0.95378             0.00006            21.00000           186.00000          2910.00000           600.00000             0.00000
           416.00000           306.20627           732.85835           -90.96941          -727.19043           340.00000             0.39084             0.00183            21.00000           186.00000          2910.00000           200.00000             0.00000
           417.00000           728.33019           556.05914           -60.68081          -552.73828           340.00000             0.92963             0.00009            21.00000           186.00000          3298.00000           600.00000             0.00000
           418.00000           323.70171           698.22307           -40.51279          -697.04675           340.00000             0.41317             0.00167            21.00000           186.00000          3298.00000           200.00000             0.00000
           419.00000           695.99537           504.60222            -3.56870          -504.58960           340.00000             0.88836             0.00015            21.00000           186.00000          3686.00000           600.00000             0.00000
           420.00000           353.28054           578.78983            25.10614          -578.24506           340.00000             0.45092             0.00143            21.00000           186.00000          3686.00000           200.00000             0.00000
           421.00000           641.65019           411.66147            53.08818          -408.22397           340.00000             0.81899             0.00026            21.00000           186.00000          4074.00000           600.00000             0.00000
           422.00000           394.75023           432.56853            40.22762          -430.69394           340.00000             0.50385             0.00116            21.00000           186.00000          4074.00000           200.00000             0.00000
           423.00000           605.66894           332.97424            40.15345          -330.54431           340.00000             0.77307             0.00035            21.00000           186.00000          4462.00000           600.00000             0.00000
           424.00000           444.54590           365.07330            10.46485          -364.92328           340.00000             0.56741             0.00090            21.00000           186.00000          4462.00000           200.00000             0.00000
           425.00000           607.16413           304.41407            24.46278          -303.42957           340.00000             0.77498             0.00034            21.00000           186.00000          4850.00000           600.00000             0.00000
           426.00000           481.13774           327.20561            -3.05535          -327.19135           340.00000             0.61412             0.00074            21.00000           186.00000          4850.00000           200.00000             0.00000
           427.00000           606.21282           295.19035             1.93760          -295.18399           340.00000             0.77376             0.00034            21.00000           186.00000          5238.00000           600.00000             0.00000
           428.00000           487.34205           312.66482            14.67605          -312.32019           340.00000             0.62204             0.00071            21.00000           186.00000          5238.00000           200.00000             0.00000
           429.00000           593.13525           300.06650            -6.30391          -300.00027           340.00000             0.75707             0.00038            21.00000           186.00000          5626.00000           600.00000             0.00000
           430.00000           454.27724           313.11356            18.16593          -312.58615           340.00000             0.57983             0.00085            21.00000           186.00000          5626.00000           200.00000             0.00000
           431.00000           601.77041           336.62535             6.62952          -336.56006           340.00000             0.76809             0.00036            21.00000           186.00000          6014.00000           600.00000             0.00000
           432.00000           383.95238           309.32216            21.47709          -308.57565           340.00000             0.49007             0.00122            21.00000           186.00000          6014.00000           200.00000             0.00000
           433.00000           611.41995           433.01045            36.24683          -431.49069           340.00000             0.78041             0.00033            21.00000           186.00000          6402.00000           600.00000             0.00000
           434.00000           312.14225           394.72128            30.22332          -393.56250           340.00000             0.39841             0.00178            21.00000           186.00000          6402.00000           200.00000             0.00000
           435.00000           617.57188           546.08955            95.25504          -537.71765           340.00000             0.78826             0.00032            21.00000           186.00000          6790.00000           600.00000             0.00000
           436.00000           255.97797           542.02066            68.05021          -537.73187           340.00000             0.32673             0.00242            21.00000           186.00000          6790.00000           200.00000             0.00000
           437.00000           633.23636           627.83547           168.88847          -604.69336           340.00000             0.80825             0.00028            20.00000           186.00000          7178.00000           600.00000             0.00000
           438.00000           216.59115           661.46153           126.41059          -649.27014           340.00000             0.27645             0.00308            21.00000           186.00000          7178.00000           200.00000             0.00000
           439.00000           653.02891           658.29071           204.62830          -625.67877           340.00000             0.83352             0.00023            20.00000           186.00000          7566.00000           600.00000             0.00000
           440.00000           189.44365           729.04207           165.30728          -710.05341           340.00000             0.24180             0.00369            21.00000           186.00000          7566.00000           200.00000             0.00000
           441.00000           677.73202           673.26525           223.09776          -635.22711           340.00000             0.86505             0.00018            20.00000           186.00000          7954.00000           600.00000             0.00000
           442.00000           169.46216           758.59886           177.46892          -737.54797           340.00000             0.21630             0.00426            21.00000           186.00000          7954.00000           200.00000             0.00000
           443.00000           702.78042           678.70475           230.83971          -638.24225           340.00000             0.89702             0.00014            21.00000           186.00000          8342.00000           600.00000             0.00000
           444.00000           154.34845           777.01494           180.01059          -755.87592           340.00000             0.19701             0.00480            21.00000           186.00000          8342.00000           200.00000             0.00000
           445.00000           719.73831           695.06018           232.33635          -655.07898           340.00000             0.91866             0.00010            21.00000           186.00000          8730.00000           600.00000             0.00000
           446.00000           143.25366           787.04710           183.53799          -765.34760           340.00000             0.18285             0.00526            21.00000           186.00000          8730.00000           200.00000             0.00000
           447.00000           742.51182           700.22918           234.57715          -659.76849           340.00000             0.94773             0.00006            21.00000           186.00000          9118.00000           600.00000             0.00000
           448.00000           134.13477           783.36675           183.24707          -761.63245           340.00000             0.17121             0.00570            21.00000           186.00000          9118.00000           200.00000             0.00000
           449.00000           720.77324           634.19267           157.77943          -614.25238           340.00000             0.91998             0.00010            21.00000           186.00000          9506.00000           600.00000             0.00000
           450.00000           120.80635          1061.38199            73.66733         -1058.82239           340.00000             0.15420             0.00645            21.00000           186.00000          9506.00000           200.00000             0.00000
           451.00000           738.75916           169.49231            -9.12514           169.24649           340.00000             0.94294             0.00007            20.00000           186.00000           194.00000          4410.00000             0.00000
           452.00000           660.24963           128.26187            -9.15205           127.93494           340.00000             0.84273             0.00022            20.00000           186.00000           194.00000          4030.00000             0.00000
           453.00000           593.76553            94.20252            -7.89967            93.87071           340.00000             0.75787             0.00038            20.00000           186.00000           194.00000          3650.00000             0.00000
           454.00000           572.14876            53.91191           -11.36643            52.70008           340.00000             0.73028             0.00043            20.00000           186.00000           194.00000          3270.00000             0.00000
           455.00000           636.36832            11.28094            -6.80062             9.00062           340.00000             0.81225             0.00027            20.00000           186.00000           194.00000          2890.00000             0.00000
           456.00000           535.54429            27.54176            -3.82333           -27.27509           340.00000             0.68356             0.00054            20.00000           186.00000           194.00000          2510.00000             0.00000
           457.00000           561.47177            66.86460           -13.61676           -65.46341           340.00000             0.71665             0.00047            20.00000           186.00000           194.00000          2130.00000             0.00000
           458.00000           588.58998           112.52670            -9.82447          -112.09700           340.00000             0.75127             0.00039            20.00000           186.00000           194.00000          1750.00000             0.00000
           459.00000           655.92336           155.81221           -12.76555          -155.28839           340.00000             0.83721             0.00023            20.00000           186.00000           194.00000          1370.00000             0.00000
           460.00000           707.75107           247.81878           -40.20030          -244.53647           350.00000             0.87755             0.00016            22.00000           180.00000           194.00000           990.00000             0.00000
           461.00000           769.91651           266.17866           -26.93630           264.81223           340.00000             0.98271             0.00002            20.00000           186.00000           582.00000          4410.00000             0.00000
           462.00000           713.65168           221.63925           -42.79131           217.46922           340.00000             0.91090             0.00012            20.00000           186.00000           582.00000          4030.00000             0.00000
           463.00000           629.19050           173.76364           -33.95409           170.41397           340.00000             0.80309             0.00029            20.00000           186.00000           582.00000          3650.00000             0.00000
           464.00000           611.50580           135.99786           -51.30573           125.94895           340.00000             0.78052             0.00033            20.00000           186.00000           582.00000          3270.00000             0.00000
           465.00000           693.29060            78.87885           -59.14877            52.18520           340.00000             0.88491             0.00015            20.00000           186.00000           582.00000          2890.00000             0.00000
           466.00000           652.48173            63.84339           -50.70390           -38.79553           340.00000             0.83282             0.00024            20.00000           186.00000           582.00000          2510.00000             0.00000
           467.00000           588.59964           113.99562           -46.51979          -104.07166           340.00000             0.75128             0.00039            20.00000           186.00000           582.00000          2130.00000             0.00000
           468.00000           623.44197           152.46450           -42.51670          -146.41637           340.00000             0.79575             0.00030            20.00000           186.00000           582.00000          1750.00000             0.00000
           469.00000           730.52085           250.54868          -106.23095          -226.91325           340.00000             0.93243             0.00009            20.00000           186.00000           582.00000          1370.00000             0.00000
           470.00000           790.76027           397.10991          -141.46971          -371.05606           350.00000             0.98048             0.00002            22.00000           180.00000           582.00000           990.00000             0.00000
           471.00000            -1.00000           273.33842           -35.61521           271.00821           340.00000             1.00131            -0.00000            20.00000           186.00000           970.00000          4410.00000             0.00000
           472.00000           760.23619           253.41146           -74.21083           242.30171           340.00000             0.97035             0.00004            20.00000           186.00000           970.00000          4030.00000             0.00000
           473.00000           670.32747           210.56334           -58.28847           202.33481           340.00000             0.85560             0.00020            20.00000           186.00000           970.00000          3650.00000             0.00000
           474.00000           624.96080           185.24037           -73.74686           169.92761           340.00000             0.79769             0.00030            20.00000           186.00000           970.00000          3270.00000             0.00000
           475.00000           661.14604           119.11888           -83.89601            84.56221           340.00000             0.84388             0.00022            20.00000           186.00000           970.00000          2890.00000             0.00000
           476.00000           626.67509            91.22662           -71.55431           -56.58867           340.00000             0.79988             0.00029            20.00000           186.00000           970.00000          2510.00000             0.00000
           477.00000           585.86771           157.58832           -65.29816          -143.42325           340.00000             0.74779             0.00040            20.00000           186.00000           970.00000          2130.00000             0.00000
           478.00000           642.79192           171.11022           -56.04326          -161.67207           340.00000             0.82045             0.00026            20.00000           186.00000           970.00000          1750.00000             0.00000
           479.00000           769.73955           274.92418          -143.69411          -234.38283           340.00000             0.98248             0.00002            20.00000           186.00000           970.00000          1370.00000             0.00000
           480.00000            -1.00000           416.48624          -177.27496          -376.87448           350.00000             1.02082            -0.00002            22.00000           180.00000           970.00000           990.00000             0.00000
           481.00000            -1.00000           288.39603           -36.39349           286.09052           350.00000             1.01166            -0.00001            22.00000           180.00000          1358.00000          4410.00000             0.00000
           482.00000            -1.00000           288.24048           -84.50147           275.57590           340.00000             1.00267            -0.00000            20.00000           186.00000          1358.00000          4030.00000             0.00000
           483.00000           687.98721           272.81669           -59.19868           266.31647           340.00000             0.87814             0.00016            20.00000           186.00000          1358.00000          3650.00000             0.00000
           484.00000           582.77105           222.91970           -42.90070           218.75266           340.00000             0.74384             0.00041            20.00000           186.00000          1358.00000          3270.00000             0.00000
           485.00000           581.45734           114.78069           -58.52589            98.73869           340.00000             0.74216             0.00041            20.00000           186.00000          1358.00000          2890.00000             0.00000
           486.00000           573.23258            94.40722           -72.23105           -60.78979           340.00000             0.73167             0.00043            20.00000           186.00000          1358.00000          2510.00000             0.00000
           487.00000           577.67856           180.17823           -70.81796          -165.67743           340.00000             0.73734             0.00042            20.00000           186.00000          1358.00000          2130.00000             0.00000
           488.00000           628.67326           188.51743           -41.30385          -183.93698           340.00000             0.80243             0.00029            20.00000           186.00000          1358.00000          1750.00000             0.00000
           489.00000           759.60064           274.84558          -107.42425          -252.98245           340.00000             0.96954             0.00004            20.00000           186.00000          1358.00000          1370.00000             0.00000
           490.00000            -1.00000           419.72335          -152.43295          -391.06506           340.00000             1.02259            -0.00003            20.00000           186.00000          1358.00000           990.00000             0.00000
           491.00000            -1.00000           283.71781           -27.13327           282.41739           350.00000             1.01635            -0.00002            22.00000           180.00000          1746.00000          4410.00000             0.00000
           492.00000            -1.00000           302.19425           -63.93203           295.35413           340.00000             1.01610            -0.00002            20.00000           186.00000          1746.00000          4030.00000             0.00000
           493.00000           690.14332           316.84991           -29.50430           315.47324           340.00000             0.88089             0.00016            20.00000           186.00000          1746.00000          3650.00000             0.00000
           494.00000           566.03976           245.12580            -9.30211           244.94923           340.00000             0.72249             0.00045            20.00000           186.00000          1746.00000          3270.00000             0.00000
           495.00000           539.88734            99.68793           -33.07977            94.03942           340.00000             0.68910             0.00053            20.00000           186.00000          1746.00000          2890.00000             0.00000
           496.00000           529.52292            66.73099           -51.37673           -42.58469           340.00000             0.67588             0.00056            20.00000           186.00000          1746.00000          2510.00000             0.00000
           497.00000           554.11094           167.37057           -49.01879          -160.03145           340.00000             0.70726             0.00049            20.00000           186.00000          1746.00000          2130.00000             0.00000
           498.00000           608.53941           209.18330           -21.47635          -208.07791           340.00000             0.77673             0.00034            20.00000           186.00000          1746.00000          1750.00000             0.00000
           499.00000           733.85619           288.08838           -64.88406          -280.68661           340.00000             0.93668             0.00008            20.00000           186.00000          1746.00000          1370.00000             0.00000
           500.00000            -1.00000           414.72859          -112.66224          -399.13284           340.00000             1.01991            -0.00002            20.00000           186.00000          1746.00000           990.00000             0.00000
           501.00000            -1.00000           274.38141           -12.99933           274.07330           350.00000             1.01876            -0.00002            22.00000           180.00000          2134.00000          4410.00000             0.00000
           502.00000            -1.00000           306.38685           -11.86919           306.15686           340.00000             1.01790            -0.00002            20.00000           186.00000          2134.00000          4030.00000             0.00000
           503.00000           695.45614           332.94245            -2.69777           332.93152           340.00000             0.88767             0.00015            20.00000           186.00000          2134.00000          3650.00000             0.00000
           504.00000           570.05475           250.68344             2.49185           250.67105           340.00000             0.72761             0.00044            20.00000           186.00000          2134.00000          3270.00000             0.00000
           505.00000           513.67530           102.92145            -4.35365           102.82932           340.00000             0.65565             0.00062            20.00000           186.00000          2134.00000          2890.00000             0.00000
           506.00000           440.60951            28.76099            -6.83012           -27.93822           340.00000             0.56239             0.00092            20.00000           186.00000          2134.00000          2510.00000             0.00000
           507.00000           531.27071           157.16727            -5.16916          -157.08224           340.00000             0.67811             0.00056            20.00000           186.00000          2134.00000          2130.00000             0.00000
           508.00000           597.39989           222.60697            -1.56036          -222.60150           340.00000             0.76251             0.00037            20.00000           186.00000          2134.00000          1750.00000             0.00000
           509.00000           715.39730           299.87603           -18.65131          -299.29544           340.00000             0.91312             0.00011            20.00000           186.00000          2134.00000          1370.00000             0.00000
           510.00000            -1.00000           404.54982           -46.87709          -401.82471           340.00000             1.01695            -0.00002            20.00000           186.00000          2134.00000           990.00000             0.00000
           511.00000            -1.00000           283.53929             2.73565           283.52609           350.00000             1.01916            -0.00002            22.00000           180.00000          2522.00000          4410.00000             0.00000
           512.00000            -1.00000           308.82025            45.88010           305.39313           340.00000             1.01923            -0.00002            20.00000           186.00000          2522.00000          4030.00000             0.00000
           513.00000           700.57680           332.16555            20.07314           331.55847           340.00000             0.89421             0.00014            20.00000           186.00000          2522.00000          3650.00000             0.00000
           514.00000           574.63651           250.88609            13.05845           250.54602           340.00000             0.73346             0.00043            20.00000           186.00000          2522.00000          3270.00000             0.00000
           515.00000           531.50608           104.99558            29.14988           100.86801           340.00000             0.67841             0.00056            20.00000           186.00000          2522.00000          2890.00000             0.00000
           516.00000           542.32927            44.15386            36.69086           -24.56307           340.00000             0.69222             0.00052            20.00000           186.00000          2522.00000          2510.00000             0.00000
           517.00000           538.41126           153.92531            30.14851          -150.94392           340.00000             0.68722             0.00054            20.00000           186.00000          2522.00000          2130.00000             0.00000
           518.00000           598.45551           224.03836             8.94950          -223.85954           340.00000             0.76386             0.00036            20.00000           186.00000          2522.00000          1750.00000             0.00000
           519.00000           720.41642           306.14089            31.17263          -304.54968           340.00000             0.91953             0.00010            20.00000           186.00000          2522.00000          1370.00000             0.00000
           520.00000            -1.00000           410.84031            31.09322          -409.66202           340.00000             1.01498            -0.00002            20.00000           186.00000          2522.00000           990.00000             0.00000
           521.00000            -1.00000           300.49980            12.09962           300.25610           350.00000             1.01618            -0.00002            22.00000           180.00000          2910.00000          4410.00000             0.00000
           522.00000            -1.00000           306.94363            83.66319           295.32162           340.00000             1.01835            -0.00002            20.00000           186.00000          2910.00000          4030.00000             0.00000
           523.00000           702.59926           309.27351            47.34138           305.62869           340.00000             0.89679             0.00014            20.00000           186.00000          2910.00000          3650.00000             0.00000
           524.00000           580.85893           233.31888            25.92467           231.87413           340.00000             0.74140             0.00041            20.00000           186.00000          2910.00000          3270.00000             0.00000
           525.00000           590.96176           118.66321            66.02808            98.59640           340.00000             0.75430             0.00038            20.00000           186.00000          2910.00000          2890.00000             0.00000
           526.00000           644.93593            91.46505            87.32248           -27.21470           340.00000             0.82319             0.00025            20.00000           186.00000          2910.00000          2510.00000             0.00000
           527.00000           564.19412           169.51598            65.36414          -156.40715           340.00000             0.72013             0.00046            20.00000           186.00000          2910.00000          2130.00000             0.00000
           528.00000           608.34331           215.45137            20.94384          -214.43098           340.00000             0.77648             0.00034            20.00000           186.00000          2910.00000          1750.00000             0.00000
           529.00000           741.84544           295.83158            73.00706          -286.68152           340.00000             0.94688             0.00007            20.00000           186.00000          2910.00000          1370.00000             0.00000
           530.00000            -1.00000           423.79679            94.41990          -413.14478           340.00000             1.01591            -0.00002            20.00000           186.00000          2910.00000           990.00000             0.00000
           531.00000            -1.00000           304.13854            19.50163           303.51266           340.00000             1.01037            -0.00001            20.00000           186.00000          3298.00000          4410.00000             0.00000
           532.00000            -1.00000           298.21266            86.12566           285.50510           340.00000             1.00884            -0.00001            20.00000           186.00000          3298.00000          4030.00000             0.00000
           533.00000           698.38613           265.76678            62.63662           258.28015           340.00000             0.89141             0.00014            20.00000           186.00000          3298.00000          3650.00000             0.00000
           534.00000           611.44791           217.67683            70.68841           205.87946           340.00000             0.78044             0.00033            20.00000           186.00000          3298.00000          3270.00000             0.00000
           535.00000           677.50871           152.66265           115.65847            99.64439           340.00000             0.86476             0.00018            20.00000           186.00000          3298.00000          2890.00000             0.00000
           536.00000           727.84641           126.39635           122.09645           -32.68781           340.00000             0.92901             0.00009            20.00000           186.00000          3298.00000          2510.00000             0.00000
           537.00000           602.23809           193.92670           111.14851          -158.91373           340.00000             0.76869             0.00035            20.00000           186.00000          3298.00000          2130.00000             0.00000
           538.00000           638.49635           210.86720            61.54208          -201.68675           340.00000             0.81497             0.00027            20.00000           186.00000          3298.00000          1750.00000             0.00000
           539.00000           765.86887           277.02934           112.42191          -253.19275           340.00000             0.97754             0.00003            20.00000           186.00000          3298.00000          1370.00000             0.00000
           540.00000            -1.00000           416.51353           128.92055          -396.05936           340.00000             1.02009            -0.00002            20.00000           186.00000          3298.00000           990.00000             0.00000
           541.00000            -1.00000           283.69658            26.84526           282.42358           340.00000             1.00521            -0.00001            20.00000           186.00000          3686.00000          4410.00000             0.00000
           542.00000           774.64608           260.07517            62.38852           252.48122           340.00000             0.98875             0.00001            20.00000           186.00000          3686.00000          4030.00000             0.00000
           543.00000           682.67632           214.35130            56.66077           206.72696           340.00000             0.87136             0.00017            20.00000           186.00000          3686.00000          3650.00000             0.00000
           544.00000           641.16275           213.24359           101.12773           187.73921           340.00000             0.81837             0.00026            20.00000           186.00000          3686.00000          3270.00000             0.00000
           545.00000           739.49934           173.56098           147.33827            91.73248           340.00000             0.94389             0.00007            20.00000           186.00000          3686.00000          2890.00000             0.00000
           546.00000           772.55471           174.64912           170.03500           -39.87998           340.00000             0.98608             0.00002            20.00000           186.00000          3686.00000          2510.00000             0.00000
           547.00000           665.06059           220.62651           162.28424          -149.46532           340.00000             0.84887             0.00021            20.00000           186.00000          3686.00000          2130.00000             0.00000
           548.00000           671.55225           225.84214           112.77463          -195.66951           340.00000             0.85716             0.00020            20.00000           186.00000          3686.00000          1750.00000             0.00000
           549.00000           776.38922           286.62010           154.78255          -241.23317           340.00000             0.99097             0.00001            20.00000           186.00000          3686.00000          1370.00000             0.00000
           550.00000            -1.00000           418.41678           158.18817          -387.36172           350.00000             1.00582            -0.00001            22.00000           180.00000          3686.00000           990.00000             0.00000
           551.00000           782.00476           242.58754            24.07683           241.38977           340.00000             0.99814             0.00000            20.00000           186.00000          4074.00000          4410.00000             0.00000
           552.00000           745.40915           204.18401            31.36059           201.76131           340.00000             0.95143             0.00006            20.00000           186.00000          4074.00000          4030.00000             0.00000
           553.00000           660.22153           181.07838            48.85003           174.36472           340.00000             0.84270             0.00022            20.00000           186.00000          4074.00000          3650.00000             0.00000
           554.00000           649.65582           193.46940           106.53693           161.49394           340.00000             0.82921             0.00024            20.00000           186.00000          4074.00000          3270.00000             0.00000
           555.00000           745.83918           167.54189           150.54634            73.52608           340.00000             0.95198             0.00006            20.00000           186.00000          4074.00000          2890.00000             0.00000
           556.00000           747.13300           173.58490           168.44827           -41.91536           340.00000             0.95363             0.00006            20.00000           186.00000          4074.00000          2510.00000             0.00000
           557.00000           672.69626           201.61663           158.23166          -124.94801           340.00000             0.85862             0.00019            20.00000           186.00000          4074.00000          2130.00000             0.00000
           558.00000           675.38323           218.66653           129.02861          -176.54085           340.00000             0.86205             0.00019            20.00000           186.00000          4074.00000          1750.00000             0.00000
           559.00000           756.05682           263.41801           134.85597          -226.28061           340.00000             0.96502             0.00004            20.00000           186.00000          4074.00000          1370.00000             0.00000
           560.00000           775.99660           362.76764           124.83337          -340.61267           350.00000             0.96217             0.00004            22.00000           180.00000          4074.00000           990.00000             0.00000
           561.00000           777.29223           203.12710            13.37457           202.68631           340.00000             0.99212             0.00001            20.00000           186.00000          4462.00000          4410.00000             0.00000
           562.00000           712.22975           174.18082            16.72703           173.37579           340.00000             0.90908             0.00012            20.00000           186.00000          4462.00000          4030.00000             0.00000
           563.00000           635.08887           165.38731            48.51220           158.11240           340.00000             0.81062             0.00027            20.00000           186.00000          4462.00000          3650.00000             0.00000
           564.00000           624.12196           149.90990            87.99548           121.36629           340.00000             0.79662             0.00030            20.00000           186.00000          4462.00000          3270.00000             0.00000
           565.00000           697.21209           122.25622           111.82992            49.40297           350.00000             0.86449             0.00018            22.00000           180.00000          4462.00000          2890.00000             0.00000
           566.00000           673.13752           119.58918           113.84623           -36.61431           350.00000             0.83464             0.00023            22.00000           180.00000          4462.00000          2510.00000             0.00000
           567.00000           603.84707           146.63828           105.81548          -101.51783           340.00000             0.77074             0.00035            20.00000           186.00000          4462.00000          2130.00000             0.00000
           568.00000           617.75742           189.59601            95.03466          -164.05811           340.00000             0.78850             0.00032            20.00000           186.00000          4462.00000          1750.00000             0.00000
           569.00000           707.76692           238.40450            72.95079          -226.96892           340.00000             0.90338             0.00013            20.00000           186.00000          4462.00000          1370.00000             0.00000
           570.00000           739.46507           300.60382            59.90265          -294.57483           350.00000             0.91688             0.00010            22.00000           180.00000          4462.00000           990.00000             0.00000
           571.00000           767.54290           181.40848             7.56740           181.25058           340.00000             0.97968             0.00002            20.00000           186.00000          4850.00000          4410.00000             0.00000
           572.00000           689.69911           168.55865            12.66765           168.08197           340.00000             0.88032             0.00016            20.00000           186.00000          4850.00000          4030.00000             0.00000
           573.00000           611.42692           141.86898            31.61711           138.30099           340.00000             0.78042             0.00033            20.00000           186.00000          4850.00000          3650.00000             0.00000
           574.00000           578.38766           100.41395            45.98042            89.26793           340.00000             0.73825             0.00042            20.00000           186.00000          4850.00000          3270.00000             0.00000
           575.00000           618.99584            58.79467            52.31829            26.82555           350.00000             0.76750             0.00035            22.00000           180.00000          4850.00000          2890.00000             0.00000
           576.00000           561.31716            69.16432            53.70631           -43.58137           340.00000             0.71646             0.00047            20.00000           186.00000          4850.00000          2510.00000             0.00000
           577.00000           547.63198           126.59987            54.69594          -114.17479           340.00000             0.69899             0.00051            20.00000           186.00000          4850.00000          2130.00000             0.00000
           578.00000           601.76870           186.39250            42.56030          -181.46841           340.00000             0.76809             0.00036            20.00000           186.00000          4850.00000          1750.00000             0.00000
           579.00000           718.77417           236.17138            28.18558          -234.48346           340.00000             0.91743             0.00011            20.00000           186.00000          4850.00000          1370.00000             0.00000
           580.00000           721.54630           266.37670            35.76279          -263.96509           350.00000             0.89466             0.00013            22.00000           180.00000          4850.00000           990.00000             0.00000
           581.00000           751.89778           171.66268            11.80402           171.25636           340.00000             0.95971             0.00005            20.00000           186.00000          5238.00000          4410.00000             0.00000
           582.00000           670.91151           157.36504             8.22813           157.14978           340.00000             0.85634             0.00020            20.00000           186.00000          5238.00000          4030.00000             0.00000
           583.00000           593.98715           129.58769             3.16228           129.54910           340.00000             0.75816             0.00038            20.00000           186.00000          5238.00000          3650.00000             0.00000
           584.00000           546.14391            74.87410             1.47062            74.85966           340.00000             0.69709             0.00051            20.00000           186.00000          5238.00000          3270.00000             0.00000
           585.00000           521.10168            11.66778            -0.80254            11.64015           340.00000             0.66513             0.00059            20.00000           186.00000          5238.00000          2890.00000             0.00000
           586.00000           523.25827            54.13657            -2.06507           -54.09716           340.00000             0.66788             0.00059            20.00000           186.00000          5238.00000          2510.00000             0.00000
           587.00000           548.46213           122.89613            -2.62335          -122.86813           340.00000             0.70005             0.00050            20.00000           186.00000          5238.00000          2130.00000             0.00000
           588.00000           606.97012           184.75602             0.60282          -184.75504           340.00000             0.77473             0.00034            20.00000           186.00000          5238.00000          1750.00000             0.00000
           589.00000           714.37377           225.78823            17.89381          -225.07806           340.00000             0.91182             0.00011            20.00000           186.00000          5238.00000          1370.00000             0.00000
           590.00000           712.74162           255.09130            15.63338          -254.61180           350.00000             0.88374             0.00015            22.00000           180.00000          5238.00000           990.00000             0.00000
           591.00000           732.84823           183.23506             6.86713           183.10634           340.00000             0.93540             0.00008            20.00000           186.00000          5626.00000          4410.00000             0.00000
           592.00000           655.29116           153.77415             4.18040           153.71732           340.00000             0.83640             0.00023            20.00000           186.00000          5626.00000          4030.00000             0.00000
           593.00000           578.46555           131.78526           -19.16380           130.38445           340.00000             0.73835             0.00042            20.00000           186.00000          5626.00000          3650.00000             0.00000
           594.00000           529.87978            96.77575           -46.88843            84.65826           340.00000             0.67633             0.00056            20.00000           186.00000          5626.00000          3270.00000             0.00000
           595.00000           498.12340            55.28597           -51.90357            19.04096           350.00000             0.61763             0.00071            22.00000           180.00000          5626.00000          2890.00000             0.00000
           596.00000           529.94888            75.04609           -54.92711           -51.13636           350.00000             0.65709             0.00060            22.00000           180.00000          5626.00000          2510.00000             0.00000
           597.00000           540.54456           122.44296           -50.57840          -111.50831           340.00000             0.68994             0.00053            20.00000           186.00000          5626.00000          2130.00000             0.00000
           598.00000           591.32568           171.98981           -38.48201          -167.62944           340.00000             0.75476             0.00038            20.00000           186.00000          5626.00000          1750.00000             0.00000
           599.00000           680.27039           224.56539           -14.98851          -224.06464           340.00000             0.86829             0.00018            20.00000           186.00000          5626.00000          1370.00000             0.00000
           600.00000           698.43819           275.27925            -7.26330          -275.18341           350.00000             0.86601             0.00018            22.00000           180.00000          5626.00000           990.00000             0.00000
           601.00000           721.68250           214.94348            -3.33825           214.91756           350.00000             0.89483             0.00013            22.00000           180.00000          6014.00000          4410.00000             0.00000
           602.00000           648.57682           188.36042           -14.76619           187.78075           340.00000             0.82783             0.00024            20.00000           186.00000          6014.00000          4030.00000             0.00000
           603.00000           575.63600           154.45195           -29.71978           151.56563           340.00000             0.73473             0.00042            20.00000           186.00000          6014.00000          3650.00000             0.00000
           604.00000           537.23943           156.85155           -83.90626           132.52226           340.00000             0.68572             0.00054            20.00000           186.00000          6014.00000          3270.00000             0.00000
           605.00000           533.20860           133.61230          -124.68587            48.01750           350.00000             0.66113             0.00059            22.00000           180.00000          6014.00000          2890.00000             0.00000
           606.00000           555.15663           127.36016          -115.32899           -54.03550           350.00000             0.68835             0.00052            22.00000           180.00000          6014.00000          2510.00000             0.00000
           607.00000           562.51678           155.86116           -91.48818          -126.18484           340.00000             0.71799             0.00046            20.00000           186.00000          6014.00000          2130.00000             0.00000
           608.00000           593.98963           192.03842           -80.23971          -174.47162           340.00000             0.75816             0.00038            20.00000           186.00000          6014.00000          1750.00000             0.00000
           609.00000           643.96995           243.26851           -62.54010          -235.09212           340.00000             0.82195             0.00025            20.00000           186.00000          6014.00000          1370.00000             0.00000
           610.00000           660.44889           305.03202           -40.36256          -302.34979           350.00000             0.81890             0.00025            22.00000           180.00000          6014.00000           990.00000             0.00000
           611.00000           690.20630           260.88234            -6.88019           260.79160           350.00000             0.85580             0.00019            22.00000           180.00000          6402.00000          4410.00000             0.00000
           612.00000           652.13315           248.81150           -33.50893           246.54475           340.00000             0.83237             0.00024            20.00000           186.00000          6402.00000          4030.00000             0.00000
           613.00000           587.19128           211.47389           -38.62514           207.91658           340.00000             0.74948             0.00039            20.00000           186.00000          6402.00000          3650.00000             0.00000
           614.00000           567.13326           210.11524          -122.08297           171.00925           340.00000             0.72388             0.00045            20.00000           186.00000          6402.00000          3270.00000             0.00000
           615.00000           595.64729           241.89134          -233.51027            63.12191           350.00000             0.73855             0.00040            22.00000           180.00000          6402.00000          2890.00000             0.00000
           616.00000           620.87680           220.07876          -210.72591           -63.47639           350.00000             0.76984             0.00034            22.00000           180.00000          6402.00000          2510.00000             0.00000
           617.00000           610.13923           202.94139          -130.82162          -155.14803           340.00000             0.77877             0.00033            20.00000           186.00000          6402.00000          2130.00000             0.00000
           618.00000           634.23838           209.68067          -108.39884          -179.48726           340.00000             0.80953             0.00028            20.00000           186.00000          6402.00000          1750.00000             0.00000
           619.00000           663.07988           281.08736          -128.86172          -249.80945           350.00000             0.82216             0.00025            22.00000           180.00000          6402.00000          1370.00000             0.00000
           620.00000           626.96769           374.26794          -112.54939          -356.94415           350.00000             0.77739             0.00033            22.00000           180.00000          6402.00000           990.00000             0.00000
           621.00000           671.43576           315.82630             0.05544           315.82629           350.00000             0.83253             0.00023            22.00000           180.00000          6790.00000          4410.00000             0.00000
           622.00000           663.80954           311.86873           -43.12351           308.87289           340.00000             0.84728             0.00021            20.00000           186.00000          6790.00000          4030.00000             0.00000
           623.00000           608.19609           285.30176           -50.31903           280.82928           340.00000             0.77629             0.00034            20.00000           186.00000          6790.00000          3650.00000             0.00000
           624.00000           611.18450           232.11748          -128.96249           192.99533           340.00000             0.78011             0.00033            20.00000           186.00000          6790.00000          3270.00000             0.00000
           625.00000           685.13848           251.49313          -246.63013            49.21764           350.00000             0.84952             0.00020            22.00000           180.00000          6790.00000          2890.00000             0.00000
           626.00000           710.00752           247.61673          -239.48320           -62.94317           350.00000             0.88035             0.00016            22.00000           180.00000          6790.00000          2510.00000             0.00000
           627.00000           672.02092           219.60810          -147.66484          -162.55095           340.00000             0.85776             0.00020            20.00000           186.00000          6790.00000          2130.00000             0.00000
           628.00000           685.04988           201.63031          -109.40007          -169.37062           340.00000             0.87439             0.00017            20.00000           186.00000          6790.00000          1750.00000             0.00000
           629.00000           715.83041           293.62564          -152.67165          -250.81345           350.00000             0.88757             0.00014            22.00000           180.00000          6790.00000          1370.00000             0.00000
           630.00000           657.88127           421.93409          -137.04869          -399.05643           350.00000             0.81572             0.00026            22.00000           180.00000          6790.00000           990.00000             0.00000
           631.00000           656.42660           360.78437             2.17772           360.77780           350.00000             0.81392             0.00026            22.00000           180.00000          7178.00000          4410.00000             0.00000
           632.00000           678.32871           364.18490           -36.63613           362.33746           340.00000             0.86581             0.00018            20.00000           186.00000          7178.00000          4030.00000             0.00000
           633.00000           629.25467           347.20359           -59.11527           342.13406           340.00000             0.80317             0.00029            20.00000           186.00000          7178.00000          3650.00000             0.00000
           634.00000           631.99409           248.40019          -115.95465           219.67516           340.00000             0.80667             0.00028            20.00000           186.00000          7178.00000          3270.00000             0.00000
           635.00000           714.08221           170.75655          -163.66060            48.71352           350.00000             0.88540             0.00015            22.00000           180.00000          7178.00000          2890.00000             0.00000
           636.00000           701.83819           193.72355          -181.65627           -67.30390           340.00000             0.89582             0.00014            20.00000           186.00000          7178.00000          2510.00000             0.00000
           637.00000           717.79853           221.17490          -151.61710          -161.02979           340.00000             0.91619             0.00011            20.00000           186.00000          7178.00000          2130.00000             0.00000
           638.00000           694.65291           188.21703           -90.24117          -165.17319           340.00000             0.88665             0.00015            20.00000           186.00000          7178.00000          1750.00000             0.00000
           639.00000           714.49565           278.03253          -119.81547          -250.89110           340.00000             0.91197             0.00011            20.00000           186.00000          7178.00000          1370.00000             0.00000
           640.00000           684.37053           439.48314          -107.37775          -426.16364           350.00000             0.84856             0.00020            22.00000           180.00000          7178.00000           990.00000             0.00000
           641.00000           650.97980           388.05974            11.70285           387.88324           350.00000             0.80716             0.00027            22.00000           180.00000          7566.00000          4410.00000             0.00000
           642.00000           688.64565           392.35434           -20.64944           391.81058           340.00000             0.87898             0.00016            20.00000           186.00000          7566.00000          4030.00000             0.00000
           643.00000           652.71200           383.74494           -81.81697           374.92154           340.00000             0.83311             0.00024            20.00000           186.00000          7566.00000          3650.00000             0.00000
           644.00000           649.56608           268.34747          -118.93219           240.55249           340.00000             0.82910             0.00024            20.00000           186.00000          7566.00000          3270.00000             0.00000
           645.00000           517.89996           126.06896          -102.45823            73.45539           340.00000             0.66104             0.00060            20.00000           186.00000          7566.00000          2890.00000             0.00000
           646.00000           538.64731           155.26908          -129.86522           -85.10883           340.00000             0.68752             0.00053            20.00000           186.00000          7566.00000          2510.00000             0.00000
           647.00000           735.83656           206.78142          -139.00133          -153.09209           340.00000             0.93921             0.00008            20.00000           186.00000          7566.00000          2130.00000             0.00000
           648.00000           682.74948           177.15787           -76.41713          -159.82907           340.00000             0.87145             0.00017            20.00000           186.00000          7566.00000          1750.00000             0.00000
           649.00000           699.81843           274.47452          -102.07422          -254.78838           340.00000             0.89324             0.00014            20.00000           186.00000          7566.00000          1370.00000             0.00000
           650.00000           691.50210           451.14996           -94.04577          -441.23880           350.00000             0.85741             0.00019            22.00000           180.00000          7566.00000           990.00000             0.00000
           651.00000           657.10096           397.48751            29.06557           396.42340           350.00000             0.81475             0.00026            22.00000           180.00000          7954.00000          4410.00000             0.00000
           652.00000           695.41644           396.24915            -4.24825           396.22638           340.00000             0.88762             0.00015            20.00000           186.00000          7954.00000          4030.00000             0.00000
           653.00000           672.97331           399.64641          -102.81389           386.19498           340.00000             0.85897             0.00019            20.00000           186.00000          7954.00000          3650.00000             0.00000
           654.00000           647.35360           283.56073          -114.93690           259.22229           340.00000             0.82627             0.00025            20.00000           186.00000          7954.00000          3270.00000             0.00000
           655.00000           354.53767           108.39095           -65.68111            86.22407           340.00000             0.45253             0.00142            20.00000           186.00000          7954.00000          2890.00000             0.00000
           656.00000           381.42549           122.85227           -87.81819           -85.91068           340.00000             0.48685             0.00124            20.00000           186.00000          7954.00000          2510.00000             0.00000
           657.00000           711.40278           184.23538          -108.76349          -148.70500           340.00000             0.90802             0.00012            20.00000           186.00000          7954.00000          2130.00000             0.00000
           658.00000           677.50451           176.60661           -74.45730          -160.14371           340.00000             0.86476             0.00018            20.00000           186.00000          7954.00000          1750.00000             0.00000
           659.00000           684.73294           271.34182           -90.20475          -255.90913           340.00000             0.87398             0.00017            20.00000           186.00000          7954.00000          1370.00000             0.00000
           660.00000           676.16841           451.59726           -81.30913          -444.21719           340.00000             0.86305             0.00019            20.00000           186.00000          7954.00000           990.00000             0.00000
           661.00000           671.74514           406.05113            45.90465           403.44800           350.00000             0.83291             0.00023            22.00000           180.00000          8342.00000          4410.00000             0.00000
           662.00000           703.84455           394.83148             6.52306           394.77759           340.00000             0.89838             0.00013            20.00000           186.00000          8342.00000          4030.00000             0.00000
           663.00000           687.24956           393.51462          -111.02525           377.52768           340.00000             0.87720             0.00016            20.00000           186.00000          8342.00000          3650.00000             0.00000
           664.00000           639.53419           291.13115          -108.62904           270.10568           340.00000             0.81629             0.00026            20.00000           186.00000          8342.00000          3270.00000             0.00000
           665.00000           257.30124           105.51355           -36.22007            99.10204           340.00000             0.32842             0.00241            20.00000           186.00000          8342.00000          2890.00000             0.00000
           666.00000           251.51149            99.18376           -48.88195           -86.30164           340.00000             0.32103             0.00249            20.00000           186.00000          8342.00000          2510.00000             0.00000
           667.00000           665.98499           174.87125           -82.90311          -153.97087           340.00000             0.85005             0.00021            20.00000           186.00000          8342.00000          2130.00000             0.00000
           668.00000           670.04647           168.09380           -68.12262          -153.67119           340.00000             0.85524             0.00020            20.00000           186.00000          8342.00000          1750.00000             0.00000
           669.00000           673.98109           262.88067           -79.50234          -250.57060           340.00000             0.86026             0.00019            20.00000           186.00000          8342.00000          1370.00000             0.00000
           670.00000           683.69773           453.51901           -73.96699          -447.44650           340.00000             0.87266             0.00017            20.00000           186.00000          8342.00000           990.00000             0.00000
           671.00000           696.60179           423.93171            63.90476           419.08743           350.00000             0.86373             0.00018            22.00000           180.00000          8730.00000          4410.00000             0.00000
           672.00000           717.06626           395.20840            -2.36031           395.20135           340.00000             0.91525             0.00011            20.00000           186.00000          8730.00000          4030.00000             0.00000
           673.00000           694.17995           387.31353          -117.40195           369.09152           340.00000             0.88604             0.00015            20.00000           186.00000          8730.00000          3650.00000             0.00000
           674.00000           598.55393           279.42887           -74.01212           269.44888           340.00000             0.76399             0.00036            20.00000           186.00000          8730.00000          3270.00000             0.00000
           675.00000           218.21631           118.63144           -20.25119           116.89015           340.00000             0.27853             0.00305            20.00000           186.00000          8730.00000          2890.00000             0.00000
           676.00000           189.48938           101.83729           -30.55380           -97.14576           340.00000             0.24186             0.00369            20.00000           186.00000          8730.00000          2510.00000             0.00000
           677.00000           570.90325           159.44279           -38.56000          -154.70982           340.00000             0.72869             0.00044            20.00000           186.00000          8730.00000          2130.00000             0.00000
           678.00000           645.77777           161.84839           -57.01804          -151.47226           340.00000             0.82426             0.00025            20.00000           186.00000          8730.00000          1750.00000             0.00000
           679.00000           675.70245           265.17177           -81.63462          -252.29320           340.00000             0.86246             0.00019            20.00000           186.00000          8730.00000          1370.00000             0.00000
           680.00000           695.76278           461.19523           -67.86882          -456.17416           340.00000             0.88806             0.00015            20.00000           186.00000          8730.00000           990.00000             0.00000
           681.00000           708.86957           380.06632            50.24641           376.73029           350.00000             0.87894             0.00016            22.00000           180.00000          9118.00000          4410.00000             0.00000
           682.00000           723.45935           350.33743           -14.32431           350.04446           340.00000             0.92341             0.00010            20.00000           186.00000          9118.00000          4030.00000             0.00000
           683.00000           700.77753           348.06922          -117.66594           327.57733           340.00000             0.89446             0.00014            20.00000           186.00000          9118.00000          3650.00000             0.00000
           684.00000           564.29117           251.71194           -44.66027           247.71831           340.00000             0.72025             0.00046            20.00000           186.00000          9118.00000          3270.00000             0.00000
           685.00000           201.10293            54.07523            14.43736            52.11231           340.00000             0.25668             0.00341            20.00000           186.00000          9118.00000          2890.00000             0.00000
           686.00000           157.67665            27.55818             5.02119           -27.09688           340.00000             0.20126             0.00467            20.00000           186.00000          9118.00000          2510.00000             0.00000
           687.00000           513.99501           132.06029            -9.08873          -131.74716           340.00000             0.65606             0.00062            20.00000           186.00000          9118.00000          2130.00000             0.00000
           688.00000           636.70642           131.49052           -44.63601          -123.68259           340.00000             0.81268             0.00027            20.00000           186.00000          9118.00000          1750.00000             0.00000
           689.00000           683.37290           229.80656           -78.34978          -216.03789           340.00000             0.87225             0.00017            20.00000           186.00000          9118.00000          1370.00000             0.00000
           690.00000           713.51026           430.51970           -84.96989          -422.05133           340.00000             0.91071             0.00012            20.00000           186.00000          9118.00000           990.00000             0.00000
           691.00000           669.49677           372.09535             5.02168           372.06146           350.00000             0.83012             0.00023            22.00000           180.00000          9506.00000          4410.00000             0.00000
           692.00000           697.49131           321.67857           -11.71756           321.46509           340.00000             0.89027             0.00015            20.00000           186.00000          9506.00000          4030.00000             0.00000
           693.00000           643.37562           393.06406           -61.17615           388.27417           340.00000             0.82120             0.00026            20.00000           186.00000          9506.00000          3650.00000             0.00000
           694.00000           545.53686           356.79912           -40.18439           354.52902           340.00000             0.69632             0.00051            20.00000           186.00000          9506.00000          3270.00000             0.00000
           695.00000           199.10142           171.05424            65.86919           157.86324           340.00000             0.25413             0.00345            20.00000           186.00000          9506.00000          2890.00000             0.00000
           696.00000           160.01018           144.89017            60.05936          -131.85611           340.00000             0.20423             0.00458            20.00000           186.00000          9506.00000          2510.00000             0.00000
           697.00000           516.70149           238.18273           -23.12012          -237.05795           340.00000             0.65951             0.00061            20.00000           186.00000          9506.00000          2130.00000             0.00000
           698.00000           541.46064           239.28583            -6.98935          -239.18373           340.00000             0.69111             0.00053            20.00000           186.00000          9506.00000          1750.00000             0.00000
           699.00000           625.06506           299.86055           -48.94383          -295.83923           340.00000             0.79782             0.00030            20.00000           186.00000          9506.00000          1370.00000             0.00000
           700.00000           697.80168           410.75235           -79.46455          -402.99240           340.00000             0.89066             0.00014            20.00000           186.00000          9506.00000           990.00000             0.00000
           701.00000           618.49121           178.32621            14.34743           177.74811           340.00000             0.78943             0.00031            21.00000           186.00000           194.00000          5200.00000             0.00000
           702.00000           720.01112           186.21541             4.34781           186.16464           340.00000             0.91901             0.00010            21.00000           186.00000           194.00000          4800.00000             0.00000
           703.00000           597.39596           286.84580             7.04730           286.75922           340.00000             0.76251             0.00037            21.00000           186.00000           582.00000          5200.00000             0.00000
           704.00000           741.86969           277.25501            31.51282           275.45831           340.00000             0.94691             0.00007            21.00000           186.00000           582.00000          4800.00000             0.00000
           705.00000           584.61032           341.99821            -8.74754           341.88632           340.00000             0.74619             0.00040            21.00000           186.00000           970.00000          5200.00000             0.00000
           706.00000           748.45743           293.48055            24.28240           292.47427           340.00000             0.95532             0.00006            21.00000           186.00000           970.00000          4800.00000             0.00000
           707.00000           574.29473           381.12067           -16.11152           380.77997           340.00000             0.73302             0.00043            21.00000           186.00000          1358.00000          5200.00000             0.00000
           708.00000           749.83916           301.76896            19.31523           301.15018           340.00000             0.95708             0.00005            21.00000           186.00000          1358.00000          4800.00000             0.00000
           709.00000           564.47293           405.09586            -2.41710           405.08865           340.00000             0.72049             0.00046            21.00000           186.00000          1746.00000          5200.00000             0.00000
           710.00000           748.87401           303.01920            15.59821           302.61746           340.00000             0.95585             0.00005            21.00000           186.00000          1746.00000          4800.00000             0.00000
           711.00000           560.64377           412.45020            -3.14548           412.43820           340.00000             0.71560             0.00047            21.00000           186.00000          2134.00000          5200.00000             0.00000
           712.00000           747.93646           306.50911            -2.97625           306.49466           340.00000             0.95466             0.00006            21.00000           186.00000          2134.00000          4800.00000             0.00000
           713.00000           561.08702           413.19416            -2.31962           413.18765           340.00000             0.71616             0.00047            21.00000           186.00000          2522.00000          5200.00000             0.00000
           714.00000           749.46491           310.89624           -25.13117           309.87885           340.00000             0.95661             0.00005            21.00000           186.00000          2522.00000          4800.00000             0.00000
           715.00000           565.93043           407.76938            -0.97271           407.76822           340.00000             0.72235             0.00045            21.00000           186.00000          2910.00000          5200.00000             0.00000
           716.00000           753.57055           312.92745           -32.95288           311.18756           340.00000             0.96185             0.00005            21.00000           186.00000          2910.00000          4800.00000             0.00000
           717.00000           576.02102           393.72529             4.47997           393.69980           340.00000             0.73523             0.00042            21.00000           186.00000          3298.00000          5200.00000             0.00000
           718.00000           759.47934           308.39468           -26.15760           307.28336           340.00000             0.96939             0.00004            21.00000           186.00000          3298.00000          4800.00000             0.00000
           719.00000           591.44291           365.62911            17.67025           365.20187           340.00000             0.75491             0.00038            21.00000           186.00000          3686.00000          5200.00000             0.00000
           720.00000           763.86857           284.68962           -12.32866           284.42255           340.00000             0.97499             0.00003            21.00000           186.00000          3686.00000          4800.00000             0.00000
           721.00000           613.08534           324.58246            38.62607           322.27597           340.00000             0.78253             0.00033            21.00000           186.00000          4074.00000          5200.00000             0.00000
           722.00000           762.28131           248.86446             4.90288           248.81616           340.00000             0.97297             0.00003            21.00000           186.00000          4074.00000          4800.00000             0.00000
           723.00000           632.81120           263.91393            34.72618           261.61929           340.00000             0.80771             0.00028            21.00000           186.00000          4462.00000          5200.00000             0.00000
           724.00000           756.67485           220.70008             6.95192           220.59056           340.00000             0.96581             0.00004            21.00000           186.00000          4462.00000          4800.00000             0.00000
           725.00000           637.60951           220.95065            10.72026           220.69043           340.00000             0.81384             0.00027            21.00000           186.00000          4850.00000          5200.00000             0.00000
           726.00000           749.79628           200.29710             3.89299           200.25926           340.00000             0.95703             0.00005            21.00000           186.00000          4850.00000          4800.00000             0.00000
           727.00000           633.38614           200.64164            11.98630           200.28329           340.00000             0.80845             0.00028            21.00000           186.00000          5238.00000          5200.00000             0.00000
           728.00000           743.58884           185.81116            -1.53845           185.80479           340.00000             0.94911             0.00006            21.00000           186.00000          5238.00000          4800.00000             0.00000
           729.00000           616.81981           187.02073             9.84869           186.76123           340.00000             0.78730             0.00032            21.00000           186.00000          5626.00000          5200.00000             0.00000
           730.00000           737.32951           192.41878            10.74404           192.11859           340.00000             0.94112             0.00007            21.00000           186.00000          5626.00000          4800.00000             0.00000
           731.00000           591.84000           218.43197            12.81589           218.05568           340.00000             0.75542             0.00038            21.00000           186.00000          6014.00000          5200.00000             0.00000
           732.00000           723.51842           232.93390            35.59888           230.19757           340.00000             0.92349             0.00010            21.00000           186.00000          6014.00000          4800.00000             0.00000
           733.00000           564.02859           280.64476            20.85631           279.86871           340.00000             0.71992             0.00046            21.00000           186.00000          6402.00000          5200.00000             0.00000
           734.00000           701.94416           276.86394            47.68643           272.72632           340.00000             0.89595             0.00014            21.00000           186.00000          6402.00000          4800.00000             0.00000
           735.00000           534.81211           361.91371            42.42010           359.41907           340.00000             0.68263             0.00055            21.00000           186.00000          6790.00000          5200.00000             0.00000
           736.00000           679.80678           333.55221            69.24719           326.28500           340.00000             0.86770             0.00018            21.00000           186.00000          6790.00000          4800.00000             0.00000
           737.00000           485.50655           426.69648            80.35512           419.06198           340.00000             0.61969             0.00072            21.00000           186.00000          7178.00000          5200.00000             0.00000
           738.00000           664.63223           388.66789            94.68259           376.95880           340.00000             0.84833             0.00021            21.00000           186.00000          7178.00000          4800.00000             0.00000
           739.00000           417.22021           451.51481           111.39009           437.55899           340.00000             0.53253             0.00103            21.00000           186.00000          7566.00000          5200.00000             0.00000
           740.00000           667.66425           407.49480           121.79885           388.86636           340.00000             0.85220             0.00020            21.00000           186.00000          7566.00000          4800.00000             0.00000
           741.00000           356.61955           471.62393           132.60371           452.59848           340.00000             0.45518             0.00141            21.00000           186.00000          7954.00000          5200.00000             0.00000
           742.00000           682.33416           419.88891           151.26569           391.69553           340.00000             0.87092             0.00017            21.00000           186.00000          7954.00000          4800.00000             0.00000
           743.00000           308.77305           493.20095           143.20042           471.95425           340.00000             0.39411             0.00181            21.00000           186.00000          8342.00000          5200.00000             0.00000
           744.00000           700.51701           430.37980           174.79611           393.28500           340.00000             0.89413             0.00014            21.00000           186.00000          8342.00000          4800.00000             0.00000
           745.00000           272.33254           514.26840           151.10934           491.56683           340.00000             0.34760             0.00221            21.00000           186.00000          8730.00000          5200.00000             0.00000
           746.00000           711.14602           458.72395           193.13057           416.08682           340.00000             0.90770             0.00012            21.00000           186.00000          8730.00000          4800.00000             0.00000
           747.00000           244.92875           507.74223           165.94261           479.85959           340.00000             0.31262             0.00259            21.00000           186.00000          9118.00000          5200.00000             0.00000
           748.00000           726.75259           477.59582           208.31454           429.77066           340.00000             0.92762             0.00009            21.00000           186.00000          9118.00000          4800.00000             0.00000
           749.00000           194.29950           833.19817            49.01634           831.75513           340.00000             0.24800             0.00357            21.00000           186.00000          9506.00000          5200.00000             0.00000
           750.00000           692.92504           482.63653           154.92044           457.09702           340.00000             0.88444             0.00015            21.00000           186.00000          9506.00000          4800.00000             0.00000
