           469.00000            -0.25946            -3.39424            -2.07060            -0.00430             0.00070             0.00013
           470.00000            -0.23837            -3.70891             0.41613            -0.00137            -0.00011             0.00002
           471.00000            -0.24444            -3.50657            -0.53261            -0.00334             0.00029             0.00018
           472.00000             0.21540            -4.23910             0.69271            -0.00386             0.00004            -0.00031
           473.00000            -0.23238            -3.63796             0.45845            -0.00163            -0.00010            -0.00001
           474.00000            -0.22058            -3.59337             0.49029            -0.00187            -0.00008            -0.00009
           475.00000            -0.19926            -3.58409             0.51066            -0.00206            -0.00005            -0.00014
           476.00000            -0.17061            -3.58985             0.52251            -0.00218            -0.00004            -0.00010
           477.00000            -0.13774            -3.59449             0.52770            -0.00223            -0.00001            -0.00005
           478.00000            -0.10292            -3.59369             0.52343            -0.00222             0.00002             0.00001
           479.00000            -0.07050            -3.58649             0.50949            -0.00215             0.00004             0.00007
           480.00000            -0.04591            -3.57144             0.49461            -0.00202             0.00003             0.00013
           481.00000            -0.02966            -3.55021             0.48878            -0.00185             0.00001             0.00018
           482.00000            -0.01859            -3.53594             0.49276            -0.00166            -0.00001             0.00016
           483.00000            -0.00956            -3.53911             0.49768            -0.00146            -0.00001             0.00010
           484.00000            -0.00288            -3.55736             0.49667            -0.00129             0.00001             0.00004
           485.00000            -0.00793            -3.57961             0.49917            -0.00120            -0.00002            -0.00002
           486.00000            -0.00966            -3.59756             0.51384            -0.00122            -0.00005            -0.00009
           487.00000            -0.01397            -3.61326             0.53795            -0.00135            -0.00007            -0.00015
           488.00000            -0.01058            -3.63326             0.56799            -0.00158            -0.00007            -0.00023
           489.00000             0.00048            -3.67313             0.59832            -0.00186            -0.00008            -0.00032
           490.00000             0.01964            -3.74072             0.62571            -0.00217            -0.00008            -0.00040
           491.00000             0.04787            -3.82410             0.65288            -0.00247            -0.00008            -0.00038
           492.00000             0.08397            -3.90464             0.68120            -0.00275            -0.00008            -0.00033
           493.00000             0.12334            -3.97715             0.70525            -0.00300            -0.00005            -0.00028
           494.00000             0.15923            -4.04175             0.72173            -0.00323            -0.00003            -0.00025
           495.00000             0.18966            -4.10097             0.72821            -0.00343             0.00001            -0.00023
           496.00000             0.21094            -4.16531             0.71580            -0.00363             0.00006            -0.00028
           497.00000             0.56046            -3.76234            -4.93380            -0.00841             0.00074            -0.00018
           498.00000             0.40863            -3.83973            -1.67497            -0.00762             0.00045            -0.00032
           499.00000            -0.23644            -3.32075            -2.35458            -0.00460             0.00076             0.00010
           500.00000            -0.21462            -3.29122            -2.63777            -0.00490             0.00068             0.00006
           501.00000            -0.19437            -3.28419            -2.86921            -0.00516             0.00049             0.00004
           502.00000            -0.17958            -3.28433            -3.01897            -0.00537             0.00026             0.00002
           503.00000            -0.17429            -3.28476            -3.08816            -0.00548             0.00007             0.00001
           504.00000            -0.17597            -3.28304            -3.08978            -0.00549            -0.00008             0.00002
           505.00000            -0.17553            -3.27844            -3.03078            -0.00539            -0.00024             0.00002
           506.00000            -0.16539            -3.26970            -2.90231            -0.00520            -0.00044             0.00002
           507.00000            -0.14401            -3.25834            -2.69222            -0.00492            -0.00065             0.00002
           508.00000            -0.11470            -3.25388            -2.40909            -0.00459            -0.00080             0.00002
           509.00000            -0.08152            -3.26331            -2.10408            -0.00424            -0.00076             0.00002
           510.00000            -0.03414            -3.28912            -1.85287            -0.00393            -0.00053            -0.00002
           511.00000             0.02080            -3.32339            -1.70977            -0.00373            -0.00021            -0.00004
           512.00000             0.07817            -3.34207            -1.69952            -0.00373             0.00015            -0.00007
           513.00000             0.14217            -3.34300            -1.83251            -0.00396             0.00053            -0.00011
           514.00000             0.21076            -3.34853            -2.10490            -0.00436             0.00088            -0.00015
           515.00000             0.28067            -3.36894            -2.48168            -0.00491             0.00106            -0.00018
           516.00000             0.34295            -3.41605            -2.88625            -0.00549             0.00102            -0.00019
           517.00000             0.39162            -3.47426            -3.25530            -0.00605             0.00090            -0.00018
           518.00000             0.42818            -3.52920            -3.57892            -0.00656             0.00080            -0.00018
           519.00000             0.45702            -3.57924            -3.86846            -0.00702             0.00073            -0.00017
           520.00000             0.48262            -3.62440            -4.13660            -0.00744             0.00070            -0.00017
           521.00000             0.50822            -3.66679            -4.39548            -0.00782             0.00070            -0.00016
           522.00000             0.53628            -3.70931            -4.65755            -0.00816             0.00072            -0.00018
           523.00000            -0.22723            -3.40509            -0.65157            -0.00378             0.00034             0.00012
           524.00000            -0.20241            -3.34601            -0.77345            -0.00427             0.00031             0.00007
           525.00000            -0.18104            -3.31982            -0.87229            -0.00464             0.00022             0.00004
           526.00000            -0.16673            -3.31279            -0.93346            -0.00487             0.00012             0.00003
           527.00000            -0.15804            -3.31156            -0.96025            -0.00497             0.00004             0.00004
           528.00000            -0.14959            -3.31074            -0.96167            -0.00496            -0.00003             0.00007
           529.00000            -0.13973            -3.30634            -0.94136            -0.00486            -0.00010             0.00009
           530.00000            -0.12566            -3.29911            -0.89091            -0.00467            -0.00020             0.00009
           531.00000            -0.10378            -3.29358            -0.79906            -0.00437            -0.00031             0.00007
           532.00000            -0.07152            -3.29746            -0.66684            -0.00397            -0.00039             0.00003
           533.00000            -0.03572            -3.32235            -0.52550            -0.00353            -0.00034            -0.00002
           534.00000            -0.01528            -3.36147            -0.41507            -0.00316            -0.00023            -0.00004
           535.00000             0.00915            -3.39411            -0.35398            -0.00297            -0.00009            -0.00006
           536.00000             0.03767            -3.41404            -0.34261            -0.00297             0.00002            -0.00007
           537.00000             0.05839            -3.42000            -0.38694            -0.00318             0.00020            -0.00009
           538.00000             0.08951            -3.41774            -0.49004            -0.00360             0.00033            -0.00013
           539.00000             0.14737            -3.43352            -0.63709            -0.00417             0.00044            -0.00021
           540.00000             0.20643            -3.47619            -0.79947            -0.00476             0.00043            -0.00027
           541.00000             0.25062            -3.53319            -0.94630            -0.00530             0.00038            -0.00030
           542.00000             0.28422            -3.59201            -1.07205            -0.00576             0.00033            -0.00031
           543.00000             0.31281            -3.64591            -1.18383            -0.00618             0.00031            -0.00030
           544.00000             0.33924            -3.69386            -1.29002            -0.00657             0.00030            -0.00029
           545.00000             0.36443            -3.73806            -1.39901            -0.00692             0.00031            -0.00029
           546.00000             0.38871            -3.78112            -1.52231            -0.00728             0.00036            -0.00029
           547.00000            -0.14529            -2.28464            -2.68684             0.00412             0.00031            -0.00011
           548.00000            -0.19353            -2.31177            -4.25443             0.00410             0.00051            -0.00012
           549.00000            -0.26466            -2.38025            -5.71129             0.00355             0.00074            -0.00010
           550.00000            -0.33837            -2.50118            -6.87112             0.00254             0.00102            -0.00007
           551.00000            -0.39993            -2.65542            -7.59031             0.00124             0.00128            -0.00005
           552.00000            -0.43917            -2.82158            -7.79056            -0.00018             0.00144            -0.00002
           553.00000            -0.44408            -2.98444            -7.45712            -0.00157             0.00144             0.00002
           554.00000            -0.41137            -3.13860            -6.61342            -0.00286             0.00137             0.00006
           555.00000            -0.36153            -3.26354            -5.32864            -0.00388             0.00119             0.00009
           556.00000            -0.29736            -3.33989            -3.74032            -0.00445             0.00100             0.00012
           557.00000             0.48896            -2.14810            -4.84387             0.00748             0.00075             0.00021
           558.00000             0.55708            -2.16503            -7.73052             0.00758             0.00091             0.00009
           559.00000             0.54780            -2.18677           -10.58693             0.00732             0.00110            -0.00002
           560.00000             0.47704            -2.30082           -13.17727             0.00613             0.00146            -0.00006
           561.00000             0.40246            -2.55077           -15.05642             0.00362             0.00187            -0.00004
           562.00000             0.36898            -2.88483           -15.81310             0.00032             0.00204             0.00000
           563.00000             0.38956            -3.21999           -15.30104            -0.00297             0.00195             0.00003
           564.00000             0.45126            -3.48999           -13.64490            -0.00564             0.00164             0.00005
           565.00000             0.53050            -3.66578           -11.13659            -0.00743             0.00122             0.00005
           566.00000             0.58300            -3.74703            -8.12755            -0.00826             0.00089            -0.00002
           567.00000            -0.13407            -2.33279            -2.80867             0.00427             0.00031            -0.00009
           568.00000            -0.12271            -2.36454            -2.91879             0.00443             0.00026            -0.00007
           569.00000            -0.11566            -2.38858            -3.00405             0.00456             0.00018            -0.00006
           570.00000            -0.11169            -2.40738            -3.05766             0.00464             0.00009            -0.00005
           571.00000            -0.10954            -2.42448            -3.07664             0.00468             0.00000            -0.00005
           572.00000            -0.10823            -2.44271            -3.06423             0.00467            -0.00008            -0.00006
           573.00000            -0.10557            -2.46215            -3.02267             0.00461            -0.00016            -0.00007
           574.00000            -0.09789            -2.48114            -2.95232             0.00448            -0.00023            -0.00007
           575.00000            -0.08471            -2.50168            -2.85517             0.00431            -0.00029            -0.00007
           576.00000            -0.06524            -2.52361            -2.73576             0.00411            -0.00034            -0.00007
           577.00000            -0.03957            -2.54362            -2.60588             0.00389            -0.00034            -0.00006
           578.00000            -0.00606            -2.55452            -2.49195             0.00371            -0.00025            -0.00003
           579.00000             0.03435            -2.55617            -2.42852             0.00362            -0.00008             0.00001
           580.00000             0.07761            -2.55294            -2.43932             0.00364             0.00014             0.00005
           581.00000             0.12556            -2.54273            -2.53086             0.00380             0.00034             0.00009
           582.00000             0.17580            -2.52420            -2.69396             0.00409             0.00051             0.00013
           583.00000             0.22698            -2.49308            -2.91005             0.00448             0.00061             0.00017
           584.00000             0.27562            -2.45026            -3.15343             0.00491             0.00065             0.00019
           585.00000             0.31741            -2.40307            -3.39996             0.00536             0.00064             0.00020
           586.00000             0.35121            -2.35680            -3.63934             0.00578             0.00062             0.00020
           587.00000             0.38005            -2.31358            -3.87072             0.00617             0.00061             0.00019
           588.00000             0.40712            -2.27366            -4.09775             0.00655             0.00061             0.00019
           589.00000             0.43501            -2.23596            -4.32739             0.00690             0.00063             0.00019
           590.00000             0.46515            -2.19857            -4.57142             0.00724             0.00069             0.00020
           591.00000            -0.18194            -2.34096            -4.44341             0.00425             0.00046            -0.00012
           592.00000            -0.16849            -2.36725            -4.61388             0.00441             0.00040            -0.00011
           593.00000            -0.15506            -2.38705            -4.75319             0.00455             0.00030            -0.00008
           594.00000            -0.14147            -2.40181            -4.84609             0.00467             0.00016            -0.00006
           595.00000            -0.13203            -2.41663            -4.88364             0.00474             0.00002            -0.00005
           596.00000            -0.12889            -2.43429            -4.86849             0.00473            -0.00010            -0.00005
           597.00000            -0.12259            -2.45482            -4.80220             0.00466            -0.00023            -0.00004
           598.00000            -0.11181            -2.47689            -4.68325             0.00453            -0.00036            -0.00003
           599.00000            -0.09719            -2.50031            -4.51729             0.00434            -0.00048            -0.00003
           600.00000            -0.07779            -2.52468            -4.31503             0.00411            -0.00055            -0.00003
           601.00000            -0.05104            -2.54667            -4.09921             0.00389            -0.00055            -0.00002
           602.00000            -0.01198            -2.55718            -3.91332             0.00370            -0.00041            -0.00000
           603.00000             0.04351            -2.55659            -3.81059             0.00360            -0.00012             0.00001
           604.00000             0.10533            -2.55646            -3.83166             0.00363             0.00023             0.00003
           605.00000             0.16809            -2.55341            -3.98982             0.00382             0.00058             0.00005
           606.00000             0.23276            -2.54073            -4.27228             0.00414             0.00087             0.00008
           607.00000             0.29458            -2.51272            -4.64591             0.00457             0.00105             0.00011
           608.00000             0.34826            -2.47086            -5.06459             0.00504             0.00110             0.00012
           609.00000             0.39174            -2.42249            -5.48629             0.00551             0.00107             0.00012
           610.00000             0.42577            -2.37533            -5.89114             0.00595             0.00102             0.00011
           611.00000             0.45404            -2.33001            -6.27774             0.00637             0.00098             0.00011
           612.00000             0.48082            -2.28665            -6.64997             0.00675             0.00095             0.00010
           613.00000             0.50740            -2.24566            -7.01376             0.00709             0.00093             0.00010
           614.00000             0.53550            -2.20467            -7.37407             0.00739             0.00092             0.00009
           615.00000            -0.25085            -2.38286            -5.98692             0.00381             0.00068            -0.00011
           616.00000            -0.23383            -2.38994            -6.23817             0.00407             0.00060            -0.00011
           617.00000            -0.21173            -2.39703            -6.45306             0.00431             0.00048            -0.00010
           618.00000            -0.18641            -2.40160            -6.61033             0.00452             0.00030            -0.00008
           619.00000            -0.16245            -2.40913            -6.68627             0.00465             0.00007            -0.00006
           620.00000            -0.14343            -2.42530            -6.67069             0.00465            -0.00015            -0.00004
           621.00000            -0.12443            -2.44948            -6.56622             0.00453            -0.00037            -0.00002
           622.00000            -0.10446            -2.47723            -6.38190             0.00432            -0.00055            -0.00001
           623.00000            -0.08525            -2.50531            -6.13439             0.00408            -0.00069            -0.00000
           624.00000            -0.06840            -2.53273            -5.84158             0.00384            -0.00079            -0.00001
           625.00000            -0.04583            -2.56089            -5.53437             0.00360            -0.00078            -0.00002
           626.00000            -0.00748            -2.57824            -5.27119             0.00339            -0.00057            -0.00001
           627.00000             0.04930            -2.58368            -5.12565             0.00327            -0.00017             0.00000
           628.00000             0.11820            -2.58792            -5.15584             0.00328             0.00033             0.00001
           629.00000             0.19277            -2.58833            -5.38507             0.00347             0.00085             0.00003
           630.00000             0.26269            -2.57353            -5.79726             0.00382             0.00127             0.00006
           631.00000             0.32345            -2.53989            -6.33964             0.00426             0.00151             0.00007
           632.00000             0.36922            -2.49071            -6.93970             0.00473             0.00155             0.00006
           633.00000             0.40382            -2.44019            -7.53810             0.00518             0.00149             0.00003
           634.00000             0.43200            -2.39345            -8.10928             0.00561             0.00141             0.00002
           635.00000             0.45719            -2.34754            -8.65214             0.00601             0.00134             0.00002
           636.00000             0.48003            -2.30154            -9.17039             0.00639             0.00127             0.00001
           637.00000             0.50320            -2.26067            -9.66709             0.00674             0.00123            -0.00000
           638.00000             0.52611            -2.21952           -10.14151             0.00706             0.00116            -0.00001
           639.00000            -0.32737            -2.48874            -7.25837             0.00283             0.00097            -0.00008
           640.00000            -0.31541            -2.47743            -7.62187             0.00316             0.00089            -0.00009
           641.00000            -0.29387            -2.46324            -7.95128             0.00350             0.00079            -0.00009
           642.00000            -0.25667            -2.44868            -8.21340             0.00382             0.00055            -0.00008
           643.00000            -0.20486            -2.44455            -8.35397             0.00402             0.00018            -0.00006
           644.00000            -0.15230            -2.45491            -8.34505             0.00405            -0.00022            -0.00003
           645.00000            -0.10553            -2.48037            -8.18957             0.00391            -0.00058            -0.00001
           646.00000            -0.07070            -2.51714            -7.91312             0.00364            -0.00084             0.00000
           647.00000            -0.05026            -2.55427            -7.56077             0.00334            -0.00096             0.00000
           648.00000            -0.04698            -2.58828            -7.16572             0.00307            -0.00105            -0.00002
           649.00000            -0.03567            -2.62663            -6.75975             0.00280            -0.00102            -0.00003
           650.00000            -0.00272            -2.65263            -6.41330             0.00257            -0.00075            -0.00002
           651.00000             0.05464            -2.66485            -6.21958             0.00245            -0.00024            -0.00000
           652.00000             0.12756            -2.67226            -6.25286             0.00245             0.00041             0.00000
           653.00000             0.20698            -2.67467            -6.54607             0.00259             0.00109             0.00002
           654.00000             0.27767            -2.66082            -7.08135             0.00289             0.00165             0.00005
           655.00000             0.32474            -2.62424            -7.78587             0.00328             0.00195             0.00006
           656.00000             0.34607            -2.57191            -8.55636             0.00369             0.00199             0.00003
           657.00000             0.35846            -2.52613            -9.31610             0.00408             0.00191            -0.00001
           658.00000             0.38016            -2.48609           -10.04286             0.00446             0.00183            -0.00003
           659.00000             0.40442            -2.44494           -10.73284             0.00483             0.00173            -0.00002
           660.00000             0.42764            -2.40334           -11.38811             0.00516             0.00166            -0.00002
           661.00000             0.43882            -2.37251           -12.00634             0.00544             0.00154            -0.00005
           662.00000             0.45955            -2.33804           -12.59874             0.00575             0.00153            -0.00005
           663.00000            -0.39424            -2.63959            -8.08451             0.00148             0.00126            -0.00005
           664.00000            -0.39115            -2.62202            -8.56427             0.00176             0.00119            -0.00006
           665.00000            -0.37469            -2.60236            -9.01922             0.00206             0.00113            -0.00007
           666.00000            -0.32224            -2.58661            -9.39477             0.00232             0.00079            -0.00006
           667.00000            -0.24640            -2.57860            -9.60711             0.00249             0.00029            -0.00005
           668.00000            -0.16293            -2.58351            -9.61382             0.00254            -0.00026            -0.00003
           669.00000            -0.08774            -2.60405            -9.41206             0.00244            -0.00077            -0.00002
           670.00000            -0.03603            -2.63663            -9.04146             0.00222            -0.00112            -0.00001
           671.00000            -0.02040            -2.67207            -8.58350             0.00197            -0.00121            -0.00001
           672.00000            -0.02748            -2.70709            -8.08938             0.00174            -0.00130            -0.00003
           673.00000            -0.02475            -2.74400            -7.58716             0.00151            -0.00125            -0.00003
           674.00000             0.00275            -2.77209            -7.16134             0.00133            -0.00091            -0.00002
           675.00000             0.05973            -2.79022            -6.92156             0.00122            -0.00031            -0.00001
           676.00000             0.13655            -2.79999            -6.95282             0.00121             0.00047             0.00000
           677.00000             0.21840            -2.80170            -7.29243             0.00131             0.00127             0.00002
           678.00000             0.28645            -2.79149            -7.91949             0.00149             0.00194             0.00003
           679.00000             0.32037            -2.76666            -8.74635             0.00172             0.00228             0.00004
           680.00000             0.32559            -2.73050            -9.64742             0.00199             0.00232             0.00003
           681.00000             0.31656            -2.69849           -10.52927             0.00224             0.00220            -0.00000
           682.00000             0.33151            -2.67147           -11.38116             0.00250             0.00218            -0.00002
           683.00000             0.36327            -2.64368           -12.19092             0.00275             0.00199            -0.00001
           684.00000             0.39320            -2.61793           -12.94648             0.00296             0.00190            -0.00000
           685.00000             0.38226            -2.59882           -13.65591             0.00315             0.00176            -0.00003
           686.00000             0.39164            -2.57870           -14.34592             0.00335             0.00181            -0.00004
           687.00000            -0.43690            -2.81431            -8.35215            -0.00008             0.00146            -0.00002
           688.00000            -0.44069            -2.80294            -8.91107             0.00004             0.00141            -0.00002
           689.00000            -0.42266            -2.79279            -9.44656             0.00016             0.00133            -0.00002
           690.00000            -0.36405            -2.78342            -9.89503             0.00029             0.00097            -0.00002
           691.00000            -0.27551            -2.77696           -10.16199             0.00039             0.00040            -0.00002
           692.00000            -0.17368            -2.77904           -10.18703             0.00044            -0.00027            -0.00002
           693.00000            -0.07935            -2.79112            -9.95914             0.00040            -0.00090            -0.00002
           694.00000            -0.01927            -2.81107            -9.52822             0.00031            -0.00131            -0.00002
           695.00000            -0.00391            -2.83899            -8.99794             0.00018            -0.00139            -0.00003
           696.00000            -0.01493            -2.86713            -8.43200             0.00004            -0.00148            -0.00002
           697.00000            -0.01684            -2.89166            -7.86497            -0.00007            -0.00139            -0.00003
           698.00000             0.00531            -2.91786            -7.38674            -0.00016            -0.00103            -0.00003
           699.00000             0.06357            -2.93989            -7.11294            -0.00022            -0.00036            -0.00002
           700.00000             0.14449            -2.95105            -7.13884            -0.00024             0.00050             0.00000
           701.00000             0.22849            -2.95070            -7.50201            -0.00021             0.00136             0.00002
           702.00000             0.29396            -2.94422            -8.17377            -0.00016             0.00207             0.00002
           703.00000             0.31868            -2.93671            -9.05527            -0.00011             0.00242             0.00001
           704.00000             0.31679            -2.92838           -10.01606            -0.00006             0.00248             0.00001
           705.00000             0.29883            -2.91909           -10.95737            -0.00000             0.00234             0.00001
           706.00000             0.30651            -2.91223           -11.87209             0.00006             0.00236            -0.00000
           707.00000             0.34060            -2.90242           -12.74598             0.00014             0.00214            -0.00000
           708.00000             0.37437            -2.89639           -13.55427             0.00021             0.00203            -0.00001
           709.00000             0.35677            -2.89460           -14.30624             0.00025             0.00186            -0.00000
           710.00000             0.36320            -2.89090           -15.04138             0.00028             0.00194             0.00000
           711.00000            -0.44026            -2.98624            -8.02452            -0.00163             0.00148             0.00002
           712.00000            -0.44476            -2.98760            -8.59252            -0.00171             0.00143             0.00003
           713.00000            -0.42582            -2.98683            -9.13731            -0.00177             0.00135             0.00003
           714.00000            -0.37338            -2.98733            -9.60221            -0.00181             0.00102             0.00001
           715.00000            -0.28533            -2.98801            -9.89005            -0.00181             0.00045             0.00000
           716.00000            -0.17959            -2.99033            -9.92715            -0.00180            -0.00026            -0.00001
           717.00000            -0.08513            -2.99322            -9.70032            -0.00176            -0.00090            -0.00002
           718.00000            -0.02457            -2.99837            -9.26106            -0.00171            -0.00134            -0.00003
           719.00000            -0.00755            -3.01335            -8.70648            -0.00170            -0.00149            -0.00004
           720.00000            -0.01210            -3.02772            -8.11565            -0.00169            -0.00150            -0.00002
           721.00000            -0.01766            -3.04002            -7.53409            -0.00166            -0.00144            -0.00003
           722.00000             0.00281            -3.06464            -7.03894            -0.00166            -0.00108            -0.00004
           723.00000             0.06390            -3.09064            -6.75034            -0.00167            -0.00039            -0.00003
           724.00000             0.14886            -3.10283            -6.76908            -0.00169             0.00049            -0.00000
           725.00000             0.23601            -3.09851            -7.13136            -0.00173             0.00137             0.00002
           726.00000             0.30061            -3.09315            -7.80011            -0.00179             0.00205             0.00001
           727.00000             0.32470            -3.09978            -8.66921            -0.00190             0.00238            -0.00000
           728.00000             0.32404            -3.11563            -9.61366            -0.00203             0.00244            -0.00000
           729.00000             0.30865            -3.13115           -10.54177            -0.00215             0.00231             0.00001
           730.00000             0.31521            -3.14449           -11.44326            -0.00228             0.00231             0.00002
           731.00000             0.34531            -3.15564           -12.31342            -0.00239             0.00216             0.00001
           732.00000             0.37258            -3.17255           -13.11382            -0.00250             0.00197            -0.00002
           733.00000             0.37407            -3.18966           -13.84425            -0.00264             0.00180             0.00003
           734.00000             0.38121            -3.20051           -14.55846            -0.00278             0.00188             0.00003
           735.00000            -0.41183            -3.13945            -7.13746            -0.00301             0.00133             0.00006
           736.00000            -0.40599            -3.14045            -7.65500            -0.00319             0.00132             0.00007
           737.00000            -0.38825            -3.14199            -8.15118            -0.00337             0.00122             0.00006
           738.00000            -0.34407            -3.15159            -8.57162            -0.00356             0.00093             0.00005
           739.00000            -0.26925            -3.16265            -8.83280            -0.00369             0.00041             0.00002
           740.00000            -0.18221            -3.16689            -8.86902            -0.00372            -0.00022             0.00000
           741.00000            -0.10426            -3.16215            -8.66985            -0.00361            -0.00080            -0.00002
           742.00000            -0.04971            -3.15436            -8.27366            -0.00344            -0.00123            -0.00004
           743.00000            -0.02826            -3.15243            -7.75468            -0.00326            -0.00142            -0.00004
           744.00000            -0.02708            -3.15409            -7.19527            -0.00311            -0.00142            -0.00004
           745.00000            -0.03058            -3.16107            -6.64123            -0.00300            -0.00139            -0.00005
           746.00000            -0.00737            -3.18587            -6.15968            -0.00293            -0.00106            -0.00006
           747.00000             0.05911            -3.21758            -5.87510            -0.00290            -0.00039            -0.00004
           748.00000             0.14702            -3.23088            -5.88558            -0.00292             0.00044            -0.00001
           749.00000             0.23815            -3.22192            -6.22400            -0.00302             0.00129             0.00001
           750.00000             0.30504            -3.21577            -6.85044            -0.00317             0.00192             0.00000
           751.00000             0.33566            -3.22994            -7.65851            -0.00338             0.00221            -0.00002
           752.00000             0.34208            -3.26170            -8.53025            -0.00362             0.00224            -0.00002
           753.00000             0.33795            -3.29303            -9.38558            -0.00388             0.00214             0.00001
           754.00000             0.35329            -3.32323           -10.20755            -0.00416             0.00209             0.00002
           755.00000             0.38083            -3.35983           -10.99919            -0.00448             0.00200             0.00002
           756.00000             0.39495            -3.39417           -11.72011            -0.00476             0.00172             0.00002
           757.00000             0.42394            -3.42508           -12.37480            -0.00502             0.00166             0.00004
           758.00000             0.43661            -3.45380           -13.01119            -0.00530             0.00164             0.00005
           759.00000            -0.35519            -3.25475            -5.78470            -0.00406             0.00117             0.00010
           760.00000            -0.34554            -3.24213            -6.23196            -0.00425             0.00113             0.00010
           761.00000            -0.32415            -3.24023            -6.64870            -0.00448             0.00100             0.00009
           762.00000            -0.28510            -3.25195            -6.98209            -0.00474             0.00071             0.00007
           763.00000            -0.23433            -3.26682            -7.17649            -0.00495             0.00029             0.00004
           764.00000            -0.18099            -3.27180            -7.19980            -0.00499            -0.00017             0.00000
           765.00000            -0.13210            -3.26277            -7.04700            -0.00485            -0.00062            -0.00003
           766.00000            -0.09362            -3.24532            -6.73567            -0.00459            -0.00099            -0.00004
           767.00000            -0.06970            -3.23061            -6.30618            -0.00430            -0.00121            -0.00005
           768.00000            -0.05987            -3.22948            -5.81683            -0.00408            -0.00127            -0.00005
           769.00000            -0.05581            -3.23512            -5.31593            -0.00392            -0.00127            -0.00006
           770.00000            -0.02298            -3.25921            -4.87720            -0.00376            -0.00097            -0.00007
           771.00000             0.04842            -3.29466            -4.61631            -0.00367            -0.00036            -0.00006
           772.00000             0.13807            -3.30952            -4.61801            -0.00369             0.00037            -0.00001
           773.00000             0.23123            -3.29990            -4.90840            -0.00386             0.00111            -0.00000
           774.00000             0.30456            -3.29453            -5.45471            -0.00412             0.00168            -0.00002
           775.00000             0.34610            -3.31385            -6.16567            -0.00443             0.00195            -0.00003
           776.00000             0.36515            -3.35493            -6.92848            -0.00476             0.00194            -0.00002
           777.00000             0.38352            -3.39915            -7.66538            -0.00513             0.00182             0.00001
           778.00000             0.41092            -3.44330            -8.35605            -0.00554             0.00171             0.00001
           779.00000             0.43936            -3.49632            -9.00084            -0.00598             0.00158             0.00001
           780.00000             0.46142            -3.54233            -9.58912            -0.00638             0.00143             0.00004
           781.00000             0.48473            -3.58215           -10.13198            -0.00672             0.00136             0.00003
           782.00000             0.50884            -3.62665           -10.64853            -0.00707             0.00130             0.00004
           783.00000            -0.28643            -3.30717            -4.12530            -0.00460             0.00098             0.00013
           784.00000            -0.27189            -3.28285            -4.50045            -0.00479             0.00090             0.00012
           785.00000            -0.24818            -3.27694            -4.82823            -0.00502             0.00072             0.00009
           786.00000            -0.21860            -3.28260            -5.06430            -0.00526             0.00044             0.00007
           787.00000            -0.19464            -3.28974            -5.18638            -0.00543             0.00015             0.00004
           788.00000            -0.18045            -3.29072            -5.19486            -0.00546            -0.00011             0.00001
           789.00000            -0.16560            -3.28284            -5.09400            -0.00533            -0.00038            -0.00002
           790.00000            -0.14317            -3.26957            -4.88230            -0.00508            -0.00066            -0.00004
           791.00000            -0.11856            -3.25587            -4.56347            -0.00480            -0.00092            -0.00005
           792.00000            -0.09983            -3.25006            -4.16491            -0.00453            -0.00106            -0.00004
           793.00000            -0.08296            -3.25366            -3.74369            -0.00428            -0.00106            -0.00004
           794.00000            -0.04116            -3.27863            -3.38267            -0.00403            -0.00079            -0.00005
           795.00000             0.02814            -3.31029            -3.16885            -0.00387            -0.00031            -0.00005
           796.00000             0.12116            -3.32710            -3.16291            -0.00389             0.00029            -0.00005
           797.00000             0.20589            -3.32560            -3.38178            -0.00411             0.00085            -0.00005
           798.00000             0.28260            -3.32384            -3.80497            -0.00449             0.00133            -0.00006
           799.00000             0.33964            -3.34653            -4.37333            -0.00493             0.00157            -0.00008
           800.00000             0.38303            -3.39661            -4.98255            -0.00541             0.00153            -0.00007
           801.00000             0.42172            -3.45417            -5.55395            -0.00591             0.00138            -0.00005
           802.00000             0.45487            -3.51033            -6.07125            -0.00641             0.00124            -0.00005
           803.00000             0.48476            -3.56511            -6.53982            -0.00688             0.00112            -0.00004
           804.00000             0.51096            -3.61440            -6.96988            -0.00731             0.00104            -0.00003
           805.00000             0.53521            -3.65997            -7.37495            -0.00769             0.00099            -0.00003
           806.00000             0.56131            -3.70631            -7.76248            -0.00802             0.00094            -0.00002
           807.00000            -0.07878            -2.12031             0.12557             0.00253            -0.00000            -0.00009
           808.00000            -0.11464            -2.23486            -1.12124             0.00366             0.00012            -0.00013
           809.00000             0.15571            -1.75743             0.11881             0.00364             0.00007             0.00028
           810.00000             0.33496            -2.06425            -1.98415             0.00662             0.00041             0.00031
           811.00000            -0.07766            -2.16561             0.12753             0.00256            -0.00000            -0.00007
           812.00000            -0.07227            -2.19593             0.12405             0.00257             0.00001            -0.00005
           813.00000            -0.06377            -2.21898             0.11450             0.00257             0.00002            -0.00002
           814.00000            -0.05500            -2.22997             0.10250             0.00254             0.00002            -0.00002
           815.00000            -0.04459            -2.24250             0.09556             0.00252             0.00001            -0.00004
           816.00000            -0.03170            -2.25969             0.09197             0.00249             0.00000            -0.00006
           817.00000            -0.01760            -2.28237             0.08951             0.00246             0.00000            -0.00008
           818.00000            -0.00410            -2.31097             0.08802             0.00242             0.00000            -0.00011
           819.00000             0.00674            -2.34575             0.08948             0.00239            -0.00001            -0.00013
           820.00000             0.01215            -2.38384             0.09697             0.00237            -0.00002            -0.00012
           821.00000             0.01454            -2.41789             0.11119             0.00237            -0.00003            -0.00009
           822.00000             0.01677            -2.43883             0.12507             0.00238            -0.00002            -0.00004
           823.00000             0.01752            -2.43922             0.13264             0.00237            -0.00001             0.00001
           824.00000             0.01541            -2.43416             0.13926             0.00241            -0.00001             0.00005
           825.00000             0.01576            -2.41524             0.14449             0.00245            -0.00000             0.00010
           826.00000             0.01557            -2.37933             0.14583             0.00251             0.00000             0.00015
           827.00000             0.01884            -2.33107             0.14331             0.00261             0.00001             0.00021
           828.00000             0.02489            -2.25782             0.13930             0.00269            -0.00000             0.00026
           829.00000             0.03650            -2.17753             0.14273             0.00280            -0.00002             0.00027
           830.00000             0.05725            -2.10028             0.15218             0.00294            -0.00003             0.00026
           831.00000             0.08371            -2.02944             0.16240             0.00308            -0.00002             0.00023
           832.00000             0.11144            -1.96619             0.16926             0.00323            -0.00001             0.00021
           833.00000             0.13608            -1.90748             0.16804             0.00338             0.00003             0.00020
           834.00000             0.15413            -1.84221             0.14967             0.00351             0.00008             0.00026
           835.00000            -0.10860            -2.29719            -1.16962             0.00384             0.00013            -0.00010
           836.00000            -0.10103            -2.33788            -1.21240             0.00401             0.00011            -0.00008
           837.00000            -0.09441            -2.36626            -1.24787             0.00412             0.00008            -0.00007
           838.00000            -0.08654            -2.38646            -1.27101             0.00419             0.00004            -0.00007
           839.00000            -0.07894            -2.40302            -1.27830             0.00421             0.00000            -0.00007
           840.00000            -0.07090            -2.42021            -1.27216             0.00419            -0.00003            -0.00008
           841.00000            -0.06149            -2.43959            -1.25533             0.00413            -0.00006            -0.00009
           842.00000            -0.05038            -2.46135            -1.22915             0.00403            -0.00008            -0.00009
           843.00000            -0.03698            -2.48522            -1.19332             0.00390            -0.00011            -0.00009
           844.00000            -0.02089            -2.50969            -1.14825             0.00374            -0.00013            -0.00007
           845.00000            -0.00386            -2.52917            -1.09703             0.00357            -0.00013            -0.00005
           846.00000             0.01085            -2.53690            -1.05048             0.00342            -0.00010            -0.00001
           847.00000             0.02809            -2.53618            -1.02401             0.00334            -0.00003             0.00002
           848.00000             0.04677            -2.53016            -1.02767             0.00336             0.00005             0.00005
           849.00000             0.06182            -2.52021            -1.05917             0.00349             0.00011             0.00009
           850.00000             0.08786            -2.49911            -1.11625             0.00372             0.00019             0.00014
           851.00000             0.11968            -2.46156            -1.19715             0.00400             0.00024             0.00019
           852.00000             0.15276            -2.41141            -1.28699             0.00432             0.00025             0.00023
           853.00000             0.18324            -2.35495            -1.37593             0.00465             0.00024             0.00026
           854.00000             0.21205            -2.29935            -1.46277             0.00499             0.00024             0.00027
           855.00000             0.23948            -2.24809            -1.54826             0.00531             0.00024             0.00027
           856.00000             0.26533            -2.20242            -1.63549             0.00563             0.00024             0.00026
           857.00000             0.29028            -2.16054            -1.73024             0.00594             0.00027             0.00027
           858.00000             0.31411            -2.11915            -1.84245             0.00626             0.00033             0.00028
