/COM,ANSYS RELEASE 2022 R1           BUILD 22.1      UP20211129       11:19:59

 *** WARNING ***                         CP =       0.203   TIME= 11:20:01
 Discontinuous area set for VA command.  Line 1 is used 1 times for      
 this list of areas.                                                     

 *** WARNING ***                         CP =       0.203   TIME= 11:20:01
 Discontinuous area set for VA command.  Line 9 is used 1 times for      
 this list of areas.                                                     

 *** WARNING ***                         CP =       0.234   TIME= 11:20:01
 Discontinuous area set for VA command.  Line 14 is used 1 times for     
 this list of areas.                                                     

 *** WARNING ***                         CP =       0.797   TIME= 11:20:02
 The MINREF field of the CNVTOL command has been assigned a default      
 value of 1.0 for convergence on F.  Check results carefully.            

 *** WARNING ***                         CP =       0.828   TIME= 11:20:02
 The Distributed ANSYS solution does not currently support MPC184        
 elements with the direct elimination method (KEYOPT(2) = 0).            
 Distributed parallel processing will be deactivated for this solution.  

 *** WARNING ***                         CP =       0.844   TIME= 11:20:02
 MPC184 elements are being used in the current analysis and the          
 NLGEOM,ON command has not been used.  Thus, only linearized behavior    
 will be considered.  If finite rotation and large deflection effects    
 are to be considered, please use the NLGEOM,ON command.                 

 *** WARNING ***                         CP =       0.844   TIME= 11:20:02
 ANSYS,INC.-supplied version of coding for USERCK has been used.         

 *** WARNING ***                         CP =       0.844   TIME= 11:20:02
 ANSYS,INC.-supplied version of coding for USERCK has been used.         

 *** WARNING ***                         CP =       0.844   TIME= 11:20:02
 ANSYS,INC.-supplied version of coding for USERCK has been used.         

 *** WARNING ***                         CP =       0.844   TIME= 11:20:02
 ANSYS,INC.-supplied version of coding for USERCK has been used.         

 *** WARNING ***                         CP =     110.078   TIME= 11:20:59
 The MINREF field of the CNVTOL command has been assigned a default      
 value of 1.0 for convergence on F.  Check results carefully.            

 *** WARNING ***                         CP =     248.297   TIME= 11:22:30
 Parameter ITER_SMALLER already exists.  It is deleted and redefined by  
 the *DIM command.                                                       

 *** WARNING ***                         CP =     248.297   TIME= 11:22:30
 Parameter COUNTER already exists.  It is deleted and redefined by the   
 *DIM command.                                                           

 *** WARNING ***                         CP =     249.172   TIME= 11:22:31
 The MINREF field of the CNVTOL command has been assigned a default      
 value of 1.0 for convergence on F.  Check results carefully.            

 *** WARNING ***                         CP =     249.203   TIME= 11:22:31
 The Distributed ANSYS solution does not currently support MPC184        
 elements with the direct elimination method (KEYOPT(2) = 0).            
 Distributed parallel processing will be deactivated for this solution.  

 *** WARNING ***                         CP =     322.531   TIME= 11:23:32
 The MINREF field of the CNVTOL command has been assigned a default      
 value of 1.0 for convergence on F.  Check results carefully.            

 *** WARNING ***                         CP =     322.562   TIME= 11:23:32
 The Distributed ANSYS solution does not currently support MPC184        
 elements with the direct elimination method (KEYOPT(2) = 0).            
 Distributed parallel processing will be deactivated for this solution.  

 *** WARNING ***                         CP =     395.578   TIME= 11:24:32
 The MINREF field of the CNVTOL command has been assigned a default      
 value of 1.0 for convergence on F.  Check results carefully.            

 *** WARNING ***                         CP =     395.594   TIME= 11:24:32
 The Distributed ANSYS solution does not currently support MPC184        
 elements with the direct elimination method (KEYOPT(2) = 0).            
 Distributed parallel processing will be deactivated for this solution.  

 *** WARNING ***                         CP =     468.125   TIME= 11:25:33
 The MINREF field of the CNVTOL command has been assigned a default      
 value of 1.0 for convergence on F.  Check results carefully.            

 *** WARNING ***                         CP =     468.125   TIME= 11:25:33
 The Distributed ANSYS solution does not currently support MPC184        
 elements with the direct elimination method (KEYOPT(2) = 0).            
 Distributed parallel processing will be deactivated for this solution.  

 *** WARNING ***                         CP =     541.031   TIME= 11:26:33
 The MINREF field of the CNVTOL command has been assigned a default      
 value of 1.0 for convergence on F.  Check results carefully.            

 *** WARNING ***                         CP =     541.047   TIME= 11:26:33
 The Distributed ANSYS solution does not currently support MPC184        
 elements with the direct elimination method (KEYOPT(2) = 0).            
 Distributed parallel processing will be deactivated for this solution.  

 *** WARNING ***                         CP =     611.812   TIME= 11:27:32
 The MINREF field of the CNVTOL command has been assigned a default      
 value of 1.0 for convergence on F.  Check results carefully.            

 *** WARNING ***                         CP =     611.812   TIME= 11:27:32
 The Distributed ANSYS solution does not currently support MPC184        
 elements with the direct elimination method (KEYOPT(2) = 0).            
 Distributed parallel processing will be deactivated for this solution.  

 *** WARNING ***                         CP =     685.422   TIME= 11:28:33
 The MINREF field of the CNVTOL command has been assigned a default      
 value of 1.0 for convergence on F.  Check results carefully.            

 *** WARNING ***                         CP =     685.422   TIME= 11:28:33
 The Distributed ANSYS solution does not currently support MPC184        
 elements with the direct elimination method (KEYOPT(2) = 0).            
 Distributed parallel processing will be deactivated for this solution.  

 *** WARNING ***                         CP =     767.453   TIME= 11:29:43
 Parameter ELE_LB already exists.  It is deleted and redefined by the    
 *DIM command.                                                           

 *** WARNING ***                         CP =     767.578   TIME= 11:29:43
 Parameter VRD already exists.  It is deleted and redefined by the *DIM  
 command.                                                                

 *** WARNING ***                         CP =     767.578   TIME= 11:29:43
 Parameter VNW already exists.  It is deleted and redefined by the *DIM  
 command.                                                                
