            81.99405           715.47003           140.00000
            81.99405           484.52994           140.00000
           306.00595           715.47003           140.00000
           306.00595           484.52994           140.00000
            81.99405            84.52995           140.00000
            81.99405           315.47006           140.00000
           306.00595            84.52995           140.00000
           306.00595           315.47006           140.00000
           469.99405           715.47003           140.00000
           694.00598           715.47003           140.00000
           469.99405           484.52994           140.00000
           694.00598           484.52994           140.00000
           469.99405            84.52995           140.00000
           694.00598            84.52995           140.00000
           469.99405           315.47006           140.00000
           694.00598           315.47006           140.00000
           857.99402           715.47003           140.00000
          1082.00598           715.47003           140.00000
           857.99402           484.52994           140.00000
          1082.00598           484.52994           140.00000
           857.99402            84.52995           140.00000
          1082.00598            84.52995           140.00000
           857.99402           315.47006           140.00000
          1082.00598           315.47006           140.00000
          1245.99402           715.47003           140.00000
          1470.00598           715.47003           140.00000
          1245.99402           484.52994           140.00000
          1470.00598           484.52994           140.00000
          1245.99402            84.52995           140.00000
          1470.00598            84.52995           140.00000
          1245.99402           315.47006           140.00000
          1470.00598           315.47006           140.00000
          1633.99402           715.47003           140.00000
          1858.00598           715.47003           140.00000
          1633.99402           484.52994           140.00000
          1858.00598           484.52994           140.00000
          1633.99402            84.52995           140.00000
          1858.00598            84.52995           140.00000
          1633.99402           315.47006           140.00000
          1858.00598           315.47006           140.00000
          2021.99402           715.47003           140.00000
          2246.00586           715.47003           140.00000
          2021.99402           484.52994           140.00000
          2246.00586           484.52994           140.00000
          2021.99402            84.52995           140.00000
          2246.00586            84.52995           140.00000
          2021.99402           315.47006           140.00000
          2246.00586           315.47006           140.00000
          2409.99414           715.47003           140.00000
          2634.00586           715.47003           140.00000
          2409.99414           484.52994           140.00000
          2634.00586           484.52994           140.00000
          2409.99414            84.52995           140.00000
          2634.00586            84.52995           140.00000
          2409.99414           315.47006           140.00000
          2634.00586           315.47006           140.00000
          2797.99414           715.47003           140.00000
          3022.00586           715.47003           140.00000
          2797.99414           484.52994           140.00000
          3022.00586           484.52994           140.00000
          2797.99414            84.52995           140.00000
          3022.00586            84.52995           140.00000
          2797.99414           315.47006           140.00000
          3022.00586           315.47006           140.00000
          3185.99414           715.47003           140.00000
          3410.00586           715.47003           140.00000
          3185.99414           484.52994           140.00000
          3410.00586           484.52994           140.00000
          3185.99414            84.52995           140.00000
          3410.00586            84.52995           140.00000
          3185.99414           315.47006           140.00000
          3410.00586           315.47006           140.00000
          3573.99414           715.47003           140.00000
          3798.00586           715.47003           140.00000
          3573.99414           484.52994           140.00000
          3798.00586           484.52994           140.00000
          3573.99414            84.52995           140.00000
          3798.00586            84.52995           140.00000
          3573.99414           315.47006           140.00000
          3798.00586           315.47006           140.00000
          3961.99414           715.47003           140.00000
          4186.00586           715.47003           140.00000
          3961.99414           484.52994           140.00000
          4186.00586           484.52994           140.00000
          3961.99414            84.52995           140.00000
          4186.00586            84.52995           140.00000
          3961.99414           315.47006           140.00000
          4186.00586           315.47006           140.00000
          4349.99414           715.47003           140.00000
          4574.00586           715.47003           140.00000
          4349.99414           484.52994           140.00000
          4574.00586           484.52994           140.00000
          4349.99414            84.52995           140.00000
          4574.00586            84.52995           140.00000
          4349.99414           315.47006           140.00000
          4574.00586           315.47006           140.00000
          4737.99414           715.47003           140.00000
          4962.00586           715.47003           140.00000
          4737.99414           484.52994           140.00000
          4962.00586           484.52994           140.00000
          4737.99414            84.52995           140.00000
          4962.00586            84.52995           140.00000
          4737.99414           315.47006           140.00000
          4962.00586           315.47006           140.00000
          5125.99414           715.47003           140.00000
          5350.00586           715.47003           140.00000
          5125.99414           484.52994           140.00000
          5350.00586           484.52994           140.00000
          5125.99414            84.52995           140.00000
          5350.00586            84.52995           140.00000
          5125.99414           315.47006           140.00000
          5350.00586           315.47006           140.00000
          5513.99414           715.47003           140.00000
          5738.00586           715.47003           140.00000
          5513.99414           484.52994           140.00000
          5738.00586           484.52994           140.00000
          5513.99414            84.52995           140.00000
          5738.00586            84.52995           140.00000
          5513.99414           315.47006           140.00000
          5738.00586           315.47006           140.00000
          5901.99414           715.47003           140.00000
          6126.00586           715.47003           140.00000
          5901.99414           484.52994           140.00000
          6126.00586           484.52994           140.00000
          5901.99414            84.52995           140.00000
          6126.00586            84.52995           140.00000
          5901.99414           315.47006           140.00000
          6126.00586           315.47006           140.00000
          6289.99414           715.47003           140.00000
          6514.00586           715.47003           140.00000
          6289.99414           484.52994           140.00000
          6514.00586           484.52994           140.00000
          6289.99414            84.52995           140.00000
          6514.00586            84.52995           140.00000
          6289.99414           315.47006           140.00000
          6514.00586           315.47006           140.00000
          6677.99414           715.47003           140.00000
          6902.00586           715.47003           140.00000
          6677.99414           484.52994           140.00000
          6902.00586           484.52994           140.00000
          6677.99414            84.52995           140.00000
          6902.00586            84.52995           140.00000
          6677.99414           315.47006           140.00000
          6902.00586           315.47006           140.00000
          7065.99414           715.47003           140.00000
          7290.00586           715.47003           140.00000
          7065.99414           484.52994           140.00000
          7290.00586           484.52994           140.00000
          7065.99414            84.52995           140.00000
          7290.00586            84.52995           140.00000
          7065.99414           315.47006           140.00000
          7290.00586           315.47006           140.00000
          7453.99414           715.47003           140.00000
          7678.00586           715.47003           140.00000
          7453.99414           484.52994           140.00000
          7678.00586           484.52994           140.00000
          7453.99414            84.52995           140.00000
          7678.00586            84.52995           140.00000
          7453.99414           315.47006           140.00000
          7678.00586           315.47006           140.00000
          7841.99414           715.47003           140.00000
          8066.00586           715.47003           140.00000
          7841.99414           484.52994           140.00000
          8066.00586           484.52994           140.00000
          7841.99414            84.52995           140.00000
          8066.00586            84.52995           140.00000
          7841.99414           315.47006           140.00000
          8066.00586           315.47006           140.00000
          8229.99414           715.47003           140.00000
          8454.00586           715.47003           140.00000
          8229.99414           484.52994           140.00000
          8454.00586           484.52994           140.00000
          8229.99414            84.52995           140.00000
          8454.00586            84.52995           140.00000
          8229.99414           315.47006           140.00000
          8454.00586           315.47006           140.00000
          8617.99414           715.47003           140.00000
          8842.00586           715.47003           140.00000
          8617.99414           484.52994           140.00000
          8842.00586           484.52994           140.00000
          8617.99414            84.52995           140.00000
          8842.00586            84.52995           140.00000
          8617.99414           315.47006           140.00000
          8842.00586           315.47006           140.00000
          9005.99414           715.47003           140.00000
          9230.00586           715.47003           140.00000
          9005.99414           484.52994           140.00000
          9230.00586           484.52994           140.00000
          9005.99414            84.52995           140.00000
          9230.00586            84.52995           140.00000
          9005.99414           315.47006           140.00000
          9230.00586           315.47006           140.00000
          9618.00586           715.47003           140.00000
          9618.00586           484.52994           140.00000
          9393.99414           715.47003           140.00000
          9393.99414           484.52994           140.00000
          9618.00586            84.52995           140.00000
          9393.99414            84.52995           140.00000
          9618.00586           315.47006           140.00000
          9393.99414           315.47006           140.00000
            81.99405          4519.69678           150.00000
            81.99405          4300.30322           150.00000
           306.00595          4519.69678           150.00000
           306.00595          4300.30322           150.00000
            81.99405          4139.69678           150.00000
            81.99405          3920.30347           150.00000
           306.00595          4139.69678           150.00000
           306.00595          3920.30347           150.00000
            81.99405          3759.69653           150.00000
            81.99405          3540.30347           150.00000
           306.00595          3759.69653           150.00000
           306.00595          3540.30347           150.00000
            81.99405          3379.69653           150.00000
            81.99405          3160.30347           150.00000
           306.00595          3379.69653           150.00000
           306.00595          3160.30347           150.00000
            81.99405          2999.69653           150.00000
            81.99405          2780.30347           150.00000
           306.00595          2999.69653           150.00000
           306.00595          2780.30347           150.00000
            81.99405          2619.69653           150.00000
            81.99405          2400.30347           150.00000
           306.00595          2619.69653           150.00000
           306.00595          2400.30347           150.00000
            81.99405          2239.69653           150.00000
            81.99405          2020.30347           150.00000
           306.00595          2239.69653           150.00000
           306.00595          2020.30347           150.00000
            81.99405          1859.69653           150.00000
            81.99405          1640.30347           150.00000
           306.00595          1859.69653           150.00000
           306.00595          1640.30347           150.00000
            81.99405          1479.69653           150.00000
            81.99405          1260.30347           150.00000
           306.00595          1479.69653           150.00000
           306.00595          1260.30347           150.00000
            81.99405           880.30347           150.00000
           306.00595           880.30347           150.00000
            81.99405          1099.69653           150.00000
           306.00595          1099.69653           150.00000
           469.99405          4519.69678           150.00000
           694.00598          4519.69678           150.00000
           469.99405          4300.30322           150.00000
           694.00598          4300.30322           150.00000
           469.99405          4139.69678           150.00000
           694.00598          4139.69678           150.00000
           469.99405          3920.30347           150.00000
           694.00598          3920.30347           150.00000
           469.99405          3759.69653           150.00000
           694.00598          3759.69653           150.00000
           469.99405          3540.30347           150.00000
           694.00598          3540.30347           150.00000
           469.99405          3379.69653           150.00000
           694.00598          3379.69653           150.00000
           469.99405          3160.30347           150.00000
           694.00598          3160.30347           150.00000
           469.99405          2999.69653           150.00000
           694.00598          2999.69653           150.00000
           469.99405          2780.30347           150.00000
           694.00598          2780.30347           150.00000
           469.99405          2619.69653           150.00000
           694.00598          2619.69653           150.00000
           469.99405          2400.30347           150.00000
           694.00598          2400.30347           150.00000
           469.99405          2239.69653           150.00000
           694.00598          2239.69653           150.00000
           469.99405          2020.30347           150.00000
           694.00598          2020.30347           150.00000
           469.99405          1859.69653           150.00000
           694.00598          1859.69653           150.00000
           469.99405          1640.30347           150.00000
           694.00598          1640.30347           150.00000
           469.99405          1479.69653           150.00000
           694.00598          1479.69653           150.00000
           469.99405          1260.30347           150.00000
           694.00598          1260.30347           150.00000
           469.99405           880.30347           150.00000
           694.00598           880.30347           150.00000
           469.99405          1099.69653           150.00000
           694.00598          1099.69653           150.00000
           857.99402          4519.69678           150.00000
          1082.00598          4519.69678           150.00000
           857.99402          4300.30322           150.00000
          1082.00598          4300.30322           150.00000
           857.99402          4139.69678           150.00000
          1082.00598          4139.69678           150.00000
           857.99402          3920.30347           150.00000
          1082.00598          3920.30347           150.00000
           857.99402          3759.69653           150.00000
          1082.00598          3759.69653           150.00000
           857.99402          3540.30347           150.00000
          1082.00598          3540.30347           150.00000
           857.99402          3379.69653           150.00000
          1082.00598          3379.69653           150.00000
           857.99402          3160.30347           150.00000
          1082.00598          3160.30347           150.00000
           857.99402          2999.69653           150.00000
          1082.00598          2999.69653           150.00000
           857.99402          2780.30347           150.00000
          1082.00598          2780.30347           150.00000
           857.99402          2619.69653           150.00000
          1082.00598          2619.69653           150.00000
           857.99402          2400.30347           150.00000
          1082.00598          2400.30347           150.00000
           857.99402          2239.69653           150.00000
          1082.00598          2239.69653           150.00000
           857.99402          2020.30347           150.00000
          1082.00598          2020.30347           150.00000
           857.99402          1859.69653           150.00000
          1082.00598          1859.69653           150.00000
           857.99402          1640.30347           150.00000
          1082.00598          1640.30347           150.00000
           857.99402          1479.69653           150.00000
          1082.00598          1479.69653           150.00000
           857.99402          1260.30347           150.00000
          1082.00598          1260.30347           150.00000
           857.99402           880.30347           150.00000
          1082.00598           880.30347           150.00000
           857.99402          1099.69653           150.00000
          1082.00598          1099.69653           150.00000
          1245.99402          4519.69678           150.00000
          1470.00598          4519.69678           150.00000
          1245.99402          4300.30322           150.00000
          1470.00598          4300.30322           150.00000
          1245.99402          4139.69678           150.00000
          1470.00598          4139.69678           150.00000
          1245.99402          3920.30347           150.00000
          1470.00598          3920.30347           150.00000
          1245.99402          3759.69653           150.00000
          1470.00598          3759.69653           150.00000
          1245.99402          3540.30347           150.00000
          1470.00598          3540.30347           150.00000
          1245.99402          3379.69653           150.00000
          1470.00598          3379.69653           150.00000
          1245.99402          3160.30347           150.00000
          1470.00598          3160.30347           150.00000
          1245.99402          2999.69653           150.00000
          1470.00598          2999.69653           150.00000
          1245.99402          2780.30347           150.00000
          1470.00598          2780.30347           150.00000
          1245.99402          2619.69653           150.00000
          1470.00598          2619.69653           150.00000
          1245.99402          2400.30347           150.00000
          1470.00598          2400.30347           150.00000
          1245.99402          2239.69653           150.00000
          1470.00598          2239.69653           150.00000
          1245.99402          2020.30347           150.00000
          1470.00598          2020.30347           150.00000
          1245.99402          1859.69653           150.00000
          1470.00598          1859.69653           150.00000
          1245.99402          1640.30347           150.00000
          1470.00598          1640.30347           150.00000
          1245.99402          1479.69653           150.00000
          1470.00598          1479.69653           150.00000
          1245.99402          1260.30347           150.00000
          1470.00598          1260.30347           150.00000
          1245.99402           880.30347           150.00000
          1470.00598           880.30347           150.00000
          1245.99402          1099.69653           150.00000
          1470.00598          1099.69653           150.00000
          1633.99402          4519.69678           150.00000
          1858.00598          4519.69678           150.00000
          1633.99402          4300.30322           150.00000
          1858.00598          4300.30322           150.00000
          1633.99402          4139.69678           150.00000
          1858.00598          4139.69678           150.00000
          1633.99402          3920.30347           150.00000
          1858.00598          3920.30347           150.00000
          1633.99402          3759.69653           150.00000
          1858.00598          3759.69653           150.00000
          1633.99402          3540.30347           150.00000
          1858.00598          3540.30347           150.00000
          1633.99402          3379.69653           150.00000
          1858.00598          3379.69653           150.00000
          1633.99402          3160.30347           150.00000
          1858.00598          3160.30347           150.00000
          1633.99402          2999.69653           150.00000
          1858.00598          2999.69653           150.00000
          1633.99402          2780.30347           150.00000
          1858.00598          2780.30347           150.00000
          1633.99402          2619.69653           150.00000
          1858.00598          2619.69653           150.00000
          1633.99402          2400.30347           150.00000
          1858.00598          2400.30347           150.00000
          1633.99402          2239.69653           150.00000
          1858.00598          2239.69653           150.00000
          1633.99402          2020.30347           150.00000
          1858.00598          2020.30347           150.00000
          1633.99402          1859.69653           150.00000
          1858.00598          1859.69653           150.00000
          1633.99402          1640.30347           150.00000
          1858.00598          1640.30347           150.00000
          1633.99402          1479.69653           150.00000
          1858.00598          1479.69653           150.00000
          1633.99402          1260.30347           150.00000
          1858.00598          1260.30347           150.00000
          1633.99402           880.30347           150.00000
          1858.00598           880.30347           150.00000
          1633.99402          1099.69653           150.00000
          1858.00598          1099.69653           150.00000
          2021.99402          4519.69678           150.00000
          2246.00586          4519.69678           150.00000
          2021.99402          4300.30322           150.00000
          2246.00586          4300.30322           150.00000
          2021.99402          4139.69678           150.00000
          2246.00586          4139.69678           150.00000
          2021.99402          3920.30347           150.00000
          2246.00586          3920.30347           150.00000
          2021.99402          3759.69653           150.00000
          2246.00586          3759.69653           150.00000
          2021.99402          3540.30347           150.00000
          2246.00586          3540.30347           150.00000
          2021.99402          3379.69653           150.00000
          2246.00586          3379.69653           150.00000
          2021.99402          3160.30347           150.00000
          2246.00586          3160.30347           150.00000
          2021.99402          2999.69653           150.00000
          2246.00586          2999.69653           150.00000
          2021.99402          2780.30347           150.00000
          2246.00586          2780.30347           150.00000
          2021.99402          2619.69653           150.00000
          2246.00586          2619.69653           150.00000
          2021.99402          2400.30347           150.00000
          2246.00586          2400.30347           150.00000
          2021.99402          2239.69653           150.00000
          2246.00586          2239.69653           150.00000
          2021.99402          2020.30347           150.00000
          2246.00586          2020.30347           150.00000
          2021.99402          1859.69653           150.00000
          2246.00586          1859.69653           150.00000
          2021.99402          1640.30347           150.00000
          2246.00586          1640.30347           150.00000
          2021.99402          1479.69653           150.00000
          2246.00586          1479.69653           150.00000
          2021.99402          1260.30347           150.00000
          2246.00586          1260.30347           150.00000
          2021.99402           880.30347           150.00000
          2246.00586           880.30347           150.00000
          2021.99402          1099.69653           150.00000
          2246.00586          1099.69653           150.00000
          2409.99414          4519.69678           150.00000
          2634.00586          4519.69678           150.00000
          2409.99414          4300.30322           150.00000
          2634.00586          4300.30322           150.00000
          2409.99414          4139.69678           150.00000
          2634.00586          4139.69678           150.00000
          2409.99414          3920.30347           150.00000
          2634.00586          3920.30347           150.00000
          2409.99414          3759.69653           150.00000
          2634.00586          3759.69653           150.00000
          2409.99414          3540.30347           150.00000
          2634.00586          3540.30347           150.00000
          2409.99414          3379.69653           150.00000
          2634.00586          3379.69653           150.00000
          2409.99414          3160.30347           150.00000
          2634.00586          3160.30347           150.00000
          2409.99414          2999.69653           150.00000
          2634.00586          2999.69653           150.00000
          2409.99414          2780.30347           150.00000
          2634.00586          2780.30347           150.00000
          2409.99414          2619.69653           150.00000
          2634.00586          2619.69653           150.00000
          2409.99414          2400.30347           150.00000
          2634.00586          2400.30347           150.00000
          2409.99414          2239.69653           150.00000
          2634.00586          2239.69653           150.00000
          2409.99414          2020.30347           150.00000
          2634.00586          2020.30347           150.00000
          2409.99414          1859.69653           150.00000
          2634.00586          1859.69653           150.00000
          2409.99414          1640.30347           150.00000
          2634.00586          1640.30347           150.00000
          2409.99414          1479.69653           150.00000
          2634.00586          1479.69653           150.00000
          2409.99414          1260.30347           150.00000
          2634.00586          1260.30347           150.00000
          2409.99414           880.30347           150.00000
          2634.00586           880.30347           150.00000
          2409.99414          1099.69653           150.00000
          2634.00586          1099.69653           150.00000
          2797.99414          4519.69678           150.00000
          3022.00586          4519.69678           150.00000
          2797.99414          4300.30322           150.00000
          3022.00586          4300.30322           150.00000
          2797.99414          4139.69678           150.00000
          3022.00586          4139.69678           150.00000
          2797.99414          3920.30347           150.00000
          3022.00586          3920.30347           150.00000
          2797.99414          3759.69653           150.00000
          3022.00586          3759.69653           150.00000
          2797.99414          3540.30347           150.00000
          3022.00586          3540.30347           150.00000
          2797.99414          3379.69653           150.00000
          3022.00586          3379.69653           150.00000
          2797.99414          3160.30347           150.00000
          3022.00586          3160.30347           150.00000
          2797.99414          2999.69653           150.00000
          3022.00586          2999.69653           150.00000
          2797.99414          2780.30347           150.00000
          3022.00586          2780.30347           150.00000
          2797.99414          2619.69653           150.00000
          3022.00586          2619.69653           150.00000
          2797.99414          2400.30347           150.00000
          3022.00586          2400.30347           150.00000
          2797.99414          2239.69653           150.00000
          3022.00586          2239.69653           150.00000
          2797.99414          2020.30347           150.00000
          3022.00586          2020.30347           150.00000
          2797.99414          1859.69653           150.00000
          3022.00586          1859.69653           150.00000
          2797.99414          1640.30347           150.00000
          3022.00586          1640.30347           150.00000
          2797.99414          1479.69653           150.00000
          3022.00586          1479.69653           150.00000
          2797.99414          1260.30347           150.00000
          3022.00586          1260.30347           150.00000
          2797.99414           880.30347           150.00000
          3022.00586           880.30347           150.00000
          2797.99414          1099.69653           150.00000
          3022.00586          1099.69653           150.00000
          3185.99414          4519.69678           150.00000
          3410.00586          4519.69678           150.00000
          3185.99414          4300.30322           150.00000
          3410.00586          4300.30322           150.00000
          3185.99414          4139.69678           150.00000
          3410.00586          4139.69678           150.00000
          3185.99414          3920.30347           150.00000
          3410.00586          3920.30347           150.00000
          3185.99414          3759.69653           150.00000
          3410.00586          3759.69653           150.00000
          3185.99414          3540.30347           150.00000
          3410.00586          3540.30347           150.00000
          3185.99414          3379.69653           150.00000
          3410.00586          3379.69653           150.00000
          3185.99414          3160.30347           150.00000
          3410.00586          3160.30347           150.00000
          3185.99414          2999.69653           150.00000
          3410.00586          2999.69653           150.00000
          3185.99414          2780.30347           150.00000
          3410.00586          2780.30347           150.00000
          3185.99414          2619.69653           150.00000
          3410.00586          2619.69653           150.00000
          3185.99414          2400.30347           150.00000
          3410.00586          2400.30347           150.00000
          3185.99414          2239.69653           150.00000
          3410.00586          2239.69653           150.00000
          3185.99414          2020.30347           150.00000
          3410.00586          2020.30347           150.00000
          3185.99414          1859.69653           150.00000
          3410.00586          1859.69653           150.00000
          3185.99414          1640.30347           150.00000
          3410.00586          1640.30347           150.00000
          3185.99414          1479.69653           150.00000
          3410.00586          1479.69653           150.00000
          3185.99414          1260.30347           150.00000
          3410.00586          1260.30347           150.00000
          3185.99414           880.30347           150.00000
          3410.00586           880.30347           150.00000
          3185.99414          1099.69653           150.00000
          3410.00586          1099.69653           150.00000
          3573.99414          4519.69678           150.00000
          3798.00586          4519.69678           150.00000
          3573.99414          4300.30322           150.00000
          3798.00586          4300.30322           150.00000
          3573.99414          4139.69678           150.00000
          3798.00586          4139.69678           150.00000
          3573.99414          3920.30347           150.00000
          3798.00586          3920.30347           150.00000
          3573.99414          3759.69653           150.00000
          3798.00586          3759.69653           150.00000
          3573.99414          3540.30347           150.00000
          3798.00586          3540.30347           150.00000
          3573.99414          3379.69653           150.00000
          3798.00586          3379.69653           150.00000
          3573.99414          3160.30347           150.00000
          3798.00586          3160.30347           150.00000
          3573.99414          2999.69653           150.00000
          3798.00586          2999.69653           150.00000
          3573.99414          2780.30347           150.00000
          3798.00586          2780.30347           150.00000
          3573.99414          2619.69653           150.00000
          3798.00586          2619.69653           150.00000
          3573.99414          2400.30347           150.00000
          3798.00586          2400.30347           150.00000
          3573.99414          2239.69653           150.00000
          3798.00586          2239.69653           150.00000
          3573.99414          2020.30347           150.00000
          3798.00586          2020.30347           150.00000
          3573.99414          1859.69653           150.00000
          3798.00586          1859.69653           150.00000
          3573.99414          1640.30347           150.00000
          3798.00586          1640.30347           150.00000
          3573.99414          1479.69653           150.00000
          3798.00586          1479.69653           150.00000
          3573.99414          1260.30347           150.00000
          3798.00586          1260.30347           150.00000
          3573.99414           880.30347           150.00000
          3798.00586           880.30347           150.00000
          3573.99414          1099.69653           150.00000
          3798.00586          1099.69653           150.00000
          3961.99414          4519.69678           150.00000
          4186.00586          4519.69678           150.00000
          3961.99414          4300.30322           150.00000
          4186.00586          4300.30322           150.00000
          3961.99414          4139.69678           150.00000
          4186.00586          4139.69678           150.00000
          3961.99414          3920.30347           150.00000
          4186.00586          3920.30347           150.00000
          3961.99414          3759.69653           150.00000
          4186.00586          3759.69653           150.00000
          3961.99414          3540.30347           150.00000
          4186.00586          3540.30347           150.00000
          3961.99414          3379.69653           150.00000
          4186.00586          3379.69653           150.00000
          3961.99414          3160.30347           150.00000
          4186.00586          3160.30347           150.00000
          3961.99414          2999.69653           150.00000
          4186.00586          2999.69653           150.00000
          3961.99414          2780.30347           150.00000
          4186.00586          2780.30347           150.00000
          3961.99414          2619.69653           150.00000
          4186.00586          2619.69653           150.00000
          3961.99414          2400.30347           150.00000
          4186.00586          2400.30347           150.00000
          3961.99414          2239.69653           150.00000
          4186.00586          2239.69653           150.00000
          3961.99414          2020.30347           150.00000
          4186.00586          2020.30347           150.00000
          3961.99414          1859.69653           150.00000
          4186.00586          1859.69653           150.00000
          3961.99414          1640.30347           150.00000
          4186.00586          1640.30347           150.00000
          3961.99414          1479.69653           150.00000
          4186.00586          1479.69653           150.00000
          3961.99414          1260.30347           150.00000
          4186.00586          1260.30347           150.00000
          3961.99414           880.30347           150.00000
          4186.00586           880.30347           150.00000
          3961.99414          1099.69653           150.00000
          4186.00586          1099.69653           150.00000
          4349.99414          4519.69678           150.00000
          4574.00586          4519.69678           150.00000
          4349.99414          4300.30322           150.00000
          4574.00586          4300.30322           150.00000
          4349.99414          4139.69678           150.00000
          4574.00586          4139.69678           150.00000
          4349.99414          3920.30347           150.00000
          4574.00586          3920.30347           150.00000
          4349.99414          3759.69653           150.00000
          4574.00586          3759.69653           150.00000
          4349.99414          3540.30347           150.00000
          4574.00586          3540.30347           150.00000
          4349.99414          3379.69653           150.00000
          4574.00586          3379.69653           150.00000
          4349.99414          3160.30347           150.00000
          4574.00586          3160.30347           150.00000
          4349.99414          2999.69653           150.00000
          4574.00586          2999.69653           150.00000
          4349.99414          2780.30347           150.00000
          4574.00586          2780.30347           150.00000
          4349.99414          2619.69653           150.00000
          4574.00586          2619.69653           150.00000
          4349.99414          2400.30347           150.00000
          4574.00586          2400.30347           150.00000
          4349.99414          2239.69653           150.00000
          4574.00586          2239.69653           150.00000
          4349.99414          2020.30347           150.00000
          4574.00586          2020.30347           150.00000
          4349.99414          1859.69653           150.00000
          4574.00586          1859.69653           150.00000
          4349.99414          1640.30347           150.00000
          4574.00586          1640.30347           150.00000
          4349.99414          1479.69653           150.00000
          4574.00586          1479.69653           150.00000
          4349.99414          1260.30347           150.00000
          4574.00586          1260.30347           150.00000
          4349.99414           880.30347           150.00000
          4574.00586           880.30347           150.00000
          4349.99414          1099.69653           150.00000
          4574.00586          1099.69653           150.00000
          4737.99414          4519.69678           150.00000
          4962.00586          4519.69678           150.00000
          4737.99414          4300.30322           150.00000
          4962.00586          4300.30322           150.00000
          4737.99414          4139.69678           150.00000
          4962.00586          4139.69678           150.00000
          4737.99414          3920.30347           150.00000
          4962.00586          3920.30347           150.00000
          4737.99414          3759.69653           150.00000
          4962.00586          3759.69653           150.00000
          4737.99414          3540.30347           150.00000
          4962.00586          3540.30347           150.00000
          4737.99414          3379.69653           150.00000
          4962.00586          3379.69653           150.00000
          4737.99414          3160.30347           150.00000
          4962.00586          3160.30347           150.00000
          4737.99414          2999.69653           150.00000
          4962.00586          2999.69653           150.00000
          4737.99414          2780.30347           150.00000
          4962.00586          2780.30347           150.00000
          4737.99414          2619.69653           150.00000
          4962.00586          2619.69653           150.00000
          4737.99414          2400.30347           150.00000
          4962.00586          2400.30347           150.00000
          4737.99414          2239.69653           150.00000
          4962.00586          2239.69653           150.00000
          4737.99414          2020.30347           150.00000
          4962.00586          2020.30347           150.00000
          4737.99414          1859.69653           150.00000
          4962.00586          1859.69653           150.00000
          4737.99414          1640.30347           150.00000
          4962.00586          1640.30347           150.00000
          4737.99414          1479.69653           150.00000
          4962.00586          1479.69653           150.00000
          4737.99414          1260.30347           150.00000
          4962.00586          1260.30347           150.00000
          4737.99414           880.30347           150.00000
          4962.00586           880.30347           150.00000
          4737.99414          1099.69653           150.00000
          4962.00586          1099.69653           150.00000
          5125.99414          4519.69678           150.00000
          5350.00586          4519.69678           150.00000
          5125.99414          4300.30322           150.00000
          5350.00586          4300.30322           150.00000
          5125.99414          4139.69678           150.00000
          5350.00586          4139.69678           150.00000
          5125.99414          3920.30347           150.00000
          5350.00586          3920.30347           150.00000
          5125.99414          3759.69653           150.00000
          5350.00586          3759.69653           150.00000
          5125.99414          3540.30347           150.00000
          5350.00586          3540.30347           150.00000
          5125.99414          3379.69653           150.00000
          5350.00586          3379.69653           150.00000
          5125.99414          3160.30347           150.00000
          5350.00586          3160.30347           150.00000
          5125.99414          2999.69653           150.00000
          5350.00586          2999.69653           150.00000
          5125.99414          2780.30347           150.00000
          5350.00586          2780.30347           150.00000
          5125.99414          2619.69653           150.00000
          5350.00586          2619.69653           150.00000
          5125.99414          2400.30347           150.00000
          5350.00586          2400.30347           150.00000
          5125.99414          2239.69653           150.00000
          5350.00586          2239.69653           150.00000
          5125.99414          2020.30347           150.00000
          5350.00586          2020.30347           150.00000
          5125.99414          1859.69653           150.00000
          5350.00586          1859.69653           150.00000
          5125.99414          1640.30347           150.00000
          5350.00586          1640.30347           150.00000
          5125.99414          1479.69653           150.00000
          5350.00586          1479.69653           150.00000
          5125.99414          1260.30347           150.00000
          5350.00586          1260.30347           150.00000
          5125.99414           880.30347           150.00000
          5350.00586           880.30347           150.00000
          5125.99414          1099.69653           150.00000
          5350.00586          1099.69653           150.00000
          5513.99414          4519.69678           150.00000
          5738.00586          4519.69678           150.00000
          5513.99414          4300.30322           150.00000
          5738.00586          4300.30322           150.00000
          5513.99414          4139.69678           150.00000
          5738.00586          4139.69678           150.00000
          5513.99414          3920.30347           150.00000
          5738.00586          3920.30347           150.00000
          5513.99414          3759.69653           150.00000
          5738.00586          3759.69653           150.00000
          5513.99414          3540.30347           150.00000
          5738.00586          3540.30347           150.00000
          5513.99414          3379.69653           150.00000
          5738.00586          3379.69653           150.00000
          5513.99414          3160.30347           150.00000
          5738.00586          3160.30347           150.00000
          5513.99414          2999.69653           150.00000
          5738.00586          2999.69653           150.00000
          5513.99414          2780.30347           150.00000
          5738.00586          2780.30347           150.00000
          5513.99414          2619.69653           150.00000
          5738.00586          2619.69653           150.00000
          5513.99414          2400.30347           150.00000
          5738.00586          2400.30347           150.00000
          5513.99414          2239.69653           150.00000
          5738.00586          2239.69653           150.00000
          5513.99414          2020.30347           150.00000
          5738.00586          2020.30347           150.00000
          5513.99414          1859.69653           150.00000
          5738.00586          1859.69653           150.00000
          5513.99414          1640.30347           150.00000
          5738.00586          1640.30347           150.00000
          5513.99414          1479.69653           150.00000
          5738.00586          1479.69653           150.00000
          5513.99414          1260.30347           150.00000
          5738.00586          1260.30347           150.00000
          5513.99414           880.30347           150.00000
          5738.00586           880.30347           150.00000
          5513.99414          1099.69653           150.00000
          5738.00586          1099.69653           150.00000
          5901.99414          4519.69678           150.00000
          6126.00586          4519.69678           150.00000
          5901.99414          4300.30322           150.00000
          6126.00586          4300.30322           150.00000
          5901.99414          4139.69678           150.00000
          6126.00586          4139.69678           150.00000
          5901.99414          3920.30347           150.00000
          6126.00586          3920.30347           150.00000
          5901.99414          3759.69653           150.00000
          6126.00586          3759.69653           150.00000
          5901.99414          3540.30347           150.00000
          6126.00586          3540.30347           150.00000
          5901.99414          3379.69653           150.00000
          6126.00586          3379.69653           150.00000
          5901.99414          3160.30347           150.00000
          6126.00586          3160.30347           150.00000
          5901.99414          2999.69653           150.00000
          6126.00586          2999.69653           150.00000
          5901.99414          2780.30347           150.00000
          6126.00586          2780.30347           150.00000
          5901.99414          2619.69653           150.00000
          6126.00586          2619.69653           150.00000
          5901.99414          2400.30347           150.00000
          6126.00586          2400.30347           150.00000
          5901.99414          2239.69653           150.00000
          6126.00586          2239.69653           150.00000
          5901.99414          2020.30347           150.00000
          6126.00586          2020.30347           150.00000
          5901.99414          1859.69653           150.00000
          6126.00586          1859.69653           150.00000
          5901.99414          1640.30347           150.00000
          6126.00586          1640.30347           150.00000
          5901.99414          1479.69653           150.00000
          6126.00586          1479.69653           150.00000
          5901.99414          1260.30347           150.00000
          6126.00586          1260.30347           150.00000
          5901.99414           880.30347           150.00000
          6126.00586           880.30347           150.00000
          5901.99414          1099.69653           150.00000
          6126.00586          1099.69653           150.00000
          6289.99414          4519.69678           150.00000
          6514.00586          4519.69678           150.00000
          6289.99414          4300.30322           150.00000
          6514.00586          4300.30322           150.00000
          6289.99414          4139.69678           150.00000
          6514.00586          4139.69678           150.00000
          6289.99414          3920.30347           150.00000
          6514.00586          3920.30347           150.00000
          6289.99414          3759.69653           150.00000
          6514.00586          3759.69653           150.00000
          6289.99414          3540.30347           150.00000
          6514.00586          3540.30347           150.00000
          6289.99414          3379.69653           150.00000
          6514.00586          3379.69653           150.00000
          6289.99414          3160.30347           150.00000
          6514.00586          3160.30347           150.00000
          6289.99414          2999.69653           150.00000
          6514.00586          2999.69653           150.00000
          6289.99414          2780.30347           150.00000
          6514.00586          2780.30347           150.00000
          6289.99414          2619.69653           150.00000
          6514.00586          2619.69653           150.00000
          6289.99414          2400.30347           150.00000
          6514.00586          2400.30347           150.00000
          6289.99414          2239.69653           150.00000
          6514.00586          2239.69653           150.00000
          6289.99414          2020.30347           150.00000
          6514.00586          2020.30347           150.00000
          6289.99414          1859.69653           150.00000
          6514.00586          1859.69653           150.00000
          6289.99414          1640.30347           150.00000
          6514.00586          1640.30347           150.00000
          6289.99414          1479.69653           150.00000
          6514.00586          1479.69653           150.00000
          6289.99414          1260.30347           150.00000
          6514.00586          1260.30347           150.00000
          6289.99414           880.30347           150.00000
          6514.00586           880.30347           150.00000
          6289.99414          1099.69653           150.00000
          6514.00586          1099.69653           150.00000
          6677.99414          4519.69678           150.00000
          6902.00586          4519.69678           150.00000
          6677.99414          4300.30322           150.00000
          6902.00586          4300.30322           150.00000
          6677.99414          4139.69678           150.00000
          6902.00586          4139.69678           150.00000
          6677.99414          3920.30347           150.00000
          6902.00586          3920.30347           150.00000
          6677.99414          3759.69653           150.00000
          6902.00586          3759.69653           150.00000
          6677.99414          3540.30347           150.00000
          6902.00586          3540.30347           150.00000
          6677.99414          3379.69653           150.00000
          6902.00586          3379.69653           150.00000
          6677.99414          3160.30347           150.00000
          6902.00586          3160.30347           150.00000
          6677.99414          2999.69653           150.00000
          6902.00586          2999.69653           150.00000
          6677.99414          2780.30347           150.00000
          6902.00586          2780.30347           150.00000
          6677.99414          2619.69653           150.00000
          6902.00586          2619.69653           150.00000
          6677.99414          2400.30347           150.00000
          6902.00586          2400.30347           150.00000
          6677.99414          2239.69653           150.00000
          6902.00586          2239.69653           150.00000
          6677.99414          2020.30347           150.00000
          6902.00586          2020.30347           150.00000
          6677.99414          1859.69653           150.00000
          6902.00586          1859.69653           150.00000
          6677.99414          1640.30347           150.00000
          6902.00586          1640.30347           150.00000
          6677.99414          1479.69653           150.00000
          6902.00586          1479.69653           150.00000
          6677.99414          1260.30347           150.00000
          6902.00586          1260.30347           150.00000
          6677.99414           880.30347           150.00000
          6902.00586           880.30347           150.00000
          6677.99414          1099.69653           150.00000
          6902.00586          1099.69653           150.00000
          7065.99414          4519.69678           150.00000
          7290.00586          4519.69678           150.00000
          7065.99414          4300.30322           150.00000
          7290.00586          4300.30322           150.00000
          7065.99414          4139.69678           150.00000
          7290.00586          4139.69678           150.00000
          7065.99414          3920.30347           150.00000
          7290.00586          3920.30347           150.00000
          7065.99414          3759.69653           150.00000
          7290.00586          3759.69653           150.00000
          7065.99414          3540.30347           150.00000
          7290.00586          3540.30347           150.00000
          7065.99414          3379.69653           150.00000
          7290.00586          3379.69653           150.00000
          7065.99414          3160.30347           150.00000
          7290.00586          3160.30347           150.00000
          7065.99414          2999.69653           150.00000
          7290.00586          2999.69653           150.00000
          7065.99414          2780.30347           150.00000
          7290.00586          2780.30347           150.00000
          7065.99414          2619.69653           150.00000
          7290.00586          2619.69653           150.00000
          7065.99414          2400.30347           150.00000
          7290.00586          2400.30347           150.00000
          7065.99414          2239.69653           150.00000
          7290.00586          2239.69653           150.00000
          7065.99414          2020.30347           150.00000
          7290.00586          2020.30347           150.00000
          7065.99414          1859.69653           150.00000
          7290.00586          1859.69653           150.00000
          7065.99414          1640.30347           150.00000
          7290.00586          1640.30347           150.00000
          7065.99414          1479.69653           150.00000
          7290.00586          1479.69653           150.00000
          7065.99414          1260.30347           150.00000
          7290.00586          1260.30347           150.00000
          7065.99414           880.30347           150.00000
          7290.00586           880.30347           150.00000
          7065.99414          1099.69653           150.00000
          7290.00586          1099.69653           150.00000
          7453.99414          4519.69678           150.00000
          7678.00586          4519.69678           150.00000
          7453.99414          4300.30322           150.00000
          7678.00586          4300.30322           150.00000
          7453.99414          4139.69678           150.00000
          7678.00586          4139.69678           150.00000
          7453.99414          3920.30347           150.00000
          7678.00586          3920.30347           150.00000
          7453.99414          3759.69653           150.00000
          7678.00586          3759.69653           150.00000
          7453.99414          3540.30347           150.00000
          7678.00586          3540.30347           150.00000
          7453.99414          3379.69653           150.00000
          7678.00586          3379.69653           150.00000
          7453.99414          3160.30347           150.00000
          7678.00586          3160.30347           150.00000
          7453.99414          2999.69653           150.00000
          7678.00586          2999.69653           150.00000
          7453.99414          2780.30347           150.00000
          7678.00586          2780.30347           150.00000
          7453.99414          2619.69653           150.00000
          7678.00586          2619.69653           150.00000
          7453.99414          2400.30347           150.00000
          7678.00586          2400.30347           150.00000
          7453.99414          2239.69653           150.00000
          7678.00586          2239.69653           150.00000
          7453.99414          2020.30347           150.00000
          7678.00586          2020.30347           150.00000
          7453.99414          1859.69653           150.00000
          7678.00586          1859.69653           150.00000
          7453.99414          1640.30347           150.00000
          7678.00586          1640.30347           150.00000
          7453.99414          1479.69653           150.00000
          7678.00586          1479.69653           150.00000
          7453.99414          1260.30347           150.00000
          7678.00586          1260.30347           150.00000
          7453.99414           880.30347           150.00000
          7678.00586           880.30347           150.00000
          7453.99414          1099.69653           150.00000
          7678.00586          1099.69653           150.00000
          7841.99414          4519.69678           150.00000
          8066.00586          4519.69678           150.00000
          7841.99414          4300.30322           150.00000
          8066.00586          4300.30322           150.00000
          7841.99414          4139.69678           150.00000
          8066.00586          4139.69678           150.00000
          7841.99414          3920.30347           150.00000
          8066.00586          3920.30347           150.00000
          7841.99414          3759.69653           150.00000
          8066.00586          3759.69653           150.00000
          7841.99414          3540.30347           150.00000
          8066.00586          3540.30347           150.00000
          7841.99414          3379.69653           150.00000
          8066.00586          3379.69653           150.00000
          7841.99414          3160.30347           150.00000
          8066.00586          3160.30347           150.00000
          7841.99414          2999.69653           150.00000
          8066.00586          2999.69653           150.00000
          7841.99414          2780.30347           150.00000
          8066.00586          2780.30347           150.00000
          7841.99414          2619.69653           150.00000
          8066.00586          2619.69653           150.00000
          7841.99414          2400.30347           150.00000
          8066.00586          2400.30347           150.00000
          7841.99414          2239.69653           150.00000
          8066.00586          2239.69653           150.00000
          7841.99414          2020.30347           150.00000
          8066.00586          2020.30347           150.00000
          7841.99414          1859.69653           150.00000
          8066.00586          1859.69653           150.00000
          7841.99414          1640.30347           150.00000
          8066.00586          1640.30347           150.00000
          7841.99414          1479.69653           150.00000
          8066.00586          1479.69653           150.00000
          7841.99414          1260.30347           150.00000
          8066.00586          1260.30347           150.00000
          7841.99414           880.30347           150.00000
          8066.00586           880.30347           150.00000
          7841.99414          1099.69653           150.00000
          8066.00586          1099.69653           150.00000
          8229.99414          4519.69678           150.00000
          8454.00586          4519.69678           150.00000
          8229.99414          4300.30322           150.00000
          8454.00586          4300.30322           150.00000
          8229.99414          4139.69678           150.00000
          8454.00586          4139.69678           150.00000
          8229.99414          3920.30347           150.00000
          8454.00586          3920.30347           150.00000
          8229.99414          3759.69653           150.00000
          8454.00586          3759.69653           150.00000
          8229.99414          3540.30347           150.00000
          8454.00586          3540.30347           150.00000
          8229.99414          3379.69653           150.00000
          8454.00586          3379.69653           150.00000
          8229.99414          3160.30347           150.00000
          8454.00586          3160.30347           150.00000
          8229.99414          2999.69653           150.00000
          8454.00586          2999.69653           150.00000
          8229.99414          2780.30347           150.00000
          8454.00586          2780.30347           150.00000
          8229.99414          2619.69653           150.00000
          8454.00586          2619.69653           150.00000
          8229.99414          2400.30347           150.00000
          8454.00586          2400.30347           150.00000
          8229.99414          2239.69653           150.00000
          8454.00586          2239.69653           150.00000
          8229.99414          2020.30347           150.00000
          8454.00586          2020.30347           150.00000
          8229.99414          1859.69653           150.00000
          8454.00586          1859.69653           150.00000
          8229.99414          1640.30347           150.00000
          8454.00586          1640.30347           150.00000
          8229.99414          1479.69653           150.00000
          8454.00586          1479.69653           150.00000
          8229.99414          1260.30347           150.00000
          8454.00586          1260.30347           150.00000
          8229.99414           880.30347           150.00000
          8454.00586           880.30347           150.00000
          8229.99414          1099.69653           150.00000
          8454.00586          1099.69653           150.00000
          8617.99414          4519.69678           150.00000
          8842.00586          4519.69678           150.00000
          8617.99414          4300.30322           150.00000
          8842.00586          4300.30322           150.00000
          8617.99414          4139.69678           150.00000
          8842.00586          4139.69678           150.00000
          8617.99414          3920.30347           150.00000
          8842.00586          3920.30347           150.00000
          8617.99414          3759.69653           150.00000
          8842.00586          3759.69653           150.00000
          8617.99414          3540.30347           150.00000
          8842.00586          3540.30347           150.00000
          8617.99414          3379.69653           150.00000
          8842.00586          3379.69653           150.00000
          8617.99414          3160.30347           150.00000
          8842.00586          3160.30347           150.00000
          8617.99414          2999.69653           150.00000
          8842.00586          2999.69653           150.00000
          8617.99414          2780.30347           150.00000
          8842.00586          2780.30347           150.00000
          8617.99414          2619.69653           150.00000
          8842.00586          2619.69653           150.00000
          8617.99414          2400.30347           150.00000
          8842.00586          2400.30347           150.00000
          8617.99414          2239.69653           150.00000
          8842.00586          2239.69653           150.00000
          8617.99414          2020.30347           150.00000
          8842.00586          2020.30347           150.00000
          8617.99414          1859.69653           150.00000
          8842.00586          1859.69653           150.00000
          8617.99414          1640.30347           150.00000
          8842.00586          1640.30347           150.00000
          8617.99414          1479.69653           150.00000
          8842.00586          1479.69653           150.00000
          8617.99414          1260.30347           150.00000
          8842.00586          1260.30347           150.00000
          8617.99414           880.30347           150.00000
          8842.00586           880.30347           150.00000
          8617.99414          1099.69653           150.00000
          8842.00586          1099.69653           150.00000
          9005.99414          4519.69678           150.00000
          9230.00586          4519.69678           150.00000
          9005.99414          4300.30322           150.00000
          9230.00586          4300.30322           150.00000
          9005.99414          4139.69678           150.00000
          9230.00586          4139.69678           150.00000
          9005.99414          3920.30347           150.00000
          9230.00586          3920.30347           150.00000
          9005.99414          3759.69653           150.00000
          9230.00586          3759.69653           150.00000
          9005.99414          3540.30347           150.00000
          9230.00586          3540.30347           150.00000
          9005.99414          3379.69653           150.00000
          9230.00586          3379.69653           150.00000
          9005.99414          3160.30347           150.00000
          9230.00586          3160.30347           150.00000
          9005.99414          2999.69653           150.00000
          9230.00586          2999.69653           150.00000
          9005.99414          2780.30347           150.00000
          9230.00586          2780.30347           150.00000
          9005.99414          2619.69653           150.00000
          9230.00586          2619.69653           150.00000
          9005.99414          2400.30347           150.00000
          9230.00586          2400.30347           150.00000
          9005.99414          2239.69653           150.00000
          9230.00586          2239.69653           150.00000
          9005.99414          2020.30347           150.00000
          9230.00586          2020.30347           150.00000
          9005.99414          1859.69653           150.00000
          9230.00586          1859.69653           150.00000
          9005.99414          1640.30347           150.00000
          9230.00586          1640.30347           150.00000
          9005.99414          1479.69653           150.00000
          9230.00586          1479.69653           150.00000
          9005.99414          1260.30347           150.00000
          9230.00586          1260.30347           150.00000
          9005.99414           880.30347           150.00000
          9230.00586           880.30347           150.00000
          9005.99414          1099.69653           150.00000
          9230.00586          1099.69653           150.00000
          9618.00586          4519.69678           150.00000
          9618.00586          4300.30322           150.00000
          9393.99414          4519.69678           150.00000
          9393.99414          4300.30322           150.00000
          9618.00586          4139.69678           150.00000
          9618.00586          3920.30347           150.00000
          9393.99414          4139.69678           150.00000
          9393.99414          3920.30347           150.00000
          9618.00586          3759.69653           150.00000
          9618.00586          3540.30347           150.00000
          9393.99414          3759.69653           150.00000
          9393.99414          3540.30347           150.00000
          9618.00586          3379.69653           150.00000
          9618.00586          3160.30347           150.00000
          9393.99414          3379.69653           150.00000
          9393.99414          3160.30347           150.00000
          9618.00586          2999.69653           150.00000
          9618.00586          2780.30347           150.00000
          9393.99414          2999.69653           150.00000
          9393.99414          2780.30347           150.00000
          9618.00586          2619.69653           150.00000
          9618.00586          2400.30347           150.00000
          9393.99414          2619.69653           150.00000
          9393.99414          2400.30347           150.00000
          9618.00586          2239.69653           150.00000
          9618.00586          2020.30347           150.00000
          9393.99414          2239.69653           150.00000
          9393.99414          2020.30347           150.00000
          9618.00586          1859.69653           150.00000
          9618.00586          1640.30347           150.00000
          9393.99414          1859.69653           150.00000
          9393.99414          1640.30347           150.00000
          9618.00586          1479.69653           150.00000
          9618.00586          1260.30347           150.00000
          9393.99414          1479.69653           150.00000
          9393.99414          1260.30347           150.00000
          9618.00586           880.30347           150.00000
          9393.99414           880.30347           150.00000
          9618.00586          1099.69653           150.00000
          9393.99414          1099.69653           150.00000
            81.99405          5315.47021           140.00000
            81.99405          5084.52979           140.00000
           306.00595          5315.47021           140.00000
           306.00595          5084.52979           140.00000
            81.99405          4684.52979           140.00000
           306.00595          4684.52979           140.00000
            81.99405          4915.47021           140.00000
           306.00595          4915.47021           140.00000
           469.99405          5315.47021           140.00000
           694.00598          5315.47021           140.00000
           469.99405          5084.52979           140.00000
           694.00598          5084.52979           140.00000
           469.99405          4684.52979           140.00000
           694.00598          4684.52979           140.00000
           469.99405          4915.47021           140.00000
           694.00598          4915.47021           140.00000
           857.99402          5315.47021           140.00000
          1082.00598          5315.47021           140.00000
           857.99402          5084.52979           140.00000
          1082.00598          5084.52979           140.00000
           857.99402          4684.52979           140.00000
          1082.00598          4684.52979           140.00000
           857.99402          4915.47021           140.00000
          1082.00598          4915.47021           140.00000
          1245.99402          5315.47021           140.00000
          1470.00598          5315.47021           140.00000
          1245.99402          5084.52979           140.00000
          1470.00598          5084.52979           140.00000
          1245.99402          4684.52979           140.00000
          1470.00598          4684.52979           140.00000
          1245.99402          4915.47021           140.00000
          1470.00598          4915.47021           140.00000
          1633.99402          5315.47021           140.00000
          1858.00598          5315.47021           140.00000
          1633.99402          5084.52979           140.00000
          1858.00598          5084.52979           140.00000
          1633.99402          4684.52979           140.00000
          1858.00598          4684.52979           140.00000
          1633.99402          4915.47021           140.00000
          1858.00598          4915.47021           140.00000
          2021.99402          5315.47021           140.00000
          2246.00586          5315.47021           140.00000
          2021.99402          5084.52979           140.00000
          2246.00586          5084.52979           140.00000
          2021.99402          4684.52979           140.00000
          2246.00586          4684.52979           140.00000
          2021.99402          4915.47021           140.00000
          2246.00586          4915.47021           140.00000
          2409.99414          5315.47021           140.00000
          2634.00586          5315.47021           140.00000
          2409.99414          5084.52979           140.00000
          2634.00586          5084.52979           140.00000
          2409.99414          4684.52979           140.00000
          2634.00586          4684.52979           140.00000
          2409.99414          4915.47021           140.00000
          2634.00586          4915.47021           140.00000
          2797.99414          5315.47021           140.00000
          3022.00586          5315.47021           140.00000
          2797.99414          5084.52979           140.00000
          3022.00586          5084.52979           140.00000
          2797.99414          4684.52979           140.00000
          3022.00586          4684.52979           140.00000
          2797.99414          4915.47021           140.00000
          3022.00586          4915.47021           140.00000
          3185.99414          5315.47021           140.00000
          3410.00586          5315.47021           140.00000
          3185.99414          5084.52979           140.00000
          3410.00586          5084.52979           140.00000
          3185.99414          4684.52979           140.00000
          3410.00586          4684.52979           140.00000
          3185.99414          4915.47021           140.00000
          3410.00586          4915.47021           140.00000
          3573.99414          5315.47021           140.00000
          3798.00586          5315.47021           140.00000
          3573.99414          5084.52979           140.00000
          3798.00586          5084.52979           140.00000
          3573.99414          4684.52979           140.00000
          3798.00586          4684.52979           140.00000
          3573.99414          4915.47021           140.00000
          3798.00586          4915.47021           140.00000
          3961.99414          5315.47021           140.00000
          4186.00586          5315.47021           140.00000
          3961.99414          5084.52979           140.00000
          4186.00586          5084.52979           140.00000
          3961.99414          4684.52979           140.00000
          4186.00586          4684.52979           140.00000
          3961.99414          4915.47021           140.00000
          4186.00586          4915.47021           140.00000
          4349.99414          5315.47021           140.00000
          4574.00586          5315.47021           140.00000
          4349.99414          5084.52979           140.00000
          4574.00586          5084.52979           140.00000
          4349.99414          4684.52979           140.00000
          4574.00586          4684.52979           140.00000
          4349.99414          4915.47021           140.00000
          4574.00586          4915.47021           140.00000
          4737.99414          5315.47021           140.00000
          4962.00586          5315.47021           140.00000
          4737.99414          5084.52979           140.00000
          4962.00586          5084.52979           140.00000
          4737.99414          4684.52979           140.00000
          4962.00586          4684.52979           140.00000
          4737.99414          4915.47021           140.00000
          4962.00586          4915.47021           140.00000
          5125.99414          5315.47021           140.00000
          5350.00586          5315.47021           140.00000
          5125.99414          5084.52979           140.00000
          5350.00586          5084.52979           140.00000
          5125.99414          4684.52979           140.00000
          5350.00586          4684.52979           140.00000
          5125.99414          4915.47021           140.00000
          5350.00586          4915.47021           140.00000
          5513.99414          5315.47021           140.00000
          5738.00586          5315.47021           140.00000
          5513.99414          5084.52979           140.00000
          5738.00586          5084.52979           140.00000
          5513.99414          4684.52979           140.00000
          5738.00586          4684.52979           140.00000
          5513.99414          4915.47021           140.00000
          5738.00586          4915.47021           140.00000
          5901.99414          5315.47021           140.00000
          6126.00586          5315.47021           140.00000
          5901.99414          5084.52979           140.00000
          6126.00586          5084.52979           140.00000
          5901.99414          4684.52979           140.00000
          6126.00586          4684.52979           140.00000
          5901.99414          4915.47021           140.00000
          6126.00586          4915.47021           140.00000
          6289.99414          5315.47021           140.00000
          6514.00586          5315.47021           140.00000
          6289.99414          5084.52979           140.00000
          6514.00586          5084.52979           140.00000
          6289.99414          4684.52979           140.00000
          6514.00586          4684.52979           140.00000
          6289.99414          4915.47021           140.00000
          6514.00586          4915.47021           140.00000
          6677.99414          5315.47021           140.00000
          6902.00586          5315.47021           140.00000
          6677.99414          5084.52979           140.00000
          6902.00586          5084.52979           140.00000
          6677.99414          4684.52979           140.00000
          6902.00586          4684.52979           140.00000
          6677.99414          4915.47021           140.00000
          6902.00586          4915.47021           140.00000
          7065.99414          5315.47021           140.00000
          7290.00586          5315.47021           140.00000
          7065.99414          5084.52979           140.00000
          7290.00586          5084.52979           140.00000
          7065.99414          4684.52979           140.00000
          7290.00586          4684.52979           140.00000
          7065.99414          4915.47021           140.00000
          7290.00586          4915.47021           140.00000
          7453.99414          5315.47021           140.00000
          7678.00586          5315.47021           140.00000
          7453.99414          5084.52979           140.00000
          7678.00586          5084.52979           140.00000
          7453.99414          4684.52979           140.00000
          7678.00586          4684.52979           140.00000
          7453.99414          4915.47021           140.00000
          7678.00586          4915.47021           140.00000
          7841.99414          5315.47021           140.00000
          8066.00586          5315.47021           140.00000
          7841.99414          5084.52979           140.00000
          8066.00586          5084.52979           140.00000
          7841.99414          4684.52979           140.00000
          8066.00586          4684.52979           140.00000
          7841.99414          4915.47021           140.00000
          8066.00586          4915.47021           140.00000
          8229.99414          5315.47021           140.00000
          8454.00586          5315.47021           140.00000
          8229.99414          5084.52979           140.00000
          8454.00586          5084.52979           140.00000
          8229.99414          4684.52979           140.00000
          8454.00586          4684.52979           140.00000
          8229.99414          4915.47021           140.00000
          8454.00586          4915.47021           140.00000
          8617.99414          5315.47021           140.00000
          8842.00586          5315.47021           140.00000
          8617.99414          5084.52979           140.00000
          8842.00586          5084.52979           140.00000
          8617.99414          4684.52979           140.00000
          8842.00586          4684.52979           140.00000
          8617.99414          4915.47021           140.00000
          8842.00586          4915.47021           140.00000
          9005.99414          5315.47021           140.00000
          9230.00586          5315.47021           140.00000
          9005.99414          5084.52979           140.00000
          9230.00586          5084.52979           140.00000
          9005.99414          4684.52979           140.00000
          9230.00586          4684.52979           140.00000
          9005.99414          4915.47021           140.00000
          9230.00586          4915.47021           140.00000
          9618.00586          5315.47021           140.00000
          9618.00586          5084.52979           140.00000
          9393.99414          5315.47021           140.00000
          9393.99414          5084.52979           140.00000
          9618.00586          4684.52979           140.00000
          9393.99414          4684.52979           140.00000
          9618.00586          4915.47021           140.00000
          9393.99414          4915.47021           140.00000
