/COM,ANSYS RELEASE 2022 R1           BUILD 22.1      UP20211129       11:05:01

 *** WARNING ***                         CP =       0.219   TIME= 11:05:05
 Discontinuous area set for VA command.  Line 1 is used 1 times for      
 this list of areas.                                                     

 *** WARNING ***                         CP =       0.250   TIME= 11:05:05
 Discontinuous area set for VA command.  Line 9 is used 1 times for      
 this list of areas.                                                     

 *** WARNING ***                         CP =       0.250   TIME= 11:05:05
 Discontinuous area set for VA command.  Line 14 is used 1 times for     
 this list of areas.                                                     

 *** WARNING ***                         CP =       0.859   TIME= 11:05:05
 The MINREF field of the CNVTOL command has been assigned a default      
 value of 1.0 for convergence on F.  Check results carefully.            

 *** WARNING ***                         CP =       0.859   TIME= 11:05:05
 The Distributed ANSYS solution does not currently support MPC184        
 elements with the direct elimination method (KEYOPT(2) = 0).            
 Distributed parallel processing will be deactivated for this solution.  

 *** WARNING ***                         CP =       0.875   TIME= 11:05:05
 MPC184 elements are being used in the current analysis and the          
 NLGEOM,ON command has not been used.  Thus, only linearized behavior    
 will be considered.  If finite rotation and large deflection effects    
 are to be considered, please use the NLGEOM,ON command.                 

 *** WARNING ***                         CP =       0.875   TIME= 11:05:05
 ANSYS,INC.-supplied version of coding for USERCK has been used.         

 *** WARNING ***                         CP =       0.875   TIME= 11:05:05
 ANSYS,INC.-supplied version of coding for USERCK has been used.         

 *** WARNING ***                         CP =       0.875   TIME= 11:05:05
 ANSYS,INC.-supplied version of coding for USERCK has been used.         

 *** WARNING ***                         CP =       0.875   TIME= 11:05:05
 ANSYS,INC.-supplied version of coding for USERCK has been used.         

 *** WARNING ***                         CP =     112.516   TIME= 11:06:03
 The MINREF field of the CNVTOL command has been assigned a default      
 value of 1.0 for convergence on F.  Check results carefully.            

 *** WARNING ***                         CP =     250.500   TIME= 11:07:34
 Parameter ITER_SMALLER already exists.  It is deleted and redefined by  
 the *DIM command.                                                       

 *** WARNING ***                         CP =     250.500   TIME= 11:07:34
 Parameter COUNTER already exists.  It is deleted and redefined by the   
 *DIM command.                                                           

 *** WARNING ***                         CP =     251.359   TIME= 11:07:35
 The MINREF field of the CNVTOL command has been assigned a default      
 value of 1.0 for convergence on F.  Check results carefully.            

 *** WARNING ***                         CP =     251.391   TIME= 11:07:35
 The Distributed ANSYS solution does not currently support MPC184        
 elements with the direct elimination method (KEYOPT(2) = 0).            
 Distributed parallel processing will be deactivated for this solution.  

 *** WARNING ***                         CP =     324.281   TIME= 11:08:36
 The MINREF field of the CNVTOL command has been assigned a default      
 value of 1.0 for convergence on F.  Check results carefully.            

 *** WARNING ***                         CP =     324.281   TIME= 11:08:36
 The Distributed ANSYS solution does not currently support MPC184        
 elements with the direct elimination method (KEYOPT(2) = 0).            
 Distributed parallel processing will be deactivated for this solution.  

 *** WARNING ***                         CP =     397.625   TIME= 11:09:36
 The MINREF field of the CNVTOL command has been assigned a default      
 value of 1.0 for convergence on F.  Check results carefully.            

 *** WARNING ***                         CP =     397.656   TIME= 11:09:37
 The Distributed ANSYS solution does not currently support MPC184        
 elements with the direct elimination method (KEYOPT(2) = 0).            
 Distributed parallel processing will be deactivated for this solution.  

 *** WARNING ***                         CP =     471.000   TIME= 11:10:37
 The MINREF field of the CNVTOL command has been assigned a default      
 value of 1.0 for convergence on F.  Check results carefully.            

 *** WARNING ***                         CP =     471.016   TIME= 11:10:37
 The Distributed ANSYS solution does not currently support MPC184        
 elements with the direct elimination method (KEYOPT(2) = 0).            
 Distributed parallel processing will be deactivated for this solution.  

 *** WARNING ***                         CP =     544.203   TIME= 11:11:38
 The MINREF field of the CNVTOL command has been assigned a default      
 value of 1.0 for convergence on F.  Check results carefully.            

 *** WARNING ***                         CP =     544.219   TIME= 11:11:38
 The Distributed ANSYS solution does not currently support MPC184        
 elements with the direct elimination method (KEYOPT(2) = 0).            
 Distributed parallel processing will be deactivated for this solution.  

 *** WARNING ***                         CP =     617.766   TIME= 11:12:39
 The MINREF field of the CNVTOL command has been assigned a default      
 value of 1.0 for convergence on F.  Check results carefully.            

 *** WARNING ***                         CP =     617.781   TIME= 11:12:39
 The Distributed ANSYS solution does not currently support MPC184        
 elements with the direct elimination method (KEYOPT(2) = 0).            
 Distributed parallel processing will be deactivated for this solution.  

 *** WARNING ***                         CP =     691.266   TIME= 11:13:40
 The MINREF field of the CNVTOL command has been assigned a default      
 value of 1.0 for convergence on F.  Check results carefully.            

 *** WARNING ***                         CP =     691.281   TIME= 11:13:40
 The Distributed ANSYS solution does not currently support MPC184        
 elements with the direct elimination method (KEYOPT(2) = 0).            
 Distributed parallel processing will be deactivated for this solution.  

 *** WARNING ***                         CP =     764.219   TIME= 11:14:40
 The MINREF field of the CNVTOL command has been assigned a default      
 value of 1.0 for convergence on F.  Check results carefully.            

 *** WARNING ***                         CP =     764.250   TIME= 11:14:40
 The Distributed ANSYS solution does not currently support MPC184        
 elements with the direct elimination method (KEYOPT(2) = 0).            
 Distributed parallel processing will be deactivated for this solution.  

 *** WARNING ***                         CP =     837.203   TIME= 11:15:41
 The MINREF field of the CNVTOL command has been assigned a default      
 value of 1.0 for convergence on F.  Check results carefully.            

 *** WARNING ***                         CP =     837.203   TIME= 11:15:41
 The Distributed ANSYS solution does not currently support MPC184        
 elements with the direct elimination method (KEYOPT(2) = 0).            
 Distributed parallel processing will be deactivated for this solution.  

 *** WARNING ***                         CP =     906.219   TIME= 11:16:37
 The MINREF field of the CNVTOL command has been assigned a default      
 value of 1.0 for convergence on F.  Check results carefully.            

 *** WARNING ***                         CP =     906.234   TIME= 11:16:37
 The Distributed ANSYS solution does not currently support MPC184        
 elements with the direct elimination method (KEYOPT(2) = 0).            
 Distributed parallel processing will be deactivated for this solution.  

 *** WARNING ***                         CP =     991.016   TIME= 11:17:50
 Parameter ELE_LB already exists.  It is deleted and redefined by the    
 *DIM command.                                                           

 *** WARNING ***                         CP =     991.141   TIME= 11:17:50
 Parameter VRD already exists.  It is deleted and redefined by the *DIM  
 command.                                                                

 *** WARNING ***                         CP =     991.141   TIME= 11:17:50
 Parameter VNW already exists.  It is deleted and redefined by the *DIM  
 command.                                                                
