
 Ansys Mechanical Enterprise                       


 *------------------------------------------------------------------*
 |                                                                  |
 |   W E L C O M E   T O   T H E   A N S Y S (R)  P R O G R A M     |
 |                                                                  |
 *------------------------------------------------------------------*




 ***************************************************************
 *            ANSYS 2022 R1          LEGAL NOTICES             *
 ***************************************************************
 *                                                             *
 * Copyright 1971-2022 ANSYS, Inc.  All rights reserved.       *
 * Unauthorized use, distribution or duplication is            *
 * prohibited.                                                 *
 *                                                             *
 * Ansys is a registered trademark of ANSYS, Inc. or its       *
 * subsidiaries in the United States or other countries.       *
 * See the ANSYS, Inc. online documentation or the ANSYS, Inc. *
 * documentation CD or online help for the complete Legal      *
 * Notice.                                                     *
 *                                                             *
 ***************************************************************
 *                                                             *
 * THIS ANSYS SOFTWARE PRODUCT AND PROGRAM DOCUMENTATION       *
 * INCLUDE TRADE SECRETS AND CONFIDENTIAL AND PROPRIETARY      *
 * PRODUCTS OF ANSYS, INC., ITS SUBSIDIARIES, OR LICENSORS.    *
 * The software products and documentation are furnished by    *
 * ANSYS, Inc. or its subsidiaries under a software license    *
 * agreement that contains provisions concerning               *
 * non-disclosure, copying, length and nature of use,          *
 * compliance with exporting laws, warranties, disclaimers,    *
 * limitations of liability, and remedies, and other           *
 * provisions.  The software products and documentation may be *
 * used, disclosed, transferred, or copied only in accordance  *
 * with the terms and conditions of that software license      *
 * agreement.                                                  *
 *                                                             *
 * ANSYS, Inc. is a UL registered                              *
 * ISO 9001:2015 company.                                      *
 *                                                             *
 ***************************************************************
 *                                                             *
 * This product is subject to U.S. laws governing export and   *
 * re-export.                                                  *
 *                                                             *
 * For U.S. Government users, except as specifically granted   *
 * by the ANSYS, Inc. software license agreement, the use,     *
 * duplication, or disclosure by the United States Government  *
 * is subject to restrictions stated in the ANSYS, Inc.        *
 * software license agreement and FAR 12.212 (for non-DOD      *
 * licenses).                                                  *
 *                                                             *
 ***************************************************************

 2022 R1 
     
 Point Releases and Patches installed:   
     
 ANSYS, Inc. License Manager 2022 R1 
 Autodyn 2022 R1 
 SpaceClaim 2022 R1  
 LS-DYNA 2022 R1 
 CFD-Post only 2022 R1   
 CFX (includes CFD-Post) 2022 R1 
 Chemkin 2022 R1 
 FENSAP-ICE 2022 R1  
 Fluent (includes CFD-Post) 2022 R1  
 Polyflow (includes CFD-Post) 2022 R1
 Forte (includes EnSight) 2022 R1
 TurboGrid 2022 R1   
 ICEM CFD 2022 R1
 Aqwa 2022 R1
 Speos HPC 2022 R1   
 Additive 2022 R1
 Customization Files for User Programmable Features 2022 R1  
 Mechanical Products 2022 R1 
 Remote Solve Manager Standalone Services 2022 R1
 Viewer 2022 R1  
 ACIS Geometry Interface 2022 R1 
 AutoCAD Geometry Interface 2022 R1  
 Catia, Version 4 Geometry Interface 2022 R1 
 Catia, Version 5 Geometry Interface 2022 R1 
 Catia, Version 6 Geometry Interface 2022 R1 
 Creo Elements/Direct Modeling Geometry Interface 2022 R1
 Creo Parametric Geometry Interface 2022 R1  
 Inventor Geometry Interface 2022 R1 
 JTOpen Geometry Interface 2022 R1   
 NX Geometry Interface 2022 R1   
 Parasolid Geometry Interface  2022 R1   
 Solid Edge Geometry Interface 2022 R1   
 SOLIDWORKS Geometry Interface 2022 R1   


          *****  ANSYS COMMAND LINE ARGUMENTS  *****
  INITIAL JOBNAME              = sim_318                                                                                                                                                                                                                                                 
  BATCH MODE REQUESTED (-b)    = LIST
  INPUT FILE COPY MODE (-c)    = COPY
  INPUT FILE NAME              = CONIN$
  OUTPUT FILE NAME             = C:\Users\lorez\dev\2022_MT\mt-lorez\sim_inputs\sim_318\sim_318_1.out
  MEMORY REQUESTED (MB)        = 2000        
  START-UP FILE MODE           = READ  
  STOP FILE MODE               = READ  
  LANGUAGE                     = en-us               
  DATABASE SIZE REQUESTED (MB) = 1           
  INITIAL DIRECTORY = C:\Users\lorez\dev\2022_MT\mt-lorez\sim_inputs\sim_318

 User Link path (ANS_USER_PATH): C:\Program Files\ANSYS Inc\v221\ansys\bin\winx64                                                                                                                                                                                                        

 RELEASE= 2022 R1              BUILD= 22.1      UP20211129   VERSION=WINDOWS x64 
 CURRENT JOBNAME=sim_318_1  11:22:03  MAY 09, 2022 CP=      0.047
 Note - This ANSYS version was linked by Licensee

 CLEAR DATABASE AND RERUN START.ANS

 Ansys Mechanical Enterprise                       

 *****  ANSYS SOLUTION ROUTINE  *****

 FINISH SOLUTION PROCESSING


 ***** ROUTINE COMPLETED *****  CP =         0.141



 *****  ANSYS SOLUTION ROUTINE  *****

 *** NOTE ***                            CP =       0.141   TIME= 11:22:04
 Distributed parallel processing has been temporarily disabled.          


 ***** ROUTINE COMPLETED *****  CP =         0.141



 *****  ANSYS SOLUTION ROUTINE  *****

 FINISH SOLUTION PROCESSING


 ***** ROUTINE COMPLETED *****  CP =         0.344



 *****  ANSYS SOLUTION ROUTINE  *****
 You have already entered solution.  The /SOLUTION command is ignored.   

 *** NOTE ***                            CP =       0.344   TIME= 11:24:32
 Distributed parallel processing has been temporarily disabled.          


 ***** ROUTINE COMPLETED *****  CP =         0.344



 *****  ANSYS SOLUTION ROUTINE  *****

 FINISH SOLUTION PROCESSING


 ***** ROUTINE COMPLETED *****  CP =         0.547



 *****  ANSYS SOLUTION ROUTINE  *****

 FINISH SOLUTION PROCESSING


 ***** ROUTINE COMPLETED *****  CP =         0.547



 *****  ANSYS SOLUTION ROUTINE  *****
 You have already entered solution.  The /SOLUTION command is ignored.   

 *** NOTE ***                            CP =       0.547   TIME= 11:25:33
 Distributed parallel processing has been temporarily disabled.          


 ***** ROUTINE COMPLETED *****  CP =         0.547



 *****  ANSYS SOLUTION ROUTINE  *****

 FINISH SOLUTION PROCESSING


 ***** ROUTINE COMPLETED *****  CP =         0.750



 *****  ANSYS SOLUTION ROUTINE  *****

 FINISH SOLUTION PROCESSING


 ***** ROUTINE COMPLETED *****  CP =         0.750



 *****  ANSYS SOLUTION ROUTINE  *****
 You have already entered solution.  The /SOLUTION command is ignored.   

 *** NOTE ***                            CP =       0.766   TIME= 11:26:33
 Distributed parallel processing has been temporarily disabled.          


 ***** ROUTINE COMPLETED *****  CP =         0.766



 *****  ANSYS SOLUTION ROUTINE  *****

 FINISH SOLUTION PROCESSING


 ***** ROUTINE COMPLETED *****  CP =         0.969



 *****  ANSYS SOLUTION ROUTINE  *****

 FINISH SOLUTION PROCESSING


 ***** ROUTINE COMPLETED *****  CP =         0.969



 *****  ANSYS SOLUTION ROUTINE  *****
 You have already entered solution.  The /SOLUTION command is ignored.   

 *** NOTE ***                            CP =       0.969   TIME= 11:27:35
 Distributed parallel processing has been temporarily disabled.          


 ***** ROUTINE COMPLETED *****  CP =         0.969



 *****  ANSYS SOLUTION ROUTINE  *****

 FINISH SOLUTION PROCESSING


 ***** ROUTINE COMPLETED *****  CP =         1.172



 *****  ANSYS SOLUTION ROUTINE  *****

 FINISH SOLUTION PROCESSING


 ***** ROUTINE COMPLETED *****  CP =         1.172



 *****  ANSYS SOLUTION ROUTINE  *****
 You have already entered solution.  The /SOLUTION command is ignored.   

 *** NOTE ***                            CP =       1.172   TIME= 11:28:35
 Distributed parallel processing has been temporarily disabled.          


 ***** ROUTINE COMPLETED *****  CP =         1.172



 *****  ANSYS SOLUTION ROUTINE  *****

 FINISH SOLUTION PROCESSING


 ***** ROUTINE COMPLETED *****  CP =         1.375



 *****  ANSYS SOLUTION ROUTINE  *****

 FINISH SOLUTION PROCESSING


 ***** ROUTINE COMPLETED *****  CP =         1.375



 *****  ANSYS SOLUTION ROUTINE  *****
 You have already entered solution.  The /SOLUTION command is ignored.   

 *** NOTE ***                            CP =       1.391   TIME= 11:29:34
 Distributed parallel processing has been temporarily disabled.          


 ***** ROUTINE COMPLETED *****  CP =         1.391



 *****  ANSYS SOLUTION ROUTINE  *****

 FINISH SOLUTION PROCESSING


 ***** ROUTINE COMPLETED *****  CP =         1.594



 *****  ANSYS SOLUTION ROUTINE  *****

 FINISH SOLUTION PROCESSING


 ***** ROUTINE COMPLETED *****  CP =         1.594



 *****  ANSYS SOLUTION ROUTINE  *****
 You have already entered solution.  The /SOLUTION command is ignored.   

 *** NOTE ***                            CP =       1.609   TIME= 11:30:35
 Distributed parallel processing has been temporarily disabled.          


 ***** ROUTINE COMPLETED *****  CP =         1.609



 ***** END OF INPUT ENCOUNTERED *****


 NUMBER OF WARNING MESSAGES ENCOUNTERED=          0
 NUMBER OF ERROR   MESSAGES ENCOUNTERED=          0


 *---------------------------------------------------------------------------*
 |                                                                           |
 |                       DISTRIBUTED ANSYS RUN COMPLETED                     |
 |                                                                           |
 |---------------------------------------------------------------------------|
 |                                                                           |
 | Ansys 2022 R1               Build 22.1         UP20211129     WINDOWS x64 |
 |                                                                           |
 |---------------------------------------------------------------------------|
 |                                                                           |
 | Database Requested(-db)     1 MB    Scratch Memory Requested       936 MB |
 | Maximum Database Used       1 MB    Maximum Scratch Memory Used      4 MB |
 |                                                                           |
 |---------------------------------------------------------------------------|
 |                                                                           |
 |        CP Time      (sec) =          2.000       Time  =  11:31:47        |
 |        Elapsed Time (sec) =        587.000       Date  =  05/09/2022      |
 |                                                                           |
 *---------------------------------------------------------------------------*
