           469.00000            -0.32440            -4.27807            -2.26589            -0.00487             0.00083             0.00016
           470.00000            -0.30016            -4.64397             0.52717            -0.00151            -0.00014             0.00002
           471.00000            -0.30713            -4.41348            -0.53098            -0.00374             0.00034             0.00021
           472.00000             0.26270            -5.94861             0.66608            -0.00307             0.00012            -0.00046
           473.00000            -0.29230            -4.55931             0.57920            -0.00183            -0.00012            -0.00001
           474.00000            -0.27710            -4.50644             0.61881            -0.00212            -0.00010            -0.00011
           475.00000            -0.24997            -4.49624             0.64450            -0.00235            -0.00006            -0.00017
           476.00000            -0.21429            -4.50420             0.65963            -0.00249            -0.00005            -0.00012
           477.00000            -0.17410            -4.51091             0.66652            -0.00256            -0.00002            -0.00006
           478.00000            -0.13212            -4.51153             0.66167            -0.00254             0.00003             0.00001
           479.00000            -0.09384            -4.50481             0.64529            -0.00245             0.00005             0.00007
           480.00000            -0.06573            -4.48905             0.62832            -0.00230             0.00004             0.00015
           481.00000            -0.04791            -4.46644             0.62280            -0.00210             0.00000             0.00020
           482.00000            -0.03662            -4.45405             0.62884            -0.00187            -0.00001             0.00017
           483.00000            -0.02780            -4.46406             0.63646            -0.00164            -0.00001             0.00010
           484.00000            -0.02008            -4.49319             0.63733            -0.00144             0.00001             0.00002
           485.00000            -0.02944            -4.52841             0.64227            -0.00134            -0.00003            -0.00004
           486.00000            -0.03374            -4.55724             0.66343            -0.00137            -0.00007            -0.00014
           487.00000            -0.03835            -4.58493             0.69527            -0.00153            -0.00008            -0.00021
           488.00000            -0.03441            -4.62008             0.73234            -0.00181            -0.00009            -0.00032
           489.00000            -0.02098            -4.68281             0.76813            -0.00216            -0.00009            -0.00044
           490.00000             0.00148            -4.78235             0.79764            -0.00253            -0.00008            -0.00054
           491.00000             0.03331            -4.93036             0.81620            -0.00281            -0.00004            -0.00056
           492.00000             0.07606            -5.11533             0.82242            -0.00292            -0.00002            -0.00051
           493.00000             0.12784            -5.29843             0.81973            -0.00296             0.00000            -0.00045
           494.00000             0.17933            -5.46943             0.80776            -0.00296             0.00003            -0.00039
           495.00000             0.22703            -5.62938             0.78241            -0.00295             0.00008            -0.00036
           496.00000             0.26360            -5.79388             0.73039            -0.00294             0.00016            -0.00044
           497.00000             0.77253            -4.95150            -6.29462            -0.01073             0.00100            -0.00024
           498.00000             0.57469            -5.01482            -2.06619            -0.01016             0.00068            -0.00050
           499.00000            -0.29468            -4.18626            -2.60767            -0.00526             0.00092             0.00012
           500.00000            -0.26707            -4.15093            -2.94971            -0.00563             0.00083             0.00007
           501.00000            -0.24170            -4.14423            -3.22830            -0.00594             0.00059             0.00004
           502.00000            -0.22317            -4.14622            -3.40750            -0.00619             0.00032             0.00003
           503.00000            -0.21631            -4.14824            -3.48965            -0.00632             0.00008             0.00001
           504.00000            -0.21798            -4.14774            -3.49108            -0.00633            -0.00010             0.00002
           505.00000            -0.21734            -4.14401            -3.42059            -0.00622            -0.00029             0.00002
           506.00000            -0.20505            -4.13554            -3.26753            -0.00600            -0.00052             0.00002
           507.00000            -0.17891            -4.12500            -3.01723            -0.00567            -0.00078             0.00002
           508.00000            -0.14332            -4.12243            -2.67904            -0.00527            -0.00096             0.00002
           509.00000            -0.10314            -4.13822            -2.31341            -0.00486            -0.00092             0.00001
           510.00000            -0.04626            -4.17809            -2.01252            -0.00448            -0.00063            -0.00004
           511.00000             0.01947            -4.22825            -1.84318            -0.00423            -0.00024            -0.00007
           512.00000             0.09154            -4.25742            -1.83747            -0.00425             0.00021            -0.00010
           513.00000             0.17119            -4.26523            -2.00964            -0.00456             0.00068            -0.00015
           514.00000             0.25978            -4.27710            -2.35766            -0.00509             0.00112            -0.00021
           515.00000             0.35449            -4.30952            -2.84505            -0.00582             0.00139            -0.00025
           516.00000             0.44162            -4.37563            -3.38404            -0.00663             0.00139            -0.00027
           517.00000             0.51162            -4.46062            -3.89798            -0.00741             0.00127            -0.00027
           518.00000             0.56682            -4.54773            -4.36692            -0.00814             0.00116            -0.00026
           519.00000             0.61294            -4.63244            -4.79248            -0.00882             0.00105            -0.00024
           520.00000             0.65381            -4.71283            -5.18218            -0.00942             0.00098            -0.00024
           521.00000             0.69339            -4.78787            -5.54991            -0.00996             0.00095            -0.00022
           522.00000             0.73668            -4.86363            -5.91548            -0.01042             0.00096            -0.00024
           523.00000            -0.28520            -4.29193            -0.67158            -0.00427             0.00040             0.00015
           524.00000            -0.25369            -4.22162            -0.81712            -0.00486             0.00037             0.00008
           525.00000            -0.22670            -4.19122            -0.93549            -0.00531             0.00026             0.00004
           526.00000            -0.20859            -4.18413            -1.00854            -0.00559             0.00014             0.00003
           527.00000            -0.19758            -4.18412            -1.04010            -0.00571             0.00004             0.00005
           528.00000            -0.18722            -4.18474            -1.04131            -0.00570            -0.00004             0.00008
           529.00000            -0.17540            -4.18124            -1.01646            -0.00558            -0.00012             0.00010
           530.00000            -0.15875            -4.17473            -0.95559            -0.00535            -0.00024             0.00011
           531.00000            -0.13297            -4.17075            -0.84551            -0.00499            -0.00037             0.00008
           532.00000            -0.09471            -4.17949            -0.68695            -0.00452            -0.00046             0.00002
           533.00000            -0.05260            -4.21526            -0.51711            -0.00399            -0.00040            -0.00004
           534.00000            -0.02917            -4.26936            -0.38456            -0.00356            -0.00027            -0.00007
           535.00000            -0.00111            -4.31631            -0.31156            -0.00333            -0.00010            -0.00009
           536.00000             0.03207            -4.34749            -0.29914            -0.00335             0.00004            -0.00010
           537.00000             0.05775            -4.36195            -0.35481            -0.00361             0.00025            -0.00013
           538.00000             0.09867            -4.36823            -0.48451            -0.00416             0.00042            -0.00018
           539.00000             0.17278            -4.39817            -0.67255            -0.00488             0.00056            -0.00028
           540.00000             0.24961            -4.46420            -0.88553            -0.00565             0.00058            -0.00038
           541.00000             0.31307            -4.54854            -1.08280            -0.00642             0.00052            -0.00044
           542.00000             0.36683            -4.63328            -1.25314            -0.00718             0.00046            -0.00046
           543.00000             0.41403            -4.71495            -1.40429            -0.00788             0.00043            -0.00047
           544.00000             0.45801            -4.78926            -1.54565            -0.00851             0.00041            -0.00046
           545.00000             0.50095            -4.85877            -1.68748            -0.00910             0.00042            -0.00045
           546.00000             0.54112            -4.92450            -1.84954            -0.00966             0.00052            -0.00045
           547.00000            -0.17729            -2.97292            -3.09298             0.00471             0.00038            -0.00013
           548.00000            -0.23588            -3.00880            -4.87946             0.00466             0.00062            -0.00014
           549.00000            -0.32237            -3.09600            -6.52500             0.00398             0.00091            -0.00012
           550.00000            -0.41083            -3.23801            -7.81972             0.00282             0.00124            -0.00009
           551.00000            -0.48528            -3.41592            -8.61013             0.00134             0.00155            -0.00006
           552.00000            -0.53107            -3.60549            -8.81355            -0.00026             0.00175            -0.00003
           553.00000            -0.53794            -3.79060            -8.41773            -0.00182             0.00174             0.00002
           554.00000            -0.49999            -3.96731            -7.44871            -0.00327             0.00165             0.00006
           555.00000            -0.44129            -4.11214            -5.98182            -0.00442             0.00143             0.00010
           556.00000            -0.36576            -4.20472            -4.16725            -0.00510             0.00121             0.00013
           557.00000             0.66846            -2.73381            -5.96765             0.00927             0.00098             0.00031
           558.00000             0.77791            -2.76326            -9.55172             0.00945             0.00120             0.00016
           559.00000             0.78442            -2.78798           -13.12048             0.00919             0.00142             0.00001
           560.00000             0.70836            -2.90272           -16.43264             0.00803             0.00189            -0.00006
           561.00000             0.59358            -3.14870           -19.04471             0.00555             0.00248            -0.00007
           562.00000             0.49963            -3.66632           -20.29364             0.00094             0.00302            -0.00000
           563.00000             0.53911            -4.31155           -19.61029            -0.00448             0.00281             0.00002
           564.00000             0.63277            -4.59599           -17.34434            -0.00734             0.00223             0.00005
           565.00000             0.73525            -4.80158           -14.14372            -0.00937             0.00168             0.00004
           566.00000             0.79733            -4.91593           -10.34736            -0.01045             0.00122            -0.00005
           567.00000            -0.16279            -3.02941            -3.23871             0.00489             0.00037            -0.00011
           568.00000            -0.14817            -3.06693            -3.36983             0.00508             0.00031            -0.00009
           569.00000            -0.13849            -3.09629            -3.47095             0.00524             0.00022            -0.00007
           570.00000            -0.13309            -3.11931            -3.53446             0.00535             0.00011            -0.00006
           571.00000            -0.13028            -3.14072            -3.55677             0.00539             0.00000            -0.00007
           572.00000            -0.12865            -3.16356            -3.54226             0.00538            -0.00009            -0.00007
           573.00000            -0.12538            -3.18795            -3.49382             0.00531            -0.00018            -0.00008
           574.00000            -0.11630            -3.21212            -3.41151             0.00517            -0.00027            -0.00008
           575.00000            -0.10020            -3.23849            -3.29706             0.00497            -0.00034            -0.00009
           576.00000            -0.07558            -3.26696            -3.15567             0.00472            -0.00040            -0.00009
           577.00000            -0.04323            -3.29307            -3.00155             0.00446            -0.00040            -0.00007
           578.00000            -0.00139            -3.30824            -2.86711             0.00425            -0.00029            -0.00003
           579.00000             0.04915            -3.31228            -2.79406             0.00414            -0.00008             0.00001
           580.00000             0.10448            -3.30956            -2.81278             0.00418             0.00018             0.00006
           581.00000             0.16390            -3.29684            -2.93100             0.00438             0.00043             0.00012
           582.00000             0.23138            -3.27273            -3.13912             0.00476             0.00065             0.00017
           583.00000             0.30131            -3.23238            -3.41869             0.00526             0.00080             0.00022
           584.00000             0.36988            -3.17663            -3.73872             0.00584             0.00086             0.00025
           585.00000             0.43079            -3.11239            -4.06779             0.00645             0.00085             0.00027
           586.00000             0.48024            -3.04730            -4.38843             0.00702             0.00083             0.00028
           587.00000             0.52145            -2.98500            -4.69652             0.00755             0.00080             0.00028
           588.00000             0.55916            -2.92573            -4.99555             0.00805             0.00080             0.00028
           589.00000             0.59708            -2.86809            -5.29451             0.00851             0.00082             0.00028
           590.00000             0.63724            -2.81016            -5.61115             0.00895             0.00089             0.00030
           591.00000            -0.22066            -3.04095            -5.10839             0.00485             0.00056            -0.00014
           592.00000            -0.20379            -3.07133            -5.31339             0.00505             0.00048            -0.00013
           593.00000            -0.18657            -3.09545            -5.48041             0.00523             0.00036            -0.00010
           594.00000            -0.16991            -3.11370            -5.59175             0.00538             0.00019            -0.00008
           595.00000            -0.15791            -3.13213            -5.63687             0.00546             0.00002            -0.00007
           596.00000            -0.15390            -3.15432            -5.61974             0.00545            -0.00011            -0.00006
           597.00000            -0.14606            -3.18007            -5.54271             0.00536            -0.00027            -0.00005
           598.00000            -0.13232            -3.20797            -5.40365             0.00521            -0.00042            -0.00004
           599.00000            -0.11453            -3.23809            -5.20756             0.00498            -0.00057            -0.00004
           600.00000            -0.09014            -3.26885            -4.96718             0.00472            -0.00065            -0.00004
           601.00000            -0.05640            -3.29746            -4.71081             0.00445            -0.00065            -0.00003
           602.00000            -0.00635            -3.31199            -4.49118             0.00422            -0.00047            -0.00000
           603.00000             0.06307            -3.31413            -4.37335             0.00411            -0.00013             0.00001
           604.00000             0.13984            -3.31663            -4.40757             0.00415             0.00031             0.00003
           605.00000             0.21965            -3.31255            -4.61203             0.00440             0.00075             0.00007
           606.00000             0.30617            -3.29648            -4.97472             0.00482             0.00112             0.00011
           607.00000             0.39255            -3.26169            -5.46012             0.00539             0.00137             0.00014
           608.00000             0.47035            -3.20906            -6.01441             0.00602             0.00148             0.00017
           609.00000             0.53530            -3.14638            -6.58332             0.00667             0.00146             0.00017
           610.00000             0.58783            -3.08041            -7.13274             0.00729             0.00138             0.00017
           611.00000             0.63137            -3.01522            -7.65230             0.00786             0.00131             0.00016
           612.00000             0.67030            -2.95125            -8.14476             0.00837             0.00124             0.00016
           613.00000             0.70855            -2.88810            -8.61905             0.00882             0.00121             0.00016
           614.00000             0.74877            -2.82523            -9.08607             0.00920             0.00120             0.00016
           615.00000            -0.30504            -3.09674            -6.86192             0.00430             0.00083            -0.00012
           616.00000            -0.28337            -3.10281            -7.16738             0.00463             0.00073            -0.00013
           617.00000            -0.25663            -3.10995            -7.42798             0.00493             0.00058            -0.00012
           618.00000            -0.22487            -3.11493            -7.61838             0.00519             0.00036            -0.00010
           619.00000            -0.19530            -3.12417            -7.71085             0.00535             0.00009            -0.00008
           620.00000            -0.17194            -3.14446            -7.69413             0.00535            -0.00018            -0.00005
           621.00000            -0.14863            -3.17489            -7.57211             0.00521            -0.00043            -0.00003
           622.00000            -0.12399            -3.21016            -7.35499             0.00496            -0.00065            -0.00001
           623.00000            -0.10013            -3.24589            -7.06115             0.00468            -0.00082            -0.00000
           624.00000            -0.07821            -3.28100            -6.71254             0.00438            -0.00094            -0.00002
           625.00000            -0.04933            -3.31735            -6.34676             0.00409            -0.00092            -0.00003
           626.00000            -0.00080            -3.34096            -6.03486             0.00384            -0.00067            -0.00001
           627.00000             0.07006            -3.35144            -5.86690             0.00370            -0.00019            -0.00000
           628.00000             0.15823            -3.36001            -5.91523             0.00372             0.00044             0.00001
           629.00000             0.25424            -3.36184            -6.21246             0.00397             0.00109             0.00004
           630.00000             0.34829            -3.34382            -6.74418             0.00442             0.00164             0.00008
           631.00000             0.43486            -3.30293            -7.45198             0.00501             0.00199             0.00009
           632.00000             0.50419            -3.24284            -8.25034             0.00563             0.00210             0.00008
           633.00000             0.55765            -3.17688            -9.06312             0.00626             0.00205             0.00006
           634.00000             0.60211            -3.10996            -9.84630             0.00686             0.00193             0.00004
           635.00000             0.64052            -3.04210           -10.58343             0.00743             0.00180             0.00003
           636.00000             0.67753            -2.97390           -11.27513             0.00796             0.00169             0.00003
           637.00000             0.71460            -2.90655           -11.92743             0.00844             0.00160             0.00003
           638.00000             0.75324            -2.84084           -12.54428             0.00887             0.00151             0.00002
           639.00000            -0.39680            -3.22330            -8.29179             0.00317             0.00119            -0.00010
           640.00000            -0.38190            -3.20905            -8.73401             0.00356             0.00108            -0.00011
           641.00000            -0.35601            -3.19209            -9.13444             0.00397             0.00096            -0.00011
           642.00000            -0.31078            -3.17460            -9.45301             0.00436             0.00066            -0.00010
           643.00000            -0.24742            -3.17004            -9.62437             0.00460             0.00022            -0.00008
           644.00000            -0.18314            -3.18319            -9.61691             0.00464            -0.00026            -0.00004
           645.00000            -0.12615            -3.21521            -9.43448             0.00448            -0.00068            -0.00002
           646.00000            -0.08310            -3.26111            -9.10705             0.00416            -0.00100            -0.00000
           647.00000            -0.05809            -3.30733            -8.68741             0.00379            -0.00115             0.00000
           648.00000            -0.05273            -3.35005            -8.21643             0.00347            -0.00126            -0.00003
           649.00000            -0.03842            -3.39809            -7.73301             0.00315            -0.00121            -0.00004
           650.00000             0.00332            -3.43217            -7.32169             0.00288            -0.00088            -0.00003
           651.00000             0.07614            -3.45076            -7.09646             0.00273            -0.00026            -0.00001
           652.00000             0.17096            -3.46351            -7.15171             0.00274             0.00055             0.00000
           653.00000             0.27600            -3.46855            -7.53347             0.00294             0.00141             0.00003
           654.00000             0.37256            -3.45315            -8.22607             0.00332             0.00214             0.00006
           655.00000             0.44161            -3.40990            -9.14668             0.00383             0.00257             0.00007
           656.00000             0.47862            -3.34706           -10.17096             0.00438             0.00268             0.00004
           657.00000             0.50637            -3.28902           -11.20483             0.00490             0.00264            -0.00001
           658.00000             0.53664            -3.22958           -12.20944             0.00545             0.00253            -0.00002
           659.00000             0.57038            -3.16666           -13.15998             0.00600             0.00237            -0.00002
           660.00000             0.60531            -3.09996           -14.04951             0.00650             0.00223            -0.00002
           661.00000             0.63970            -3.03294           -14.88855             0.00700             0.00210            -0.00003
           662.00000             0.67459            -2.96255           -15.68216             0.00752             0.00199            -0.00004
           663.00000            -0.47760            -3.39754            -9.20894             0.00162             0.00153            -0.00007
           664.00000            -0.47313            -3.37787            -9.79039             0.00195             0.00145            -0.00008
           665.00000            -0.45261            -3.35462           -10.34090             0.00231             0.00136            -0.00008
           666.00000            -0.38853            -3.33664           -10.79495             0.00262             0.00096            -0.00007
           667.00000            -0.29703            -3.32799           -11.05316             0.00283             0.00036            -0.00006
           668.00000            -0.19699            -3.33506           -11.06539             0.00289            -0.00030            -0.00004
           669.00000            -0.10522            -3.36123           -10.82819             0.00277            -0.00091            -0.00003
           670.00000            -0.04248            -3.40201           -10.38851             0.00251            -0.00133            -0.00001
           671.00000            -0.02372            -3.44567            -9.84323             0.00222            -0.00144            -0.00002
           672.00000            -0.03113            -3.48877            -9.25505             0.00194            -0.00154            -0.00004
           673.00000            -0.02690            -3.53530            -8.65799             0.00167            -0.00149            -0.00004
           674.00000             0.00821            -3.57222            -8.15236             0.00146            -0.00108            -0.00003
           675.00000             0.08131            -3.59792            -7.87290             0.00133            -0.00034            -0.00002
           676.00000             0.18194            -3.61375            -7.92892             0.00132             0.00063            -0.00000
           677.00000             0.29110            -3.61877            -8.37307             0.00145             0.00165             0.00002
           678.00000             0.38594            -3.60846            -9.18638             0.00169             0.00252             0.00004
           679.00000             0.43997            -3.57940           -10.26776             0.00201             0.00300             0.00005
           680.00000             0.45458            -3.53505           -11.46337             0.00235             0.00310             0.00003
           681.00000             0.45402            -3.49730           -12.66006             0.00269             0.00303            -0.00001
           682.00000             0.46848            -3.45972           -13.84283             0.00306             0.00306            -0.00002
           683.00000             0.49813            -3.41580           -14.98037             0.00347             0.00280            -0.00001
           684.00000             0.54235            -3.35282           -16.05085             0.00393             0.00270             0.00001
           685.00000             0.54568            -3.29042           -17.07425             0.00440             0.00257            -0.00003
           686.00000             0.57162            -3.22047           -18.06720             0.00494             0.00256            -0.00005
           687.00000            -0.52999            -3.59747            -9.49260            -0.00014             0.00175            -0.00002
           688.00000            -0.53358            -3.58555           -10.16709             0.00000             0.00171            -0.00003
           689.00000            -0.50789            -3.57412           -10.81303             0.00014             0.00160            -0.00002
           690.00000            -0.43873            -3.56407           -11.35285             0.00029             0.00117            -0.00003
           691.00000            -0.33259            -3.55776           -11.67640             0.00041             0.00049            -0.00003
           692.00000            -0.20889            -3.56184           -11.71066             0.00047            -0.00031            -0.00003
           693.00000            -0.09690            -3.57807           -11.44226             0.00042            -0.00106            -0.00003
           694.00000            -0.02327            -3.60395           -10.93087             0.00031            -0.00155            -0.00003
           695.00000            -0.00503            -3.63824           -10.30094             0.00016            -0.00165            -0.00004
           696.00000            -0.01770            -3.67309            -9.62876            -0.00000            -0.00176            -0.00003
           697.00000            -0.01960            -3.70552            -8.95470            -0.00013            -0.00166            -0.00004
           698.00000             0.00940            -3.74038            -8.38681            -0.00024            -0.00122            -0.00005
           699.00000             0.08436            -3.77140            -8.06769            -0.00031            -0.00040            -0.00003
           700.00000             0.19067            -3.78934            -8.11952            -0.00033             0.00067            -0.00000
           701.00000             0.30318            -3.79214            -8.59614            -0.00029             0.00177             0.00002
           702.00000             0.39528            -3.78648            -9.46978            -0.00021             0.00270             0.00002
           703.00000             0.43787            -3.77846           -10.62632            -0.00014             0.00321             0.00001
           704.00000             0.44033            -3.76837           -11.90320            -0.00006             0.00332             0.00001
           705.00000             0.42735            -3.75894           -13.18014             0.00003             0.00323            -0.00000
           706.00000             0.43357            -3.75452           -14.44927             0.00012             0.00329            -0.00001
           707.00000             0.45768            -3.74310           -15.69297             0.00024             0.00311             0.00000
           708.00000             0.49978            -3.72637           -16.88235             0.00041             0.00302            -0.00002
           709.00000             0.48424            -3.71312           -18.02351             0.00056             0.00286            -0.00001
           710.00000             0.49186            -3.69411           -19.14598             0.00072             0.00293            -0.00001
           711.00000            -0.53382            -3.79442            -9.10299            -0.00189             0.00179             0.00002
           712.00000            -0.53937            -3.79624            -9.78816            -0.00198             0.00173             0.00003
           713.00000            -0.51189            -3.79674           -10.44419            -0.00206             0.00163             0.00002
           714.00000            -0.45042            -3.79874           -11.00294            -0.00211             0.00123             0.00001
           715.00000            -0.34477            -3.80118           -11.35041            -0.00212             0.00054            -0.00000
           716.00000            -0.21799            -3.80586           -11.39830            -0.00210            -0.00030            -0.00002
           717.00000            -0.10370            -3.81123           -11.13088            -0.00205            -0.00107            -0.00003
           718.00000            -0.02997            -3.81914           -10.60960            -0.00200            -0.00159            -0.00004
           719.00000            -0.00958            -3.83893            -9.95236            -0.00198            -0.00176            -0.00005
           720.00000            -0.01674            -3.85784            -9.25123            -0.00197            -0.00180            -0.00003
           721.00000            -0.02217            -3.87544            -8.55919            -0.00194            -0.00171            -0.00004
           722.00000             0.00441            -3.90911            -7.97129            -0.00194            -0.00128            -0.00006
           723.00000             0.08301            -3.94578            -7.63462            -0.00195            -0.00043            -0.00005
           724.00000             0.19403            -3.96546            -7.67838            -0.00198             0.00066            -0.00001
           725.00000             0.31041            -3.96374            -8.15483            -0.00202             0.00178             0.00001
           726.00000             0.40150            -3.95945            -9.02684            -0.00210             0.00268             0.00000
           727.00000             0.44340            -3.96927           -10.17190            -0.00223             0.00317            -0.00001
           728.00000             0.44748            -3.99018           -11.43380            -0.00238             0.00328            -0.00001
           729.00000             0.43642            -4.01110           -12.69833            -0.00253             0.00320            -0.00000
           730.00000             0.44337            -4.03692           -13.94829            -0.00271             0.00322             0.00001
           731.00000             0.47158            -4.06240           -15.18475            -0.00288             0.00315            -0.00000
           732.00000             0.49662            -4.11061           -16.35371            -0.00316             0.00288            -0.00004
           733.00000             0.50452            -4.17477           -17.44773            -0.00355             0.00276            -0.00001
           734.00000             0.52202            -4.24154           -18.52372            -0.00398             0.00279             0.00001
           735.00000            -0.50009            -3.96953            -8.08172            -0.00345             0.00161             0.00006
           736.00000            -0.49251            -3.97166            -8.70670            -0.00366             0.00160             0.00008
           737.00000            -0.47115            -3.97497            -9.30450            -0.00388             0.00147             0.00007
           738.00000            -0.41675            -3.98814            -9.80990            -0.00411             0.00111             0.00005
           739.00000            -0.32650            -4.00316           -10.12409            -0.00427             0.00049             0.00003
           740.00000            -0.22140            -4.01022           -10.16961            -0.00430            -0.00026            -0.00000
           741.00000            -0.12740            -4.00644            -9.93455            -0.00418            -0.00095            -0.00003
           742.00000            -0.06165            -3.99895            -9.46516            -0.00397            -0.00145            -0.00005
           743.00000            -0.03578            -3.99941            -8.84980            -0.00377            -0.00169            -0.00006
           744.00000            -0.03478            -4.00401            -8.18533            -0.00359            -0.00169            -0.00005
           745.00000            -0.03902            -4.01474            -7.52590            -0.00346            -0.00166            -0.00006
           746.00000            -0.00904            -4.04952            -6.95366            -0.00338            -0.00126            -0.00008
           747.00000             0.07546            -4.09356            -6.62144            -0.00334            -0.00043            -0.00006
           748.00000             0.18927            -4.11510            -6.65369            -0.00337             0.00060            -0.00002
           749.00000             0.30967            -4.10833            -7.09831            -0.00350             0.00167             0.00001
           750.00000             0.40325            -4.10363            -7.91535            -0.00371             0.00251            -0.00001
           751.00000             0.45299            -4.12350            -8.98277            -0.00398             0.00295            -0.00003
           752.00000             0.46815            -4.16582           -10.15526            -0.00429             0.00305            -0.00003
           753.00000             0.46885            -4.20903           -11.32922            -0.00461             0.00297             0.00000
           754.00000             0.48905            -4.25657           -12.47456            -0.00499             0.00292             0.00000
           755.00000             0.51892            -4.32248           -13.58818            -0.00545             0.00282            -0.00000
           756.00000             0.55174            -4.38720           -14.62014            -0.00589             0.00251             0.00001
           757.00000             0.57825            -4.45309           -15.56096            -0.00631             0.00235             0.00002
           758.00000             0.60793            -4.52849           -16.46378            -0.00680             0.00232             0.00003
           759.00000            -0.43328            -4.10304            -6.53367            -0.00465             0.00141             0.00012
           760.00000            -0.42184            -4.08998            -7.07395            -0.00488             0.00136             0.00012
           761.00000            -0.39541            -4.08945            -7.57617            -0.00515             0.00121             0.00010
           762.00000            -0.34746            -4.10544            -7.97682            -0.00547             0.00085             0.00008
           763.00000            -0.28548            -4.12532            -8.20985            -0.00571             0.00035             0.00004
           764.00000            -0.22103            -4.13319            -8.23854            -0.00577            -0.00020             0.00000
           765.00000            -0.16223            -4.12418            -8.05809            -0.00561            -0.00073            -0.00003
           766.00000            -0.11551            -4.10562            -7.68941            -0.00529            -0.00117            -0.00006
           767.00000            -0.08625            -4.09081            -7.17959            -0.00495            -0.00144            -0.00007
           768.00000            -0.07437            -4.09227            -6.59720            -0.00470            -0.00152            -0.00007
           769.00000            -0.06967            -4.10196            -5.99990            -0.00451            -0.00151            -0.00007
           770.00000            -0.02885            -4.13705            -5.47768            -0.00433            -0.00115            -0.00009
           771.00000             0.06091            -4.18593            -5.17279            -0.00422            -0.00041            -0.00008
           772.00000             0.17586            -4.20961            -5.19118            -0.00426             0.00050            -0.00003
           773.00000             0.29749            -4.20337            -5.57088            -0.00448             0.00144            -0.00001
           774.00000             0.39744            -4.20000            -6.28116            -0.00483             0.00219            -0.00003
           775.00000             0.46047            -4.22657            -7.21941            -0.00524             0.00260            -0.00006
           776.00000             0.49311            -4.28280            -8.24850            -0.00569             0.00266            -0.00005
           777.00000             0.52256            -4.34662            -9.26845            -0.00618             0.00256            -0.00001
           778.00000             0.55591            -4.41543           -10.23919            -0.00672             0.00241            -0.00001
           779.00000             0.59616            -4.49755           -11.15069            -0.00731             0.00225            -0.00001
           780.00000             0.62863            -4.57820           -11.99026            -0.00787             0.00204             0.00001
           781.00000             0.66285            -4.65342           -12.75781            -0.00837             0.00190             0.00001
           782.00000             0.69987            -4.73349           -13.47327            -0.00887             0.00178             0.00002
           783.00000            -0.35251            -4.16737            -4.63404            -0.00527             0.00119             0.00015
           784.00000            -0.33463            -4.13968            -5.08792            -0.00549             0.00109             0.00014
           785.00000            -0.30525            -4.13434            -5.48288            -0.00578             0.00086             0.00011
           786.00000            -0.26859            -4.14310            -5.76585            -0.00607             0.00053             0.00007
           787.00000            -0.23912            -4.15344            -5.91145            -0.00627             0.00018             0.00004
           788.00000            -0.22178            -4.15626            -5.92150            -0.00631            -0.00013             0.00000
           789.00000            -0.20388            -4.14863            -5.80208            -0.00615            -0.00045            -0.00003
           790.00000            -0.17674            -4.13482            -5.55098            -0.00587            -0.00078            -0.00005
           791.00000            -0.14689            -4.12131            -5.17187            -0.00553            -0.00110            -0.00006
           792.00000            -0.12386            -4.11699            -4.69680            -0.00521            -0.00127            -0.00006
           793.00000            -0.10305            -4.12476            -4.19301            -0.00492            -0.00127            -0.00006
           794.00000            -0.05211            -4.16184            -3.76112            -0.00463            -0.00094            -0.00007
           795.00000             0.03500            -4.20570            -3.50976            -0.00445            -0.00035            -0.00008
           796.00000             0.14981            -4.23212            -3.51440            -0.00449             0.00038            -0.00008
           797.00000             0.25895            -4.23792            -3.79943            -0.00476             0.00109            -0.00008
           798.00000             0.36105            -4.24120            -4.34668            -0.00527             0.00172            -0.00010
           799.00000             0.44304            -4.27387            -5.09137            -0.00587             0.00208            -0.00013
           800.00000             0.50737            -4.34263            -5.91180            -0.00652             0.00210            -0.00012
           801.00000             0.56244            -4.42598            -6.70731            -0.00721             0.00196            -0.00010
           802.00000             0.60878            -4.51261            -7.44544            -0.00789             0.00180            -0.00009
           803.00000             0.64982            -4.60116            -8.12181            -0.00853             0.00163            -0.00009
           804.00000             0.68887            -4.68675            -8.74007            -0.00913             0.00149            -0.00007
           805.00000             0.72585            -4.76788            -9.31157            -0.00966             0.00138            -0.00007
           806.00000             0.76622            -4.84762            -9.84782            -0.01012             0.00131            -0.00005
           807.00000            -0.09629            -2.79343             0.16531             0.00303             0.00000            -0.00011
           808.00000            -0.13944            -2.91607            -1.29570             0.00423             0.00015            -0.00016
           809.00000             0.21195            -2.22896             0.15471             0.00447             0.00012             0.00038
           810.00000             0.45722            -2.62251            -2.43470             0.00818             0.00055             0.00043
           811.00000            -0.09511            -2.84757             0.16627             0.00307            -0.00000            -0.00009
           812.00000            -0.08845            -2.88262             0.16088             0.00307             0.00001            -0.00006
           813.00000            -0.07784            -2.90918             0.14867             0.00307             0.00003            -0.00003
           814.00000            -0.06694            -2.92235             0.13415             0.00304             0.00002            -0.00003
           815.00000            -0.05417            -2.93786             0.12613             0.00301             0.00001            -0.00005
           816.00000            -0.03842            -2.95911             0.12229             0.00297             0.00000            -0.00008
           817.00000            -0.02116            -2.98709             0.11985             0.00293             0.00000            -0.00010
           818.00000            -0.00449            -3.02233             0.11850             0.00289             0.00000            -0.00013
           819.00000             0.00916            -3.06540             0.12057             0.00285            -0.00001            -0.00016
           820.00000             0.01634            -3.11318             0.13016             0.00283            -0.00003            -0.00015
           821.00000             0.02005            -3.15654             0.14799             0.00283            -0.00004            -0.00011
           822.00000             0.02347            -3.18401             0.16542             0.00284            -0.00003            -0.00005
           823.00000             0.02447            -3.18663             0.17552             0.00284            -0.00002             0.00001
           824.00000             0.02230            -3.18160             0.18447             0.00289            -0.00002             0.00006
           825.00000             0.02259            -3.15797             0.19176             0.00296            -0.00001             0.00014
           826.00000             0.02198            -3.11074             0.19376             0.00304             0.00000             0.00020
           827.00000             0.02695            -3.04582             0.19171             0.00317             0.00000             0.00029
           828.00000             0.03472            -2.94950             0.18930             0.00329            -0.00001             0.00035
           829.00000             0.04942            -2.84149             0.19613             0.00345            -0.00003             0.00037
           830.00000             0.07688            -2.73490             0.21032             0.00364            -0.00004             0.00036
           831.00000             0.11318            -2.63579             0.22506             0.00384            -0.00003             0.00033
           832.00000             0.15156            -2.54564             0.23442             0.00403            -0.00001             0.00029
           833.00000             0.18551            -2.46127             0.23260             0.00422             0.00004             0.00029
           834.00000             0.21219            -2.36456             0.20574             0.00439             0.00013             0.00036
           835.00000            -0.13146            -2.98963            -1.35395             0.00444             0.00015            -0.00012
           836.00000            -0.12161            -3.03764            -1.40466             0.00464             0.00013            -0.00009
           837.00000            -0.11346            -3.07148            -1.44608             0.00477             0.00010            -0.00008
           838.00000            -0.10373            -3.09588            -1.47279             0.00485             0.00005            -0.00008
           839.00000            -0.09436            -3.11648            -1.48086             0.00487             0.00000            -0.00008
           840.00000            -0.08468            -3.13805            -1.47321             0.00485            -0.00004            -0.00009
           841.00000            -0.07346            -3.16241            -1.45307             0.00478            -0.00007            -0.00010
           842.00000            -0.05994            -3.18986            -1.42192             0.00467            -0.00010            -0.00011
           843.00000            -0.04357            -3.22034            -1.37950             0.00451            -0.00013            -0.00011
           844.00000            -0.02369            -3.25221            -1.32623             0.00433            -0.00015            -0.00009
           845.00000            -0.00202            -3.27798            -1.26553             0.00413            -0.00016            -0.00006
           846.00000             0.01749            -3.28943            -1.21024             0.00395            -0.00013            -0.00002
           847.00000             0.03957            -3.29038            -1.17974             0.00386            -0.00003             0.00002
           848.00000             0.06216            -3.28424            -1.18632             0.00389             0.00006             0.00006
           849.00000             0.08342            -3.27217            -1.22716             0.00407             0.00014             0.00011
           850.00000             0.11993            -3.24193            -1.30056             0.00435             0.00024             0.00018
           851.00000             0.16347            -3.19191            -1.40487             0.00471             0.00031             0.00025
           852.00000             0.20811            -3.12471            -1.52214             0.00513             0.00033             0.00031
           853.00000             0.24961            -3.04687            -1.63925             0.00557             0.00032             0.00035
           854.00000             0.28926            -2.96854            -1.75416             0.00602             0.00032             0.00037
           855.00000             0.32698            -2.89494            -1.86731             0.00645             0.00031             0.00037
           856.00000             0.36257            -2.82766            -1.98190             0.00686             0.00032             0.00037
           857.00000             0.39632            -2.76428            -2.10531             0.00727             0.00035             0.00037
           858.00000             0.42729            -2.69896            -2.25088             0.00769             0.00042             0.00038
