/COM,ANSYS RELEASE 2022 R1           BUILD 22.1      UP20211129       13:38:19

 *** WARNING ***                         CP =       0.234   TIME= 13:38:21
 Discontinuous area set for VA command.  Line 1 is used 1 times for      
 this list of areas.                                                     

 *** WARNING ***                         CP =       0.234   TIME= 13:38:21
 Discontinuous area set for VA command.  Line 9 is used 1 times for      
 this list of areas.                                                     

 *** WARNING ***                         CP =       0.266   TIME= 13:38:21
 Discontinuous area set for VA command.  Line 14 is used 1 times for     
 this list of areas.                                                     

 *** WARNING ***                         CP =       0.844   TIME= 13:38:22
 The MINREF field of the CNVTOL command has been assigned a default      
 value of 1.0 for convergence on F.  Check results carefully.            

 *** WARNING ***                         CP =       0.844   TIME= 13:38:22
 The Distributed ANSYS solution does not currently support MPC184        
 elements with the direct elimination method (KEYOPT(2) = 0).            
 Distributed parallel processing will be deactivated for this solution.  

 *** WARNING ***                         CP =       0.859   TIME= 13:38:22
 MPC184 elements are being used in the current analysis and the          
 NLGEOM,ON command has not been used.  Thus, only linearized behavior    
 will be considered.  If finite rotation and large deflection effects    
 are to be considered, please use the NLGEOM,ON command.                 

 *** WARNING ***                         CP =       0.891   TIME= 13:38:22
 ANSYS,INC.-supplied version of coding for USERCK has been used.         

 *** WARNING ***                         CP =       0.891   TIME= 13:38:22
 ANSYS,INC.-supplied version of coding for USERCK has been used.         

 *** WARNING ***                         CP =       0.891   TIME= 13:38:22
 ANSYS,INC.-supplied version of coding for USERCK has been used.         

 *** WARNING ***                         CP =       0.891   TIME= 13:38:22
 ANSYS,INC.-supplied version of coding for USERCK has been used.         

 *** WARNING ***                         CP =     110.500   TIME= 13:39:19
 The MINREF field of the CNVTOL command has been assigned a default      
 value of 1.0 for convergence on F.  Check results carefully.            

 *** WARNING ***                         CP =     252.109   TIME= 13:40:53
 Parameter ITER_SMALLER already exists.  It is deleted and redefined by  
 the *DIM command.                                                       

 *** WARNING ***                         CP =     252.109   TIME= 13:40:53
 Parameter COUNTER already exists.  It is deleted and redefined by the   
 *DIM command.                                                           

 *** WARNING ***                         CP =     252.984   TIME= 13:40:54
 The MINREF field of the CNVTOL command has been assigned a default      
 value of 1.0 for convergence on F.  Check results carefully.            

 *** WARNING ***                         CP =     253.000   TIME= 13:40:54
 The Distributed ANSYS solution does not currently support MPC184        
 elements with the direct elimination method (KEYOPT(2) = 0).            
 Distributed parallel processing will be deactivated for this solution.  

 *** WARNING ***                         CP =     327.094   TIME= 13:41:55
 The MINREF field of the CNVTOL command has been assigned a default      
 value of 1.0 for convergence on F.  Check results carefully.            

 *** WARNING ***                         CP =     327.109   TIME= 13:41:55
 The Distributed ANSYS solution does not currently support MPC184        
 elements with the direct elimination method (KEYOPT(2) = 0).            
 Distributed parallel processing will be deactivated for this solution.  

 *** WARNING ***                         CP =     402.078   TIME= 13:42:57
 The MINREF field of the CNVTOL command has been assigned a default      
 value of 1.0 for convergence on F.  Check results carefully.            

 *** WARNING ***                         CP =     402.078   TIME= 13:42:57
 The Distributed ANSYS solution does not currently support MPC184        
 elements with the direct elimination method (KEYOPT(2) = 0).            
 Distributed parallel processing will be deactivated for this solution.  

 *** WARNING ***                         CP =     475.906   TIME= 13:43:59
 The MINREF field of the CNVTOL command has been assigned a default      
 value of 1.0 for convergence on F.  Check results carefully.            

 *** WARNING ***                         CP =     475.938   TIME= 13:43:59
 The Distributed ANSYS solution does not currently support MPC184        
 elements with the direct elimination method (KEYOPT(2) = 0).            
 Distributed parallel processing will be deactivated for this solution.  

 *** WARNING ***                         CP =     549.797   TIME= 13:45:00
 The MINREF field of the CNVTOL command has been assigned a default      
 value of 1.0 for convergence on F.  Check results carefully.            

 *** WARNING ***                         CP =     549.828   TIME= 13:45:00
 The Distributed ANSYS solution does not currently support MPC184        
 elements with the direct elimination method (KEYOPT(2) = 0).            
 Distributed parallel processing will be deactivated for this solution.  

 *** WARNING ***                         CP =     624.188   TIME= 13:46:02
 The MINREF field of the CNVTOL command has been assigned a default      
 value of 1.0 for convergence on F.  Check results carefully.            

 *** WARNING ***                         CP =     624.203   TIME= 13:46:02
 The Distributed ANSYS solution does not currently support MPC184        
 elements with the direct elimination method (KEYOPT(2) = 0).            
 Distributed parallel processing will be deactivated for this solution.  

 *** WARNING ***                         CP =     698.703   TIME= 13:47:03
 The MINREF field of the CNVTOL command has been assigned a default      
 value of 1.0 for convergence on F.  Check results carefully.            

 *** WARNING ***                         CP =     698.703   TIME= 13:47:03
 The Distributed ANSYS solution does not currently support MPC184        
 elements with the direct elimination method (KEYOPT(2) = 0).            
 Distributed parallel processing will be deactivated for this solution.  

 *** WARNING ***                         CP =     772.781   TIME= 13:48:05
 The MINREF field of the CNVTOL command has been assigned a default      
 value of 1.0 for convergence on F.  Check results carefully.            

 *** WARNING ***                         CP =     772.797   TIME= 13:48:05
 The Distributed ANSYS solution does not currently support MPC184        
 elements with the direct elimination method (KEYOPT(2) = 0).            
 Distributed parallel processing will be deactivated for this solution.  

 *** WARNING ***                         CP =     847.797   TIME= 13:49:07
 The MINREF field of the CNVTOL command has been assigned a default      
 value of 1.0 for convergence on F.  Check results carefully.            

 *** WARNING ***                         CP =     847.812   TIME= 13:49:07
 The Distributed ANSYS solution does not currently support MPC184        
 elements with the direct elimination method (KEYOPT(2) = 0).            
 Distributed parallel processing will be deactivated for this solution.  

 *** WARNING ***                         CP =     919.078   TIME= 13:50:06
 The MINREF field of the CNVTOL command has been assigned a default      
 value of 1.0 for convergence on F.  Check results carefully.            

 *** WARNING ***                         CP =     919.094   TIME= 13:50:06
 The Distributed ANSYS solution does not currently support MPC184        
 elements with the direct elimination method (KEYOPT(2) = 0).            
 Distributed parallel processing will be deactivated for this solution.  

 *** WARNING ***                         CP =     992.781   TIME= 13:51:07
 The MINREF field of the CNVTOL command has been assigned a default      
 value of 1.0 for convergence on F.  Check results carefully.            

 *** WARNING ***                         CP =     992.797   TIME= 13:51:07
 The Distributed ANSYS solution does not currently support MPC184        
 elements with the direct elimination method (KEYOPT(2) = 0).            
 Distributed parallel processing will be deactivated for this solution.  

 *** WARNING ***                         CP =    1065.891   TIME= 13:52:08
 The MINREF field of the CNVTOL command has been assigned a default      
 value of 1.0 for convergence on F.  Check results carefully.            

 *** WARNING ***                         CP =    1065.906   TIME= 13:52:08
 The Distributed ANSYS solution does not currently support MPC184        
 elements with the direct elimination method (KEYOPT(2) = 0).            
 Distributed parallel processing will be deactivated for this solution.  

 *** WARNING ***                         CP =    1137.328   TIME= 13:53:07
 The MINREF field of the CNVTOL command has been assigned a default      
 value of 1.0 for convergence on F.  Check results carefully.            

 *** WARNING ***                         CP =    1137.344   TIME= 13:53:07
 The Distributed ANSYS solution does not currently support MPC184        
 elements with the direct elimination method (KEYOPT(2) = 0).            
 Distributed parallel processing will be deactivated for this solution.  

 *** WARNING ***                         CP =    1217.797   TIME= 13:54:16
 Parameter ELE_LB already exists.  It is deleted and redefined by the    
 *DIM command.                                                           

 *** WARNING ***                         CP =    1217.906   TIME= 13:54:16
 Parameter VRD already exists.  It is deleted and redefined by the *DIM  
 command.                                                                

 *** WARNING ***                         CP =    1217.906   TIME= 13:54:16
 Parameter VNW already exists.  It is deleted and redefined by the *DIM  
 command.                                                                
