           401.00000           590.23210           305.93545
           402.00000           491.65818           276.68011
           403.00000           632.85395           454.87220
           404.00000           430.17193           502.61111
           405.00000           684.30775           530.57620
           406.00000           388.21490           613.05061
           407.00000           719.16756           578.19801
           408.00000           359.38163           689.40943
           409.00000           736.26380           573.40170
           410.00000           343.96626           715.84131
           411.00000           742.31079           567.70033
           412.00000           340.08225           727.73335
           413.00000           743.69595           573.84960
           414.00000           345.97105           740.11948
           415.00000           737.59500           581.27973
           416.00000           358.34248           741.23101
           417.00000           719.65939           563.10179
           418.00000           378.11841           704.61552
           419.00000           687.14572           511.58731
           420.00000           409.70757           587.53172
           421.00000           637.70784           422.31394
           422.00000           449.53061           448.59235
           423.00000           616.34081           322.02899
           424.00000           482.98401           363.03433
           425.00000           621.33992           282.23950
           426.00000           498.57229           302.28689
           427.00000           621.96770           269.91079
           428.00000           502.47568           281.88776
           429.00000           608.67475           282.95440
           430.00000           494.12725           305.25694
           431.00000           603.72421           346.95533
           432.00000           452.13050           332.31358
           433.00000           612.59810           436.34335
           434.00000           379.84252           407.91805
           435.00000           627.99300           545.24254
           436.00000           313.47378           544.63660
           437.00000           645.15336           631.99824
           438.00000           265.21892           665.98007
           439.00000           665.74101           667.52714
           440.00000           230.15255           734.73217
           441.00000           687.49643           682.80295
           442.00000           204.54845           769.59312
           443.00000           707.33273           685.69124
           444.00000           185.45706           788.90290
           445.00000           721.28233           701.14981
           446.00000           171.24770           796.84227
           447.00000           740.79013           705.45470
           448.00000           159.43222           793.10514
           449.00000           722.09426           647.81441
           450.00000           145.43059          1040.60763
           451.00000           739.52871           166.79318
           452.00000           664.58733           125.76960
           453.00000           597.86295            92.41194
           454.00000           580.35348            56.14206
           455.00000           655.67451            11.47631
           456.00000           542.03693            26.03830
           457.00000           572.78903            70.11416
           458.00000           595.82112           115.68454
           459.00000           666.48407           157.04946
           460.00000           700.28975           247.32598
           461.00000           770.84740           265.09773
           462.00000           720.84723           220.70518
           463.00000           634.86826           165.65276
           464.00000           614.58894           127.80541
           465.00000           686.70502            79.12024
           466.00000           647.21351            67.31911
           467.00000           597.74874           114.65176
           468.00000           632.20774           148.42358
           469.00000           738.32027           252.46912
           470.00000           786.46440           393.35188
           471.00000            -1.00000           273.11684
           472.00000           765.65045           254.71832
           473.00000           679.32066           215.80516
           474.00000           624.42885           176.65979
           475.00000           671.21453           111.57949
           476.00000           625.79644            95.54802
           477.00000           590.77130           151.84469
           478.00000           654.09277           169.61287
           479.00000           775.84349           274.65383
           480.00000            -1.00000           416.51210
           481.00000            -1.00000           289.50956
           482.00000            -1.00000           288.67428
           483.00000           695.30057           274.20116
           484.00000           589.32350           224.02858
           485.00000           577.31374           103.27252
           486.00000           570.78491            86.30031
           487.00000           573.66218           175.57123
           488.00000           638.46717           189.14706
           489.00000           768.28080           277.80582
           490.00000            -1.00000           425.09971
           491.00000            -1.00000           284.32081
           492.00000            -1.00000           303.81613
           493.00000           694.33879           319.33320
           494.00000           568.14663           249.62089
           495.00000           528.05668           103.76741
           496.00000           538.67903            58.96349
           497.00000           546.14006           174.25385
           498.00000           613.24875           218.75694
           499.00000           743.40812           296.17347
           500.00000            -1.00000           421.41861
           501.00000            -1.00000           274.90308
           502.00000            -1.00000           307.09791
           503.00000           698.52549           341.80250
           504.00000           568.29077           261.53738
           505.00000           508.31580           112.30364
           506.00000           498.43057            30.65668
           507.00000           526.81300           170.99977
           508.00000           599.21611           237.67371
           509.00000           724.78619           312.19182
           510.00000            -1.00000           410.78161
           511.00000            -1.00000           286.27054
           512.00000            -1.00000           311.59765
           513.00000           707.05980           337.59191
           514.00000           575.18607           260.51889
           515.00000           518.75064           114.67341
           516.00000           541.28109            36.30288
           517.00000           531.91530           168.54409
           518.00000           602.54114           236.38674
           519.00000           732.59060           316.87962
           520.00000            -1.00000           417.22153
           521.00000            -1.00000           300.57674
           522.00000            -1.00000           307.08734
           523.00000           714.62721           312.83356
           524.00000           589.25417           235.42282
           525.00000           573.81628           113.20875
           526.00000           627.89184            67.04626
           527.00000           558.88436           169.48367
           528.00000           620.57790           221.77534
           529.00000           756.43360           297.96484
           530.00000            -1.00000           427.97208
           531.00000            -1.00000           299.70160
           532.00000            -1.00000           294.70095
           533.00000           716.48010           264.73823
           534.00000           622.81691           211.19377
           535.00000           685.44549           139.87245
           536.00000           716.92368           115.05956
           537.00000           607.89968           180.11660
           538.00000           656.25676           210.11968
           539.00000           777.79787           278.97916
           540.00000            -1.00000           418.65688
           541.00000            -1.00000           278.34320
           542.00000           778.34240           260.35736
           543.00000           701.35403           209.83983
           544.00000           652.79888           202.80407
           545.00000           733.92564           169.29063
           546.00000           750.72531           173.71136
           547.00000           670.92608           210.69376
           548.00000           688.84586           217.49568
           549.00000           781.33310           287.79923
           550.00000            -1.00000           416.91670
           551.00000           781.42172           243.15217
           552.00000           756.94369           207.79755
           553.00000           675.87099           178.59038
           554.00000           664.31263           189.33516
           555.00000           758.66198           169.78418
           556.00000           758.17207           179.49235
           557.00000           689.28511           201.41125
           558.00000           689.81737           214.68288
           559.00000           762.14522           263.59142
           560.00000           773.39481           359.42295
           561.00000           779.09051           203.99626
           562.00000           727.97865           174.97680
           563.00000           651.13758           163.13874
           564.00000           641.07579           150.35529
           565.00000           719.46497           125.07889
           566.00000           694.38867           125.51263
           567.00000           622.35139           150.12981
           568.00000           637.64371           187.86272
           569.00000           721.81429           233.89043
           570.00000           748.73544           295.10144
           571.00000           774.55187           181.86449
           572.00000           706.11088           165.84889
           573.00000           627.88346           138.30654
           574.00000           598.14265            97.28970
           575.00000           637.65915            61.65493
           576.00000           593.89623            74.12916
           577.00000           565.14767           125.72124
           578.00000           618.06647           178.31796
           579.00000           733.21078           226.17525
           580.00000           732.39214           253.55274
           581.00000           762.75742           172.42736
           582.00000           689.46968           155.62848
           583.00000           611.75164           123.28524
           584.00000           564.83110            73.29569
           585.00000           561.06932            17.20045
           586.00000           536.34145            49.00164
           587.00000           562.81910           116.54926
           588.00000           623.99308           182.26609
           589.00000           732.33632           222.80860
           590.00000           723.91648           240.38903
           591.00000           745.50849           178.26291
           592.00000           674.15207           151.17727
           593.00000           598.72524           127.64048
           594.00000           556.95731            84.99707
           595.00000           555.63903            42.92475
           596.00000           557.73514            61.32358
           597.00000           563.06171           117.57193
           598.00000           611.69418           173.72267
           599.00000           704.29503           226.61435
           600.00000           720.38644           270.44463
           601.00000           737.01695           210.52695
           602.00000           664.60270           181.59070
           603.00000           591.72441           154.84534
           604.00000           561.87730           130.00645
           605.00000           566.00945            94.83897
           606.00000           578.86277           103.95736
           607.00000           577.36833           141.99426
           608.00000           605.00505           187.55085
           609.00000           662.33921           240.52473
           610.00000           689.82840           304.36893
           611.00000           709.18127           251.80455
           612.00000           665.21657           237.56766
           613.00000           601.05204           208.56955
           614.00000           577.77595           212.35768
           615.00000           613.52373           187.58005
           616.00000           631.62350           179.99324
           617.00000           616.22476           195.34386
           618.00000           641.86071           214.97557
           619.00000           673.65726           275.49846
           620.00000           648.32313           371.49158
           621.00000           692.83093           300.63784
           622.00000           676.68724           301.67731
           623.00000           615.70292           278.15460
           624.00000           596.99482           239.75389
           625.00000           693.30417           237.32105
           626.00000           686.28640           219.35014
           627.00000           637.21427           220.89418
           628.00000           693.29426           213.16195
           629.00000           727.10841           295.16047
           630.00000           676.96951           422.65412
           631.00000           688.20561           353.46547
           632.00000           691.19289           359.43712
           633.00000           632.41777           342.30585
           634.00000           587.80447           231.34400
           635.00000           710.52394           168.02151
           636.00000           712.51909           184.60381
           637.00000           644.99705           208.90123
           638.00000           696.00919           196.72172
           639.00000           724.28047           284.17092
           640.00000           704.70273           444.15061
           641.00000           688.74283           393.20038
           642.00000           702.09409           392.41255
           643.00000           652.87211           380.40809
           644.00000           601.57633           255.72650
           645.00000           607.13085           106.47798
           646.00000           608.02972           140.13582
           647.00000           662.19582           196.86063
           648.00000           674.26340           181.57601
           649.00000           712.88230           279.35930
           650.00000           691.99457           458.99669
           651.00000           693.21580           410.54068
           652.00000           711.13377           403.70100
           653.00000           671.74023           397.11271
           654.00000           607.43392           275.86499
           655.00000           365.62938           103.02600
           656.00000           406.11274           122.56008
           657.00000           640.03084           179.41672
           658.00000           653.43461           171.25606
           659.00000           701.01458           279.52314
           660.00000           694.14935           462.51131
           661.00000           704.80060           420.42554
           662.00000           722.34188           406.46393
           663.00000           687.60108           397.40481
           664.00000           584.08012           275.06928
           665.00000           295.70880           103.30115
           666.00000           306.11935           101.12056
           667.00000           569.37912           158.24766
           668.00000           643.16446           170.55180
           669.00000           693.62934           279.93741
           670.00000           701.97635           465.00341
           671.00000           725.16336           435.82325
           672.00000           736.39297           407.03791
           673.00000           697.79473           404.02038
           674.00000           566.28258           279.29048
           675.00000           251.84481            95.69207
           676.00000           224.07281            81.73622
           677.00000           527.49599           160.18332
           678.00000           625.25271           178.97702
           679.00000           691.41406           283.53618
           680.00000           713.33587           472.68012
           681.00000           737.51230           394.12614
           682.00000           743.71287           362.82962
           683.00000           702.95539           370.37528
           684.00000           550.92847           275.84977
           685.00000           247.92322            85.16084
           686.00000           206.88280            58.85606
           687.00000           501.87664           154.89366
           688.00000           612.59612           149.63420
           689.00000           694.49909           249.09220
           690.00000           729.43708           442.51110
           691.00000           699.93266           374.63107
           692.00000           718.69512           328.62114
           693.00000           649.07839           409.09333
           694.00000           528.10565           364.97817
           695.00000           234.59632           158.85858
           696.00000           188.33607           125.70296
           697.00000           494.03478           239.37211
           698.00000           542.81481           248.80489
           699.00000           636.53173           310.75714
           700.00000           712.89979           412.94405
           701.00000           614.54537           177.81554
           702.00000           714.93085           184.61968
           703.00000           593.31205           286.82727
           704.00000           737.70328           276.01302
           705.00000           580.94689           343.29303
           706.00000           745.34481           294.14370
           707.00000           571.06936           383.48780
           708.00000           747.22470           303.61268
           709.00000           561.48960           407.76258
           710.00000           746.43772           305.32039
           711.00000           558.08643           415.01605
           712.00000           745.73472           308.56938
           713.00000           559.03596           414.47442
           714.00000           747.35042           311.58515
           715.00000           564.22078           407.67212
           716.00000           751.54242           312.13770
           717.00000           574.33806           392.74110
           718.00000           757.17225           305.81273
           719.00000           589.57641           362.84798
           720.00000           761.82299           282.05736
           721.00000           611.01715           319.82877
           722.00000           761.27883           247.01267
           723.00000           631.45391           262.14453
           724.00000           756.59509           219.13484
           725.00000           638.18552           219.65786
           726.00000           750.31367           199.28354
           727.00000           637.66456           202.91301
           728.00000           744.07838           185.32495
           729.00000           625.22923           187.38430
           730.00000           740.84161           192.10404
           731.00000           603.01816           213.01355
           732.00000           735.14879           226.90443
           733.00000           579.52019           271.59612
           734.00000           716.14044           267.68977
           735.00000           551.39828           342.47044
           736.00000           702.06759           308.18832
           737.00000           529.60238           420.00038
           738.00000           684.92482           361.02078
           739.00000           487.01841           464.09187
           740.00000           673.11871           409.89788
           741.00000           428.54285           484.24762
           742.00000           676.08803           431.47318
           743.00000           373.88762           501.15040
           744.00000           688.39518           438.37692
           745.00000           329.24375           522.39813
           746.00000           696.05958           462.44775
           747.00000           292.46113           518.33964
           748.00000           707.73810           476.00046
           749.00000           240.15104           792.27084
           750.00000           678.12114           493.34781
