           401.00000         -2621.43042        160379.37500         39161.62500             3.55534          -305.91479           305.93545           -70.51469            12.97005          -114.83247           194.00000           600.00000             0.00000
           402.00000          5268.38428        330975.21875         27376.84570            48.96768          -272.31241           276.68011            58.24559          -203.16408          -143.05862           194.00000           200.00000             0.00000
           403.00000         -7846.95508        161057.79688         58690.96094             3.77854          -454.85651           454.87220          -170.94490          -211.87183          -199.49307           582.00000           600.00000             0.00000
           404.00000          9898.91309        351606.03125         41224.83594            10.25258          -502.50653           502.61111            83.92372          -238.75375          -234.59602           582.00000           200.00000             0.00000
           405.00000        -20626.28516        146736.29688         61165.96875            -2.22624          -530.57153           530.57620          -254.04707          -351.01065          -222.55310           970.00000           600.00000             0.00000
           406.00000          6991.59619        370153.75000         40035.33594           -10.01440          -612.96881           613.05061            95.31015          -336.11224          -234.92130           970.00000           200.00000             0.00000
           407.00000        -28156.44141        134381.67188         49622.25000             4.66424          -578.17920           578.19801          -251.62007          -384.21387          -214.34421          1358.00000           600.00000             0.00000
           408.00000          2058.98730        373123.21875         31763.17969            -2.19100          -689.40594           689.40943           103.50932          -338.96466          -189.20139          1358.00000           200.00000             0.00000
           409.00000        -34188.71094        126904.17188         30707.00000           -15.54157          -573.19104           573.40170          -222.85706          -357.29700          -172.80765          1746.00000           600.00000             0.00000
           410.00000           620.29834        372183.43750         24619.85742           -11.87208          -715.74286           715.84131            99.04704          -324.50333          -150.52229          1746.00000           200.00000             0.00000
           411.00000        -40790.75391        126961.43750          9755.65137           -45.80117          -565.84973           567.70033          -227.61427          -358.57770          -125.60065          2134.00000           600.00000             0.00000
           412.00000           452.36960        372268.00000         20150.82422           -34.06141          -726.93579           727.73335            98.27792          -322.31354          -128.79015          2134.00000           200.00000             0.00000
           413.00000        -51034.25781        128337.50000        -14453.86816           -81.39073          -568.04834           573.84960          -259.71344          -381.29300           -61.94257          2522.00000           600.00000             0.00000
           414.00000         -1948.71558        372891.84375         14864.41797           -75.34117          -736.27478           740.11948            92.39386          -327.17673          -100.35876          2522.00000           200.00000             0.00000
           415.00000        -56372.79688        131291.06250        -37794.03516           -85.42694          -574.96814           581.27973          -299.67319          -411.59439             0.84954          2910.00000           600.00000             0.00000
           416.00000         -9228.02051        374410.31250          4044.01025           -85.26854          -736.31018           741.23101            74.69029          -341.58804           -36.75732          2910.00000           200.00000             0.00000
           417.00000        -54276.93750        140004.95312        -55981.80469           -62.44449          -559.62872           563.10179          -329.54712          -446.07935            51.04987          3298.00000           600.00000             0.00000
           418.00000         -9414.09180        375257.31250        -13232.64941           -41.55695          -703.38898           704.61552            70.45773          -358.26041            69.22668          3298.00000           200.00000             0.00000
           419.00000        -34235.30078        152553.93750        -59411.31641            -2.89327          -511.57913           511.58731          -228.34776          -413.26511            96.90771          3686.00000           600.00000             0.00000
           420.00000           649.64050        367344.93750        -30913.66406            20.05155          -587.18945           587.53172            63.36248          -327.24289           178.44261          3686.00000           200.00000             0.00000
           421.00000          2805.24146        163917.65625        -46302.72656            47.56401          -419.62689           422.31394           -46.78050          -244.06856           175.12721          4074.00000           600.00000             0.00000
           422.00000         11656.36230        347824.03125        -36843.41406            35.86512          -447.15634           448.59235            32.27934          -227.97604           214.60228          4074.00000           200.00000             0.00000
           423.00000         19966.16992        164363.04688        -29368.66016            28.50982          -320.76450           322.02899            82.60825           -97.74073           158.66795          4462.00000           600.00000             0.00000
           424.00000         33286.28125        320382.56250        -24696.12891             2.48184          -363.02585           363.03433          -103.86418          -203.79550           139.52826          4462.00000           200.00000             0.00000
           425.00000         28279.36914        165041.92188        -11010.95215            15.20189          -281.82980           282.23950            82.66663           -96.36563            56.42962          4850.00000           600.00000             0.00000
           426.00000         38592.48438        297627.31250        -10027.46875            -1.85164          -302.28122           302.28689          -139.26060          -182.01483            56.33060          4850.00000           200.00000             0.00000
           427.00000         29326.08984        164765.90625          8134.58936             2.16608          -269.90210           269.91079           100.36463           -86.39812           -41.22961          5238.00000           600.00000             0.00000
           428.00000         37852.75000        292579.21875          2560.89893            10.70597          -281.68439           281.88776          -132.14136          -173.46497            -7.68424          5238.00000           200.00000             0.00000
           429.00000         23813.89062        166492.29688         29545.13477            -1.68237          -282.94940           282.95440           135.36452           -47.27257          -151.41631          5626.00000           600.00000             0.00000
           430.00000         33470.67969        307212.37500         19813.13867            19.21155          -304.65179           305.25694           -82.30253          -181.46317          -104.28432          5626.00000           200.00000             0.00000
           431.00000         26540.90625        176017.84375         50137.14453             2.53472          -346.94608           346.95533            69.76371          -100.32236          -218.91856          6014.00000           600.00000             0.00000
           432.00000         16544.34961        334394.31250         40690.50391            20.93399          -331.65356           332.31358            77.77455          -150.18958          -225.20064          6014.00000           200.00000             0.00000
           433.00000          6762.50391        172812.37500         83165.04688            20.45733          -435.86353           436.34335          -100.28941          -275.63849          -189.27515          6402.00000           600.00000             0.00000
           434.00000         15817.61621        358236.50000         47656.80078            22.18212          -407.31448           407.91805           146.36018          -255.25250          -261.04446          6402.00000           200.00000             0.00000
           435.00000        -19969.37305        159621.18750        111720.53125            79.38892          -539.43195           545.24254          -310.82312          -442.72592          -121.90411          6790.00000           600.00000             0.00000
           436.00000          8608.07617        378273.25000         40478.66797            53.11022          -542.04089           544.63660           191.99277          -346.44821          -212.36143          6790.00000           200.00000             0.00000
           437.00000        -40547.91406        144583.43750        120499.43750           153.87584          -612.97961           631.99824          -463.20175          -479.03360           -56.06005          7178.00000           600.00000             0.00000
           438.00000          -635.74969        386921.96875         22558.91602           110.65009          -656.72369           665.98007           232.29106          -371.72971          -102.47607          7178.00000           200.00000             0.00000
           439.00000        -52962.34375        129426.33594        115147.68750           192.83244          -639.06818           667.52714          -513.40631          -445.29779            19.76567          7566.00000           600.00000             0.00000
           440.00000         -3783.39551        386984.34375          3711.84399           146.67705          -719.94250           734.73217           249.82610          -352.14783             9.91042          7566.00000           200.00000             0.00000
           441.00000        -60013.26953        119679.37500        104136.75781           212.15297          -649.00769           682.80295          -490.58124          -407.89880            90.90337          7954.00000           600.00000             0.00000
           442.00000         -2051.73926        387463.71875        -10620.37012           160.13499          -752.74854           769.59312           242.88531          -341.44662            93.74012          7954.00000           200.00000             0.00000
           443.00000        -61633.06250        115825.30469         91936.49219           217.97125          -650.12384           685.69124          -434.38977          -392.43338           141.93921          8342.00000           600.00000             0.00000
           444.00000           848.36255        390416.87500        -20384.35742           162.24887          -772.03827           788.90290           223.87810          -349.12726           150.36626          8342.00000           200.00000             0.00000
           445.00000        -57767.70703        113488.21875         80198.39062           218.53516          -666.22327           701.14981          -363.45334          -382.17950           174.38919          8730.00000           600.00000             0.00000
           446.00000          4070.20093        393991.93750        -26574.54883           163.09354          -779.97314           796.84227           202.27356          -362.58731           186.20140          8730.00000           200.00000             0.00000
           447.00000        -44180.36719        105357.33594         67149.53906           220.64760          -670.06042           705.45470          -274.73184          -374.65097           200.77180          9118.00000           600.00000             0.00000
           448.00000          9928.85449        391305.00000        -28786.36523           159.36189          -776.92957           793.10514           162.44080          -338.29160           200.71945          9118.00000           200.00000             0.00000
           449.00000        -22978.66016         75629.05469         43720.12891           146.08125          -631.12897           647.81441          -136.23083           -86.31307           119.98209          9506.00000           600.00000             0.00000
           450.00000         10715.64746        389411.31250        -24536.90430            63.88871         -1038.64453          1040.60763            76.10328          -321.22711           171.92117          9506.00000           200.00000             0.00000
           451.00000           677.74121        -23282.56836        -20104.50781            -9.67181           166.51253           166.79318           -45.72665            94.69454            12.90625           194.00000          4410.00000             0.00000
           452.00000          1746.50061       -101883.81250        -15317.88965            -7.15375           125.56599           125.76960             3.74024            99.05862           -17.31660           194.00000          4030.00000             0.00000
           453.00000           858.58484       -161311.84375        -10931.63770            -6.00651            92.21653            92.41194             4.56852            83.47977            -5.69460           194.00000          3650.00000             0.00000
           454.00000          -259.15781       -201777.03125         -7155.75928           -12.72107            54.68185            56.14206            -3.94393            76.09972            -0.82980           194.00000          3270.00000             0.00000
           455.00000           -63.46347       -220668.79688         -2694.87891            -7.45278             8.72707            11.47631             3.32052            74.11626             0.99808           194.00000          2890.00000             0.00000
           456.00000        -11583.19336       -220791.65625           630.59637            -4.03155           -25.72430            26.03830           -54.83864            71.01942             7.18304           194.00000          2510.00000             0.00000
           457.00000          1569.92041       -196120.18750          2758.39185           -17.22105           -67.96639            70.11416             5.29717           101.75122            10.87731           194.00000          2130.00000             0.00000
           458.00000          3921.83960       -157288.28125          3836.78394            -8.28183          -115.38771           115.68454            14.08294           116.49430             2.88691           194.00000          1750.00000             0.00000
           459.00000          3027.48633        -95181.10938         11215.97168           -11.70976          -156.61230           157.04946             9.02035           133.98712            24.72272           194.00000          1370.00000             0.00000
           460.00000          3545.82275          4608.61035         25989.56641           -36.19647          -244.66295           247.32598           -71.65808           128.15947           -20.17981           194.00000           990.00000             0.00000
           461.00000           124.39627        -13943.21289        -29823.16211           -26.51300           263.76859           265.09773           -95.38592          -122.62759            62.31276           582.00000          4410.00000             0.00000
           462.00000          -906.32788       -103722.35938        -18123.82422           -46.05983           215.84547           220.70518           -37.40924           -65.60310             9.48259           582.00000          4030.00000             0.00000
           463.00000         -2394.67896       -171781.60938        -13626.72852           -32.14041           162.50487           165.65276            24.11951           -40.51497           -16.92789           582.00000          3650.00000             0.00000
           464.00000          2359.20459       -221873.56250         -8644.29492           -46.81179           118.92384           127.80541            34.93392           -35.78556            -2.43303           582.00000          3270.00000             0.00000
           465.00000          4531.42432       -252260.85938         -2691.45996           -58.25695            53.53635            79.12024            33.42825           -38.32793             7.93138           582.00000          2890.00000             0.00000
           466.00000          7073.93896       -254849.89062          1774.82690           -52.73415           -41.84462            67.31911            17.86751           -36.09760            14.59616           582.00000          2510.00000             0.00000
           467.00000         -8446.84375       -227641.23438          4825.62500           -47.32659          -104.42806           114.65176           -42.04658           -41.32125            19.42077           582.00000          2130.00000             0.00000
           468.00000        -14469.44336       -183878.84375          5321.07812           -41.71982          -142.43951           148.42358            -6.38907           -54.76244            13.57328           582.00000          1750.00000             0.00000
           469.00000         -6442.47461       -117699.69531          8911.08594          -107.43810          -228.46819           252.46912           -21.28443           -84.86366           -12.06264           582.00000          1370.00000             0.00000
           470.00000          1825.21338         -6631.36719         43452.48047          -133.89474          -369.86200           393.35188          -156.85414          -160.72705           -83.21375           582.00000           990.00000             0.00000
           471.00000         -4598.87402         -2944.04761        -30778.36914           -35.53223           270.79562           273.11684          -121.96310          -253.41441            93.83949           970.00000          4410.00000             0.00000
           472.00000        -10247.07812        -99855.55469        -17699.74609           -76.25179           243.03722           254.71832           -86.68607          -228.73267            54.23323           970.00000          4030.00000             0.00000
           473.00000        -40414.37500       -185451.12500         -8558.47754           -63.63034           206.21117           215.80516          -110.34454          -207.78378             9.51061           970.00000          3650.00000             0.00000
           474.00000        -65268.95312       -255936.28125         -6500.63916           -67.16064           163.39563           176.65979          -281.13226          -211.93124            16.76874           970.00000          3270.00000             0.00000
           475.00000        -68428.96875       -299929.40625         -2605.84033           -80.94565            76.79704           111.57949          -256.92075          -209.17467            12.81003           970.00000          2890.00000             0.00000
           476.00000        -62797.15234       -303920.84375           122.92322           -73.65226           -60.86681            95.54802          -198.02437          -214.17502             5.85243           970.00000          2510.00000             0.00000
           477.00000        -45964.05469       -264674.06250          3031.42871           -59.92236          -139.52104           151.84469           -96.32749          -207.60936             6.16176           970.00000          2130.00000             0.00000
           478.00000        -31077.46094       -210454.95312          1986.54114           -57.48298          -159.57516           169.61287            -3.55198          -227.34467           -13.30712           970.00000          1750.00000             0.00000
           479.00000        -37160.80469       -141828.73438           986.94495          -145.23810          -233.11075           274.65383           -87.32013          -271.10974           -76.44023           970.00000          1370.00000             0.00000
           480.00000        -12608.98633        -26006.15625         45467.61719          -170.76752          -379.89575           416.51210          -218.97180          -312.88361          -140.27095           970.00000           990.00000             0.00000
           481.00000        -16393.27148         11237.58203        -26049.86523           -37.29805           287.09692           289.50956          -134.30402          -345.85733            95.75684          1358.00000          4410.00000             0.00000
           482.00000        -26479.78320        -89085.58594        -13593.03223           -83.40823           276.36191           288.67428          -131.87605          -342.73056            84.26560          1358.00000          4030.00000             0.00000
           483.00000        -41463.15234       -186351.39062         -1100.93286           -64.69542           266.45972           274.20116           -27.38658          -317.75616            44.26167          1358.00000          3650.00000             0.00000
           484.00000        -46603.67578       -273361.93750         -4619.36865           -48.85873           218.63583           224.02858            10.00293          -300.12357             5.23578          1358.00000          3270.00000             0.00000
           485.00000        -51750.52344       -329427.93750         -3960.76489           -53.34742            88.42662           103.27252            17.82830          -294.27341            -4.09871          1358.00000          2890.00000             0.00000
           486.00000        -51911.61328       -335628.81250         -2336.56177           -60.48518           -61.55717            86.30031            17.60705          -303.15381            -9.08251          1358.00000          2510.00000             0.00000
           487.00000        -55382.05859       -296406.06250         -2317.32715           -64.89990          -163.13571           175.57123           -20.60909          -323.54211           -26.32164          1358.00000          2130.00000             0.00000
           488.00000        -59848.78125       -235037.51562         -2767.05859           -44.68100          -183.79396           189.14706           -67.79449          -352.09296           -48.65147          1358.00000          1750.00000             0.00000
           489.00000        -61976.98438       -156097.79688         -2622.41040          -112.00730          -254.22517           277.80582          -138.95293          -374.32516          -100.54904          1358.00000          1370.00000             0.00000
           490.00000        -39674.69922        -41878.94922         33610.37109          -150.32845          -397.63190           425.09971          -317.78918          -400.05890          -177.18674          1358.00000           990.00000             0.00000
           491.00000        -28486.70508         20295.30273        -13653.20898           -28.39805           282.89905           284.32081          -136.56462          -381.78384            90.04553          1746.00000          4410.00000             0.00000
           492.00000        -40961.80078        -78885.74219         -4252.15137           -65.36636           296.70099           303.81613          -148.08118          -400.19501            79.11470          1746.00000          4030.00000             0.00000
           493.00000        -57557.50000       -187440.29688          2639.68213           -33.64000           317.55637           319.33320           -77.73311          -411.87485            52.49763          1746.00000          3650.00000             0.00000
           494.00000        -64477.11719       -291590.37500          -260.21628           -13.89450           249.23389           249.62089           -27.92159          -406.02045            21.48329          1746.00000          3270.00000             0.00000
           495.00000        -67513.56250       -354825.96875         -2988.36792           -30.08412            99.31073           103.76741             6.34015          -397.15091            -3.49281          1746.00000          2890.00000             0.00000
           496.00000        -71818.70312       -364556.28125         -4217.21191           -37.97635           -45.10532            58.96349            -0.54155          -398.17368           -21.52269          1746.00000          2510.00000             0.00000
           497.00000        -76085.58594       -325424.46875         -5264.89258           -44.92845          -168.36223           174.25385           -40.07351          -406.67505           -42.47083          1746.00000          2130.00000             0.00000
           498.00000        -78811.85156       -255225.20312         -6813.79004           -25.16974          -217.30412           218.75694          -103.38945          -418.79822           -69.16974          1746.00000          1750.00000             0.00000
           499.00000        -79287.59375       -163625.98438         -7661.12598           -69.12697          -287.99338           296.17347          -205.03343          -426.45920          -112.22723          1746.00000          1370.00000             0.00000
           500.00000        -61171.67578        -42455.28125         16256.05176          -113.29745          -405.90311           421.41861          -369.06332          -417.29767          -162.66383          1746.00000           990.00000             0.00000
           501.00000        -32949.87500         26833.22266          1885.22900           -15.78281           274.44965           274.90308          -132.79747          -416.82803            58.90737          2134.00000          4410.00000             0.00000
           502.00000        -49101.58203        -70251.18750          5117.15625            -7.86925           306.99707           307.09791          -151.27486          -444.83667            58.15501          2134.00000          4030.00000             0.00000
           503.00000        -63448.59766       -188595.45312          5778.82373            -3.62922           341.78323           341.80250          -110.04555          -467.23578            47.10261          2134.00000          3650.00000             0.00000
           504.00000        -70794.37500       -299762.75000          3566.90161            -0.17228           261.53732           261.53738           -48.54817          -468.23276            29.81132          2134.00000          3270.00000             0.00000
           505.00000        -76342.48438       -367006.46875            -8.08513            -4.58613           112.20996           112.30364           -14.33881          -459.18814             5.21385          2134.00000          2890.00000             0.00000
           506.00000        -82905.30469       -380010.68750         -3596.70288            -5.88852           -30.08583            30.65668           -24.37110          -452.06082           -20.86551          2134.00000          2510.00000             0.00000
           507.00000        -87771.28906       -342496.40625         -7725.44336            -4.96252          -170.92775           170.99977           -67.63048          -453.44049           -52.48449          2134.00000          2130.00000             0.00000
           508.00000        -88733.00781       -267684.40625        -10509.33594            -3.05169          -237.65411           237.67371          -134.34123          -459.00748           -77.26623          2134.00000          1750.00000             0.00000
           509.00000        -87123.19531       -166548.35938        -11680.05176           -17.60073          -311.69528           312.19182          -248.13548          -450.14603          -100.10947          2134.00000          1370.00000             0.00000
           510.00000        -74391.49219        -44524.98047         -5417.30420           -47.09334          -408.07321           410.78161          -373.64841          -388.77448          -111.69183          2134.00000           990.00000             0.00000
           511.00000        -28498.65625         25035.81250         19487.33984            -1.20564           286.26801           286.27054          -114.69625          -424.01846            12.95386          2522.00000          4410.00000             0.00000
           512.00000        -44348.01172        -75980.33594         13671.53906            52.11634           307.20837           311.59765          -159.48004          -468.40125            26.15299          2522.00000          4030.00000             0.00000
           513.00000        -60610.10938       -190600.35938          8364.21875            26.48075           336.55173           337.59191          -104.01272          -497.66705            35.43146          2522.00000          3650.00000             0.00000
           514.00000        -71199.86719       -300294.09375          8125.18359            13.68083           260.15942           260.51889           -70.57732          -497.08011            40.48783          2522.00000          3270.00000             0.00000
           515.00000        -77946.46094       -366426.53125          4290.30322            22.35420           112.47346           114.67341           -44.42701          -482.42899            20.30364          2522.00000          2890.00000             0.00000
           516.00000        -85557.53906       -380080.00000         -2608.71436            23.87588           -27.34669            36.30288           -63.84937          -474.37677           -18.37485          2522.00000          2510.00000             0.00000
           517.00000        -88553.77344       -343663.40625         -9617.65332            24.78528          -166.71173           168.54409           -95.57847          -475.96484           -57.83082          2522.00000          2130.00000             0.00000
           518.00000        -89134.55469       -269378.43750        -13852.03320             9.41930          -236.19901           236.38674          -154.93300          -479.73749           -81.16666          2522.00000          1750.00000             0.00000
           519.00000        -86303.39062       -167927.25000        -15079.91992            39.12464          -314.45502           316.87962          -247.76353          -472.91028           -81.75854          2522.00000          1370.00000             0.00000
           520.00000        -70334.94531        -41146.27344        -24405.91797            32.05073          -415.98865           417.22153          -368.06628          -435.88858           -61.35485          2522.00000           990.00000             0.00000
           521.00000        -18137.68164         17809.38867         31868.82422             9.20004           300.43591           300.57674          -109.19785          -438.98276           -28.72973          2910.00000          4410.00000             0.00000
           522.00000        -28910.73438        -85523.25000         25239.52930            90.31333           293.50662           307.08734          -144.22652          -483.74908           -16.62366          2910.00000          4030.00000             0.00000
           523.00000        -50230.96484       -193846.79688         11260.09863            55.82064           307.81308           312.83356           -70.32565          -492.40018            30.98183          2910.00000          3650.00000             0.00000
           524.00000        -61203.30469       -293474.15625         12749.83984            31.51501           233.30389           235.42282           -67.96542          -484.82675            55.31419          2910.00000          3270.00000             0.00000
           525.00000        -70811.96875       -353631.18750          7918.52148            57.20399            97.69301           113.20875           -86.21442          -473.57312            34.01954          2910.00000          2890.00000             0.00000
           526.00000        -77547.59375       -365798.71875         -2273.14771            61.02764           -27.76380            67.04626          -110.67783          -470.34869           -19.70324          2910.00000          2510.00000             0.00000
           527.00000        -80715.35938       -331198.21875        -11428.28906            58.32889          -159.13031           169.48367          -133.91962          -477.97531           -66.09035          2910.00000          2130.00000             0.00000
           528.00000        -80632.90625       -260957.95312        -16220.36621            27.73530          -220.03421           221.77534          -161.57988          -486.33215           -84.29411          2910.00000          1750.00000             0.00000
           529.00000        -78129.46094       -166555.01562        -18493.89453            83.49463          -286.02744           297.96484          -215.95102          -480.33200           -69.92792          2910.00000          1370.00000             0.00000
           530.00000        -53539.50000        -43299.27344        -46215.38281            92.57905          -417.83875           427.97208          -335.65512          -475.66748           -16.65889          2910.00000           990.00000             0.00000
           531.00000         -8518.56836         10937.04297         39323.13281            13.61373           299.39224           299.70160          -117.34999          -448.55951           -61.94201          3298.00000          4410.00000             0.00000
           532.00000         -7370.55176        -95205.05469         30290.13672            93.78277           279.38046           294.70095           -84.50671          -451.60510           -30.89255          3298.00000          4030.00000             0.00000
           533.00000        -33544.36328       -196190.37500         14149.45605            75.39941           253.77403           264.73823           -25.05561          -441.49512            40.20906          3298.00000          3650.00000             0.00000
           534.00000        -40148.67188       -279507.03125         15039.52441            68.76185           199.68629           211.19377           -63.70501          -429.82867            64.89217          3298.00000          3270.00000             0.00000
           535.00000        -49205.71094       -332962.18750          8734.41406           108.84403            87.84804           139.87245          -139.48358          -431.32275            34.72456          3298.00000          2890.00000             0.00000
           536.00000        -55559.53906       -343498.00000         -2368.36230           110.41512           -32.36053           115.05956          -173.32976          -441.33328           -25.21240          3298.00000          2510.00000             0.00000
           537.00000        -59123.89062       -309377.18750        -13144.46094            99.44984          -150.17230           180.11660          -171.83345          -451.42511           -80.71393          3298.00000          2130.00000             0.00000
           538.00000        -59141.78906       -244012.98438        -17528.05078            67.79411          -198.88248           210.11968          -146.96873          -463.73074           -92.20274          3298.00000          1750.00000             0.00000
           539.00000        -61903.42969       -161371.07812        -19743.30273           124.50330          -249.65636           278.97916          -184.46289          -468.60657           -55.85172          3298.00000          1370.00000             0.00000
           540.00000        -32446.41406        -37294.44531        -57859.27344           119.08224          -401.36392           418.65688          -254.77605          -458.85165            -7.27442          3298.00000           990.00000             0.00000
           541.00000          2248.27856           799.04626         40156.52344            21.29377           277.52750           278.34320           -74.83979          -402.86172           -77.77005          3686.00000          4410.00000             0.00000
           542.00000          2339.53467       -103660.04688         29844.68945            68.88866           251.07829           260.35736           -38.29810          -389.45853            -3.97798          3686.00000          4030.00000             0.00000
           543.00000         -2630.91577       -189739.85938         16109.64258            66.12499           199.14879           209.83983            46.52473          -349.63846            47.52576          3686.00000          3650.00000             0.00000
           544.00000          7024.55762       -257216.68750         15305.19629            98.86508           177.07396           202.80407            -7.26041          -337.69211            54.41582          3686.00000          3270.00000             0.00000
           545.00000         17191.95117       -304897.34375          9144.54004           145.80069            86.03184           169.29063           -74.29971          -342.78192            24.88790          3686.00000          2890.00000             0.00000
           546.00000         19708.27539       -312092.34375         -1144.27271           168.86406           -40.75003           173.71136          -102.14523          -355.63489           -26.32415          3686.00000          2510.00000             0.00000
           547.00000         12522.30273       -278364.18750        -12320.52441           156.66173          -140.88635           210.69376          -103.84306          -364.29535           -79.17065          3686.00000          2130.00000             0.00000
           548.00000        -21038.56445       -220964.56250        -17970.90625           116.04491          -183.95094           217.49568           -95.45474          -390.09875          -103.23878          3686.00000          1750.00000             0.00000
           549.00000        -24279.86719       -145658.68750        -23900.28320           159.62773          -239.47314           287.79923          -123.07832          -417.68460           -60.43447          3686.00000          1370.00000             0.00000
           550.00000        -16662.38281        -28576.99023        -59764.03516           144.37564          -391.12045           416.91670          -222.54216          -434.02222           -14.62990          3686.00000           990.00000             0.00000
           551.00000         10560.33594         -7703.14453         30998.25195            21.00633           242.24309           243.15217             6.88940          -284.58154           -78.38572          4074.00000          4410.00000             0.00000
           552.00000         10002.07227       -105173.53125         21728.64648            37.27153           204.42763           207.79755            56.12803          -254.11833            30.01057          4074.00000          4030.00000             0.00000
           553.00000          9373.92578       -181197.68750         17580.92578            50.44872           171.31682           178.59038            51.15889          -250.51451            66.56191          4074.00000          3650.00000             0.00000
           554.00000         28016.43164       -243760.73438         16817.38086           106.27705           156.69394           189.33516          -117.54331          -263.42535            39.81380          4074.00000          3270.00000             0.00000
           555.00000         38139.20703       -286834.34375          9523.71680           154.06491            71.34894           169.78418          -234.47449          -286.69107            -0.72255          4074.00000          2890.00000             0.00000
           556.00000         41213.76562       -291158.68750         -1618.08655           174.45326           -42.23225           179.49235          -291.16797          -304.22601           -48.61725          4074.00000          2510.00000             0.00000
           557.00000         34710.28125       -258507.35938        -12010.48730           160.39680          -121.81690           201.41125          -252.87868          -306.97269           -84.84329          4074.00000          2130.00000             0.00000
           558.00000         19330.79297       -200063.32812        -18782.59180           127.05598          -173.04773           214.68288          -119.21351          -302.56058          -105.25820          4074.00000          1750.00000             0.00000
           559.00000         11749.03223       -120607.70312        -29759.82617           133.32373          -227.38782           263.59142           -75.94983          -301.55710           -99.31639          4074.00000          1370.00000             0.00000
           560.00000          3395.27881         -6224.53809        -51393.26953           107.72999          -342.89810           359.42295          -150.32472          -320.42889            -4.57698          4074.00000           990.00000             0.00000
           561.00000         14755.33496        -15435.09961         14694.15332            13.39309           203.55614           203.99626           112.66593          -114.25783           -52.50815          4462.00000          4410.00000             0.00000
           562.00000         13562.62207       -100834.42188         10531.03125            18.82523           173.96118           174.97680           140.18794          -106.91167            30.49076          4462.00000          4030.00000             0.00000
           563.00000         32634.90039       -170952.03125         15028.19629            48.16199           155.86748           163.13874            26.55525          -137.06030            40.22087          4462.00000          3650.00000             0.00000
           564.00000         61226.15625       -229364.73438         14748.96484            88.80436           121.32806           150.35529          -145.30350          -170.44820            13.11666          4462.00000          3270.00000             0.00000
           565.00000         82058.80469       -265158.59375          8858.71387           115.79320            47.29338           125.07889          -276.39038          -193.45154           -22.55866          4462.00000          2890.00000             0.00000
           566.00000         88148.21094       -267455.37500          -119.20689           119.42854           -38.60366           125.51263          -323.94598          -203.63011           -56.08561          4462.00000          2510.00000             0.00000
           567.00000         78959.45312       -236560.48438         -7991.21973           108.13740          -104.14059           150.12981          -268.52753          -199.60027           -79.62509          4462.00000          2130.00000             0.00000
           568.00000         58232.26953       -178888.21875        -13781.70312            94.03457          -162.63426           187.86272          -141.67754          -182.67386           -93.78795          4462.00000          1750.00000             0.00000
           569.00000         35877.18750        -94779.52344        -18040.23828            71.22964          -222.78032           233.89043           -22.71309          -158.34755           -72.54721          4462.00000          1370.00000             0.00000
           570.00000         26671.67578         27363.04492        -23209.35742            40.57470          -292.29874           295.10144            28.99876           -62.66178            67.25713          4462.00000           990.00000             0.00000
           571.00000         11127.75977        -23269.40234          1583.84143             7.85002           181.69499           181.86449           191.23480            27.47712           -10.75997          4850.00000          4410.00000             0.00000
           572.00000         22597.83789        -94867.50781          2351.31836            13.01535           165.33740           165.84889           163.58304            10.99455            -0.25697          4850.00000          4030.00000             0.00000
           573.00000         52090.63281       -161751.65625          5259.36035            31.29932           134.71841           138.30654             9.65457           -23.40146            -1.20113          4850.00000          3650.00000             0.00000
           574.00000         85197.82031       -214642.85938          6244.10986            47.26288            85.03826            97.28970          -169.44937           -53.41537           -15.25834          4850.00000          3270.00000             0.00000
           575.00000        109613.77344       -244238.54688          4407.20557            56.12919            25.51166            61.65493          -305.56631           -67.11458           -34.14970          4850.00000          2890.00000             0.00000
           576.00000        116873.85938       -243884.67188          1217.83728            61.01530           -42.09829            74.12916          -344.65408           -61.93222           -49.57150          4850.00000          2510.00000             0.00000
           577.00000        107049.39062       -211652.14062         -1128.02637            61.32103          -109.75227           125.72124          -279.95157           -39.24890           -56.65785          4850.00000          2130.00000             0.00000
           578.00000         83962.98438       -149432.12500         -2134.99121            47.57710          -171.85376           178.31796          -141.14484            -2.85511           -52.81857          4850.00000          1750.00000             0.00000
           579.00000         51051.37891        -61010.11719         -1598.64771            22.87926          -225.01508           226.17525            51.95564            43.59533           -17.90584          4850.00000          1370.00000             0.00000
           580.00000         31424.10156         42322.26953         -7645.29541            26.58855          -252.15480           253.55274           142.52069            -4.37288            37.14845          4850.00000           990.00000             0.00000
           581.00000         10966.71094        -24657.70117         -3185.85229            11.43338           172.04788           172.42736           193.59943            71.53694           -10.81594          5238.00000          4410.00000             0.00000
           582.00000         26965.72070        -96033.82031         -6488.72852             3.98179           155.57753           155.62848           155.33408            56.14249           -27.65608          5238.00000          4030.00000             0.00000
           583.00000         59890.65625       -161385.25000         -7030.97656             1.73562           123.27302           123.28524             4.86970            24.39568           -32.80223          5238.00000          3650.00000             0.00000
           584.00000         96225.78125       -212218.56250         -5591.71387             5.98607            73.05083            73.29569          -179.65311            -1.66055           -33.85019          5238.00000          3270.00000             0.00000
           585.00000        122200.76562       -239459.00000         -2760.42041             8.56704            14.91514            17.20045          -314.22086           -11.32794           -34.43845          5238.00000          2890.00000             0.00000
           586.00000        130385.28125       -237754.43750           730.98694             7.10352           -48.48402            49.00164          -346.62924            -1.32615           -29.44059          5238.00000          2510.00000             0.00000
           587.00000        120808.32812       -204451.51562          4168.83545             6.12422          -116.38824           116.54926          -276.72491            28.43039           -21.11438          5238.00000          2130.00000             0.00000
           588.00000         95685.96875       -140115.73438          7046.75684             3.86179          -182.22517           182.26609          -135.34744            68.96065           -16.88528          5238.00000          1750.00000             0.00000
           589.00000         58853.26562        -52789.95312          8449.07520            16.60774          -222.18878           222.80860            60.99536            81.10014           -29.13029          5238.00000          1370.00000             0.00000
           590.00000         35196.87500         44486.53125         11527.22363            12.41008          -240.06848           240.38903           160.36493            18.81134           -58.77194          5238.00000           990.00000             0.00000
           591.00000         12955.80469        -24613.72461        -20029.51758             7.55812           178.10262           178.26291           141.04037            22.99035           -11.76346          5626.00000          4410.00000             0.00000
           592.00000         24630.08008       -104878.04688        -20269.36523            -3.11966           151.14508           151.17727           135.97844             2.66283           -62.88734          5626.00000          4030.00000             0.00000
           593.00000         55508.94531       -174151.57812        -22707.07031           -21.90189           125.74736           127.64048            11.47599           -37.48745           -71.22347          5626.00000          3650.00000             0.00000
           594.00000         95397.80469       -229379.85938        -19547.35156           -35.91584            77.03606            84.99707          -175.96436           -78.78233           -55.17804          5626.00000          3270.00000             0.00000
           595.00000        122828.29688       -260293.10938        -11430.67090           -38.56097            18.85697            42.92475          -302.21442          -101.50594           -39.12127          5626.00000          2890.00000             0.00000
           596.00000        130707.53906       -260900.10938          -753.94385           -43.46436           -43.26004            61.32358          -329.21143          -107.07301           -15.87452          5626.00000          2510.00000             0.00000
           597.00000        119224.90625       -229365.60938          9841.11230           -47.10206          -107.72444           117.57193          -260.48529           -91.83828            11.80525          5626.00000          2130.00000             0.00000
           598.00000         93515.02344       -166469.87500         18334.54883           -39.04047          -169.27908           173.72267          -138.81099           -56.24466            23.74265          5626.00000          1750.00000             0.00000
           599.00000         62261.01172        -73092.45312         24311.57031           -10.57263          -226.36758           226.61435            -5.18919            -4.91764           -19.24570          5626.00000          1370.00000             0.00000
           600.00000         44378.02344         44309.61328         24678.49219             8.20634          -270.32010           270.44463           108.34811            21.26157          -121.36337          5626.00000           990.00000             0.00000
           601.00000         13369.59375        -16437.54102        -42950.39062            -6.29286           210.43288           210.52695            55.01854           -99.35345            -8.12128          6014.00000          4410.00000             0.00000
           602.00000         20489.33008       -114518.98438        -41215.00781           -16.44466           180.84456           181.59070            81.62543          -113.22565           -97.89674          6014.00000          4030.00000             0.00000
           603.00000         41992.11719       -198227.96875        -42409.57031           -42.77821           148.81903           154.84534            20.07113          -168.05432          -133.74162          6014.00000          3650.00000             0.00000
           604.00000         82832.14062       -264920.84375        -36597.93359           -79.48359           102.87875           130.00645          -151.37701          -234.58963          -105.50334          6014.00000          3270.00000             0.00000
           605.00000        111956.27344       -303839.37500        -20936.11328           -89.46556            31.46974            94.83897          -267.24512          -290.34540           -64.90849          6014.00000          2890.00000             0.00000
           606.00000        120369.17188       -306055.71875          -648.04681           -95.37778           -41.35472           103.95736          -286.70407          -308.01135           -18.55517          6014.00000          2510.00000             0.00000
           607.00000        105161.24219       -272473.62500         18031.43164           -94.61469          -105.87931           141.99426          -221.65309          -304.88968            31.92234          6014.00000          2130.00000             0.00000
           608.00000         80965.43750       -210314.31250         33355.95312           -86.85249          -166.22865           187.55085          -131.46542          -279.94095            69.93891          6014.00000          1750.00000             0.00000
           609.00000         58144.61328       -116978.87500         49296.25391           -59.60953          -233.02113           240.52473           -83.55195          -231.87698            47.35418          6014.00000          1370.00000             0.00000
           610.00000         38019.75781         16529.17578         55959.77734           -21.42159          -303.61417           304.36893           -36.71966          -139.22945           -73.75932          6014.00000           990.00000             0.00000
           611.00000          5824.03809          -444.35904        -65796.75000           -11.33801           251.54916           251.80455           -47.31317          -242.11884           -13.11525          6402.00000          4410.00000             0.00000
           612.00000         14372.22656       -116501.41406        -66227.15625           -32.52111           235.33119           237.56766           -21.70351          -255.64899          -126.53249          6402.00000          4030.00000             0.00000
           613.00000         24787.66992       -219554.20312        -61842.75781           -61.14668           199.40497           208.56955             0.64466          -299.64130          -200.45837          6402.00000          3650.00000             0.00000
           614.00000         54480.96484       -304873.96875        -54574.16406          -129.39294           168.38423           212.35768           -95.58885          -364.05460          -188.25836          6402.00000          3270.00000             0.00000
           615.00000         86182.36719       -359227.46875        -29053.40820          -179.61514            54.08027           187.58005          -197.73500          -419.09811          -110.70069          6402.00000          2890.00000             0.00000
           616.00000         94721.81250       -355005.90625          2429.79517          -163.61308           -75.02216           179.99324          -213.61493          -452.40381           -22.76720          6402.00000          2510.00000             0.00000
           617.00000         80255.18750       -309792.03125         26011.34570          -133.70122          -142.41913           195.34386          -171.56236          -441.10162            48.91428          6402.00000          2130.00000             0.00000
           618.00000         57054.83594       -243646.12500         44311.88672          -128.18863          -172.57512           214.97557           -92.51311          -429.57303           102.00665          6402.00000          1750.00000             0.00000
           619.00000         43338.89062       -154930.35938         69384.28906          -128.56941          -243.65817           275.49846          -140.11812          -408.41077           103.54897          6402.00000          1370.00000             0.00000
           620.00000         21644.35742        -18576.94531         91513.73438          -101.12224          -357.46368           371.49158          -192.23161          -360.25891             8.92363          6402.00000           990.00000             0.00000
           621.00000         -7255.51465         22914.56836        -83500.21875            -2.94519           300.62341           300.63784          -155.34402          -382.63599           -24.69232          6790.00000          4410.00000             0.00000
           622.00000          4993.64600       -108722.65625        -89759.14844           -43.84203           298.47458           301.67731          -147.98903          -396.38470          -143.34000          6790.00000          4030.00000             0.00000
           623.00000         11105.15137       -232057.10938        -75490.17188           -55.28643           272.60483           278.15460           -42.45168          -404.21228          -235.90109          6790.00000          3650.00000             0.00000
           624.00000         26073.52734       -329554.62500        -66267.11719          -118.86430           208.21432           239.75389           -69.19452          -423.09689          -241.12430          6790.00000          3270.00000             0.00000
           625.00000         40775.28516       -385250.15625        -33638.01953          -227.09380            68.91798           237.32105           -56.06717          -454.73770          -158.30083          6790.00000          2890.00000             0.00000
           626.00000         55429.83984       -383266.46875          4191.89697          -198.48805           -93.36476           219.35014          -108.94563          -461.93747           -19.84852          6790.00000          2510.00000             0.00000
           627.00000         48711.69531       -329717.87500         30098.61328          -127.91083          -180.09181           220.89418          -110.17340          -463.36630            53.23555          6790.00000          2130.00000             0.00000
           628.00000         31071.78320       -261649.64062         47705.23047          -127.32844          -170.95464           213.16195           -54.50202          -463.63147           106.49120          6790.00000          1750.00000             0.00000
           629.00000         22657.56445       -178945.57812         80182.50781          -154.61841          -251.42166           295.16047          -166.99455          -464.88968           123.53578          6790.00000          1370.00000             0.00000
           630.00000          -653.49420        -43638.17188        115616.80469          -127.05540          -403.10474           422.65412          -337.92761          -473.82590            46.85619          6790.00000           990.00000             0.00000
           631.00000        -21825.91016         45097.07031        -94324.03125            19.05387           352.95154           353.46547          -259.39581          -502.04922           -48.28310          7178.00000          4410.00000             0.00000
           632.00000         -3638.33765        -98648.44531       -105316.74219           -38.01369           357.42133           359.43712          -264.12036          -508.50861          -145.54462          7178.00000          4030.00000             0.00000
           633.00000          6701.56641       -237912.25000        -82458.54688           -61.84752           336.67221           342.30585           -93.98315          -487.06317          -228.41508          7178.00000          3650.00000             0.00000
           634.00000         11130.59082       -340907.15625        -65634.96094           -82.34278           216.19370           231.34400           -40.59533          -453.74124          -231.57100          7178.00000          3270.00000             0.00000
           635.00000          1455.01770       -387895.37500        -30398.47266          -158.55034            55.61492           168.02151            88.40197          -425.82083          -159.79330          7178.00000          2890.00000             0.00000
           636.00000         15091.60254       -383336.25000          -611.57678          -168.69704           -74.96584           184.60381            23.54095          -422.47864           -28.19931          7178.00000          2510.00000             0.00000
           637.00000         24802.92188       -336974.18750         31381.85938          -112.66005          -175.91884           208.90123           -72.79511          -432.14548            45.83234          7178.00000          2130.00000             0.00000
           638.00000         10106.02734       -274371.31250         45976.14844          -100.15442          -169.31783           196.72172           -15.00798          -440.92941            99.58760          7178.00000          1750.00000             0.00000
           639.00000         12264.63867       -195055.82812         83291.92188          -124.88076          -255.26047           284.17092          -196.00520          -467.53400            99.23937          7178.00000          1370.00000             0.00000
           640.00000         -9798.64355        -61985.85547        125228.52344           -96.85752          -433.46094           444.15061          -447.19537          -502.31406            39.09037          7178.00000           990.00000             0.00000
           641.00000        -34032.56250         59169.24219        -97193.46094            37.52677           391.40552           393.20038          -332.34671          -558.15173           -77.60983          7566.00000          4410.00000             0.00000
           642.00000         -7911.86865        -89862.33594       -111356.61719           -27.48557           391.44879           392.41255          -342.97382          -561.92346          -130.07677          7566.00000          4030.00000             0.00000
           643.00000          8948.44922       -234316.46875        -82326.38281           -81.33205           371.61191           380.40809          -137.56548          -518.56122          -180.44188          7566.00000          3650.00000             0.00000
           644.00000          1430.10059       -342475.28125        -55467.14453           -89.26809           239.63983           255.72650            14.66442          -455.96579          -177.50464          7566.00000          3270.00000             0.00000
           645.00000         -8787.27832       -387828.65625        -24525.66992           -90.40681            56.25095           106.47798           154.99133          -397.56857          -112.40696          7566.00000          2890.00000             0.00000
           646.00000         -5264.09961       -381407.93750         -3449.79932          -117.34334           -76.60671           140.13582           135.00883          -373.73685           -44.46304          7566.00000          2510.00000             0.00000
           647.00000          1782.27502       -339773.25000         28570.41602          -107.79263          -164.72661           196.86063            -8.42937          -392.51712            37.78083          7566.00000          2130.00000             0.00000
           648.00000          -404.79239       -283125.93750         42310.42188           -77.31580          -164.29277           181.57601            -7.24442          -419.58337            70.13015          7566.00000          1750.00000             0.00000
           649.00000         13733.73730       -206847.73438         81229.67969          -109.83847          -256.86014           279.35930          -225.51480          -463.59583            51.76518          7566.00000          1370.00000             0.00000
           650.00000         -7670.00586        -76770.11719        123363.13281           -87.05687          -450.66513           458.99669          -493.06534          -487.63977            29.60535          7566.00000           990.00000             0.00000
           651.00000        -42966.86328         65177.08203        -94066.42969            49.38441           407.55960           410.54068          -356.83670          -560.99084          -108.08159          7954.00000          4410.00000             0.00000
           652.00000         -6941.47852        -83771.17969       -109190.59375           -17.42718           403.32468           403.70100          -367.48773          -561.48395          -107.07816          7954.00000          4030.00000             0.00000
           653.00000         13416.50195       -226380.45312        -75469.48438          -100.76587           384.11554           397.11271          -159.85023          -512.38214          -112.99018          7954.00000          3650.00000             0.00000
           654.00000         -6643.77539       -336136.56250        -39512.50000           -92.00941           260.06876           275.86499            64.65000          -441.51483          -108.22006          7954.00000          3270.00000             0.00000
           655.00000        -40219.48438       -391795.18750        -17826.00977           -48.35596            90.97284           103.02600            69.43388          -400.80203           -65.62308          7954.00000          2890.00000             0.00000
           656.00000        -61911.25391       -389943.43750         -2997.84766           -75.42024           -96.60621           122.56008           -66.66590          -390.06659           -40.43505          7954.00000          2510.00000             0.00000
           657.00000        -18914.17188       -341270.46875         20460.91797           -83.18970          -158.96487           179.41672            56.12677          -368.25378            12.75732          7954.00000          2130.00000             0.00000
           658.00000         -3188.74316       -287381.59375         36824.85156           -63.71089          -158.96402           171.25606           -16.39625          -406.47226            22.84649          7954.00000          1750.00000             0.00000
           659.00000         18194.14062       -212954.84375         75320.45312          -104.09570          -259.41718           279.52314          -234.08093          -443.01236            13.36285          7954.00000          1370.00000             0.00000
           660.00000         -4557.77393        -85381.69531        115485.23438           -81.00322          -455.36270           462.51131          -473.13388          -450.94327            40.29405          7954.00000           990.00000             0.00000
           661.00000        -46206.52734         67132.73438        -87824.29688            64.78432           415.40417           420.42554          -333.42258          -553.54144          -131.87350          8342.00000          4410.00000             0.00000
           662.00000         -1851.03479        -80389.66406       -101539.89844           -14.36309           406.21008           406.46393          -331.97073          -547.48010           -75.36253          8342.00000          4030.00000             0.00000
           663.00000         19951.39453       -217352.57812        -63689.99219          -118.82135           379.22562           397.40481          -157.05037          -480.73178           -34.94360          8342.00000          3650.00000             0.00000
           664.00000        -14787.38770       -326816.62500        -20317.50781           -69.91107           266.03674           275.06928            92.20792          -400.93152           -28.55193          8342.00000          3270.00000             0.00000
           665.00000        -37813.11719       -388602.09375         -9503.93652           -28.54363            99.27935           103.30115           104.02521          -368.39096           -17.96317          8342.00000          2890.00000             0.00000
           666.00000        -50292.52344       -387170.56250         -3456.07397           -48.53271           -88.71270           101.12056            24.20889          -351.86142           -38.08542          8342.00000          2510.00000             0.00000
           667.00000        -25087.79688       -339754.06250         11242.87793           -41.67319          -152.66194           158.24766           114.77115          -330.74780           -24.93136          8342.00000          2130.00000             0.00000
           668.00000         -1064.71326       -286173.87500         31007.43164           -61.08800          -159.23622           170.55180           -31.81823          -374.21222           -23.48300          8342.00000          1750.00000             0.00000
           669.00000         21956.86914       -214939.07812         66528.50000          -100.29102          -261.35544           279.93741          -210.35817          -420.87814           -15.66701          8342.00000          1370.00000             0.00000
           670.00000         -2060.77124        -89462.52344        104561.22656           -73.31119          -459.18802           465.00341          -398.63199          -422.52979            58.52742          8342.00000           990.00000             0.00000
           671.00000        -41346.71094         63102.08594        -77992.92969            80.49137           428.32587           435.82325          -257.13437          -533.12469          -146.62218          8730.00000          4410.00000             0.00000
           672.00000          5881.75293        -77942.37500        -86531.93750           -23.60414           406.35294           407.03791          -231.25311          -505.97125           -30.11608          8730.00000          4030.00000             0.00000
           673.00000         22242.11914       -207743.20312        -47539.54688          -130.70538           382.29382           404.02038          -139.63341          -439.65201            55.95708          8730.00000          3650.00000             0.00000
           674.00000         -9430.97168       -316467.53125         -8900.24121           -54.27969           273.96512           279.29048            78.20016          -359.98297            53.22976          8730.00000          3270.00000             0.00000
           675.00000        -12183.89062       -376968.53125         -4966.91211             2.22749            95.66614            95.69207           213.47255          -292.34497             6.05662          8730.00000          2890.00000             0.00000
           676.00000        -12710.72559       -376587.81250            79.40185           -13.16161           -80.66959            81.73622           216.29196          -273.02350           -14.58229          8730.00000          2510.00000             0.00000
           677.00000        -21674.28711       -335301.68750          5152.39502           -20.04075          -158.92471           160.18332           117.61607          -303.55566           -41.69067          8730.00000          2130.00000             0.00000
           678.00000          2136.88232       -282494.43750         22125.41992           -55.79880          -170.05666           178.97702           -59.81975          -356.34622           -95.45000          8730.00000          1750.00000             0.00000
           679.00000         22881.47852       -215127.09375         51838.38281           -98.63752          -265.82590           283.53618          -130.07269          -396.36423           -39.02179          8730.00000          1370.00000             0.00000
           680.00000          2973.11816        -93802.32812         91070.23438           -65.41730          -468.13147           472.68012          -291.54022          -408.77521            71.77128          8730.00000           990.00000             0.00000
           681.00000        -27143.95703         51111.05078        -59927.71875            68.40913           388.14380           394.12614          -119.47110          -405.29190          -116.49751          9118.00000          4410.00000             0.00000
           682.00000         10839.43359        -70148.83594        -63664.26953           -31.35398           361.47235           362.82962          -108.80620          -355.88513            14.42636          9118.00000          4030.00000             0.00000
           683.00000         18242.73047       -191607.71875        -31513.95898          -124.36887           348.86993           370.37528           -83.81474          -344.03555           105.76912          9118.00000          3650.00000             0.00000
           684.00000        -23285.36133       -307763.37500         -2257.43213           -39.08135           273.06729           275.84977           -39.97078          -323.79855           110.47008          9118.00000          3270.00000             0.00000
           685.00000        -87037.48438       -383859.46875          1289.80493            29.46457            79.90124            85.16084          -250.98465          -322.37177            43.76500          9118.00000          2890.00000             0.00000
           686.00000        -90146.76562       -386144.59375         -1830.11829            20.20221           -55.28025            58.85606          -255.54381          -311.23477           -27.00479          9118.00000          2510.00000             0.00000
           687.00000        -39012.66406       -335129.31250          4697.77930            -4.44339          -154.82991           154.89366           -96.08890          -307.71259           -92.94913          9118.00000          2130.00000             0.00000
           688.00000          2361.39844       -271092.03125         15463.07031           -40.67446          -143.99994           149.63420           -41.93143          -300.71075          -118.90228          9118.00000          1750.00000             0.00000
           689.00000         19184.17383       -201910.51562         33850.69922           -89.94792          -232.28494           249.09220           -39.00256          -291.72079           -63.46818          9118.00000          1370.00000             0.00000
           690.00000          9811.76953        -93912.00781         70217.30469           -78.92853          -435.41516           442.51110          -151.42657          -342.32349            48.75549          9118.00000           990.00000             0.00000
           691.00000         -8689.12598         30181.53320        -29928.12891            18.24076           374.18674           374.63107            -0.44933           -16.16636           -26.20500          9506.00000          4410.00000             0.00000
           692.00000          6147.79004        -53751.80859        -34605.03125           -20.19838           327.99982           328.62114           -33.25886             7.31376            12.52854          9506.00000          4030.00000             0.00000
           693.00000          9502.05566       -152303.03125        -22021.16602           -63.79041           404.08926           409.09333           -26.76867           -59.50444            57.57040          9506.00000          3650.00000             0.00000
           694.00000         -7583.95898       -280348.31250         -6782.53906           -18.57215           364.50534           364.97817           -37.11979          -175.68347            93.12312          9506.00000          3270.00000             0.00000
           695.00000        -56985.00000       -384641.18750          5887.77246            49.66861           150.89426           158.85858          -239.66107          -323.66577            67.02967          9506.00000          2890.00000             0.00000
           696.00000        -64597.73438       -393443.46875         -4189.17529            42.86960          -118.16697           125.70296          -239.09511          -345.65488           -43.80586          9506.00000          2510.00000             0.00000
           697.00000         -8680.01562       -319658.03125         10519.50098            -1.82567          -239.36514           239.37211           -48.53235          -209.22440           -80.99731          9506.00000          2130.00000             0.00000
           698.00000           325.65829       -241868.60938         17296.45117            -5.88725          -248.73523           248.80489            -6.95279          -103.76029           -52.12180          9506.00000          1750.00000             0.00000
           699.00000          8763.88672       -162025.93750         21784.36133           -54.13517          -306.00552           310.75714            -7.29182           -24.85086           -45.96714          9506.00000          1370.00000             0.00000
           700.00000         10488.78711        -67931.46875         33987.59766           -71.75523          -406.66199           412.94405           -25.96472            22.47859           -12.03336          9506.00000           990.00000             0.00000
           701.00000          2026.48169        170123.01562        -11265.93164            14.30769           177.23898           177.81554            26.04527           -77.69196            64.41514           194.00000          5200.00000             0.00000
           702.00000         -3858.00903         73387.64062        -19469.60352             3.65812           184.58344           184.61968           -26.61605            26.66251            60.17395           194.00000          4800.00000             0.00000
           703.00000          1766.34509        199344.92188        -15833.88965             5.90520           286.76648           286.82727            48.79276          -150.97581            96.14883           582.00000          5200.00000             0.00000
           704.00000         -6877.50342         91388.63281        -25932.35938            29.55663           274.42593           276.01302           -47.64214          -152.83809           103.69273           582.00000          4800.00000             0.00000
           705.00000           817.36823        229857.65625        -14343.33984           -10.26909           343.13940           343.29303            58.09516          -257.43661            90.29774           970.00000          5200.00000             0.00000
           706.00000         -9926.13184        105020.02344        -23045.50195            21.89225           293.32788           294.14370           -47.87082          -257.32352           109.57605           970.00000          4800.00000             0.00000
           707.00000         -1062.41968        250464.89062        -13585.39941           -18.13343           383.05884           383.48780            61.50178          -317.72647            89.33317          1358.00000          5200.00000             0.00000
           708.00000        -13930.35449        117485.00000        -17795.41602            16.08366           303.18637           303.61268           -37.40235          -332.71777            99.88830          1358.00000          4800.00000             0.00000
           709.00000         -2127.31372        261882.65625         -9335.03418            -3.32902           407.74899           407.76258            70.43413          -334.50983            63.05490          1746.00000          5200.00000             0.00000
           710.00000        -14607.81934        124979.84375        -11529.16406            11.80377           305.09213           305.32039           -26.80269          -363.63889            79.40014          1746.00000          4800.00000             0.00000
           711.00000         -1888.71472        266953.18750         -4749.18799            -3.75251           414.99908           415.01605            81.76342          -343.56946            34.32647          2134.00000          5200.00000             0.00000
           712.00000        -14208.67578        128074.07812         -4327.75439            -8.34299           308.45657           308.56938           -14.23544          -377.73672            46.36814          2134.00000          4800.00000             0.00000
           713.00000         -1902.09387        267126.62500            24.05235            -2.83592           414.46472           414.47442            88.68644          -348.90485             4.43269          2522.00000          5200.00000             0.00000
           714.00000        -15188.60449        129000.24219          3875.56274           -29.93001           310.14432           311.58515           -10.33039          -386.52991             7.13273          2522.00000          4800.00000             0.00000
           715.00000         -1750.46509        262772.03125          5679.98438            -2.49435           407.66449           407.67212            89.00262          -351.56091           -31.74171          2910.00000          5200.00000             0.00000
           716.00000        -14292.39160        127377.93750         12930.91211           -36.29103           310.02081           312.13770            -6.98335          -397.06082           -36.24524          2910.00000          4800.00000             0.00000
           717.00000          -777.30359        253169.70312         12691.46973             1.64754           392.73764           392.74110            76.70133          -351.06497           -78.07895          3298.00000          5200.00000             0.00000
           718.00000         -9355.70117        121906.27344         21952.40625           -29.24408           304.41125           305.81273             7.54689          -403.53516           -86.45753          3298.00000          4800.00000             0.00000
           719.00000          1585.33643        236158.09375         20103.54297            13.69255           362.58954           362.84798            52.15512          -332.24988          -128.57578          3686.00000          5200.00000             0.00000
           720.00000         -1306.33777        111909.39062         26756.26562           -17.21598           281.53146           282.05736            28.96545          -375.84241          -131.95160          3686.00000          4800.00000             0.00000
           721.00000          4847.12842        210914.79688         24384.50195            36.98288           317.68335           319.82877            32.30219          -282.67313          -158.82164          4074.00000          5200.00000             0.00000
           722.00000          8098.22168         97173.01562         24525.82422            -0.09191           247.01265           247.01267            66.07987          -286.85895          -150.63928          4074.00000          4800.00000             0.00000
           723.00000          8249.38965        181307.34375         22369.06641            33.90439           259.94278           262.14453            28.38935          -203.95590          -147.53044          4462.00000          5200.00000             0.00000
           724.00000         12191.04883         78549.38281         19050.10352             5.88264           219.05586           219.13484           101.35212          -162.17273          -120.87994          4462.00000          4800.00000             0.00000
           725.00000         14268.47754        157067.65625         12201.02734            10.79125           219.39262           219.65786             5.98979          -108.26691           -83.15292          4850.00000          5200.00000             0.00000
           726.00000         10569.19238         61129.64062          9970.46094             2.12170           199.27225           199.28354           140.60463           -32.05723           -64.71410          4850.00000          4800.00000             0.00000
           727.00000         13406.84277        146849.48438          -809.02045            13.70986           202.44933           202.91301            13.26087           -42.73703            -4.90193          5238.00000          5200.00000             0.00000
           728.00000          7474.30225         53377.51953         -2917.76343            -1.12616           185.32153           185.32495           169.86449            40.37976             8.77259          5238.00000          4800.00000             0.00000
           729.00000          6657.38916        156079.93750        -12958.52539            11.67699           187.02011           187.38430            71.21592           -47.24483            69.06692          5626.00000          5200.00000             0.00000
           730.00000          7816.89648         69877.47656        -16319.48633             6.27448           192.00154           192.10404           128.25848            19.48309            59.25519          5626.00000          4800.00000             0.00000
           731.00000          6282.35156        187535.04688        -19265.52734            13.22674           212.60251           213.01355           106.60282          -111.92502           103.38982          6014.00000          5200.00000             0.00000
           732.00000          4014.55664         89491.47656        -34539.51562            31.68609           224.68114           226.90443            65.31465          -107.27460            77.29348          6014.00000          4800.00000             0.00000
           733.00000          4425.87305        231403.21875        -20416.48242            20.58881           270.81461           271.59612           122.82581          -225.68791           105.44440          6402.00000          5200.00000             0.00000
           734.00000         -4471.22607        117649.73438        -49567.62891            44.59614           263.94885           267.68977            -3.89708          -229.58330            76.99203          6402.00000          4800.00000             0.00000
           735.00000          1414.06885        281237.81250        -19416.24219            34.38676           340.73972           342.47044           134.74947          -332.00787            95.66702          6790.00000          5200.00000             0.00000
           736.00000        -18207.06055        151416.84375        -60476.77734            68.56620           300.46417           308.18832           -75.37764          -363.46280            62.55684          6790.00000          4800.00000             0.00000
           737.00000          -372.50711        332319.50000        -12024.01953            75.59103           413.14200           420.00038           154.51785          -408.52057            42.98663          7178.00000          5200.00000             0.00000
           738.00000        -32162.10742        186026.09375        -64487.65234            91.29298           349.28726           361.02078          -138.13005          -458.42731            32.12907          7178.00000          4800.00000             0.00000
           739.00000           278.69922        374517.53125         -2241.01392            92.12383           454.85654           464.09187           181.41991          -427.22577           -20.23855          7566.00000          5200.00000             0.00000
           740.00000        -45464.23828        210241.28125        -63033.81641           113.85247           393.76883           409.89788          -187.36246          -503.86047           -30.89312          7566.00000          4800.00000             0.00000
           741.00000          1337.32410        386490.87500          8588.71973           106.15831           472.46817           484.24762           196.38399          -448.41068           -85.40805          7954.00000          5200.00000             0.00000
           742.00000        -54538.25000        219016.90625        -59356.65625           137.33043           409.03479           431.47318          -220.02615          -512.28741           -97.92603          7954.00000          4800.00000             0.00000
           743.00000          3824.80176        391822.96875         18743.18555           117.90971           487.08215           501.15040           193.51994          -453.68567          -146.92755          8342.00000          5200.00000             0.00000
           744.00000        -58002.44922        220411.20312        -52704.48828           158.03383           408.90051           438.37692          -227.82092          -512.58826          -160.36742          8342.00000          4800.00000             0.00000
           745.00000          7120.10645        398218.28125         26245.01172           123.69455           507.54257           522.39813           181.02417          -472.59009          -192.78024          8730.00000          5200.00000             0.00000
           746.00000        -53997.00781        217599.37500        -45267.40625           174.09903           428.42438           462.44775          -220.69510          -501.30655          -208.37694          8730.00000          4800.00000             0.00000
           747.00000         13061.85254        396844.96875         28009.61719           134.37660           500.61853           518.33964           157.10773          -443.80432          -202.76520          9118.00000          5200.00000             0.00000
           748.00000        -39234.74219        204092.40625        -38439.66406           184.38252           438.83884           476.00046          -204.77945          -459.92636          -232.70804          9118.00000          4800.00000             0.00000
           749.00000         13999.91797        392125.68750         20892.87305            34.27874           791.52893           792.27084            78.09148          -396.94995          -159.41672          9506.00000          5200.00000             0.00000
           750.00000        -18969.24414        151414.26562        -33991.22266           133.76337           474.86780           493.34781          -126.06903          -163.98520          -125.09818          9506.00000          4800.00000             0.00000
